%!PS-Adobe-3.0 EPSF-3.0
%%Creator: cairo 1.16.0 (https://cairographics.org)
%%CreationDate: Wed Aug  7 13:08:43 2019
%%Pages: 1
%%DocumentData: Clean7Bit
%%LanguageLevel: 2
%%BoundingBox: 0 0 333 126
%%EndComments
%%BeginProlog
50 dict begin
/q { gsave } bind def
/Q { grestore } bind def
/cm { 6 array astore concat } bind def
/w { setlinewidth } bind def
/J { setlinecap } bind def
/j { setlinejoin } bind def
/M { setmiterlimit } bind def
/d { setdash } bind def
/m { moveto } bind def
/l { lineto } bind def
/c { curveto } bind def
/h { closepath } bind def
/re { exch dup neg 3 1 roll 5 3 roll moveto 0 rlineto
      0 exch rlineto 0 rlineto closepath } bind def
/S { stroke } bind def
/f { fill } bind def
/f* { eofill } bind def
/n { newpath } bind def
/W { clip } bind def
/W* { eoclip } bind def
/BT { } bind def
/ET { } bind def
/BDC { mark 3 1 roll /BDC pdfmark } bind def
/EMC { mark /EMC pdfmark } bind def
/cairo_store_point { /cairo_point_y exch def /cairo_point_x exch def } def
/Tj { show currentpoint cairo_store_point } bind def
/TJ {
  {
    dup
    type /stringtype eq
    { show } { -0.001 mul 0 cairo_font_matrix dtransform rmoveto } ifelse
  } forall
  currentpoint cairo_store_point
} bind def
/cairo_selectfont { cairo_font_matrix aload pop pop pop 0 0 6 array astore
    cairo_font exch selectfont cairo_point_x cairo_point_y moveto } bind def
/Tf { pop /cairo_font exch def /cairo_font_matrix where
      { pop cairo_selectfont } if } bind def
/Td { matrix translate cairo_font_matrix matrix concatmatrix dup
      /cairo_font_matrix exch def dup 4 get exch 5 get cairo_store_point
      /cairo_font where { pop cairo_selectfont } if } bind def
/Tm { 2 copy 8 2 roll 6 array astore /cairo_font_matrix exch def
      cairo_store_point /cairo_font where { pop cairo_selectfont } if } bind def
/g { setgray } bind def
/rg { setrgbcolor } bind def
/d1 { setcachedevice } bind def
/cairo_data_source {
  CairoDataIndex CairoData length lt
    { CairoData CairoDataIndex get /CairoDataIndex CairoDataIndex 1 add def }
    { () } ifelse
} def
/cairo_flush_ascii85_file { cairo_ascii85_file status { cairo_ascii85_file flushfile } if } def
/cairo_image { image cairo_flush_ascii85_file } def
/cairo_imagemask { imagemask cairo_flush_ascii85_file } def
%%EndProlog
%%BeginSetup
%%EndSetup
%%Page: 1 1
%%BeginPageSetup
%%PageBoundingBox: 0 0 333 126
%%EndPageSetup
q 0 0 333 126 rectclip
1 0 0 -1 0 126 cm q
Q q
q
0 0 333 126 re W n
  q
1 g
0 0 333 126 rectfill
  Q
Q
1 g
23.656 6.488 302.523 99.922 re f*
0.33871 w
0 J
1 j
[] 0.0 d
10 M q 1 0 0 1 0 0 cm
23.656 6.488 302.523 99.922 re S Q
0 g
q 1 0 0 1 0 0 cm
23.656 106.41 m 326.18 106.41 l S Q
q 1 0 0 1 0 0 cm
23.656 6.492 m 326.18 6.492 l S Q
q 1 0 0 1 0 0 cm
23.656 106.41 m 23.656 6.492 l S Q
q 1 0 0 1 0 0 cm
326.18 106.41 m 326.18 6.492 l S Q
q 1 0 0 1 0 0 cm
23.656 106.41 m 326.18 106.41 l S Q
q 1 0 0 1 0 0 cm
23.656 106.41 m 23.656 6.492 l S Q
q 1 0 0 1 0 0 cm
23.656 106.41 m 23.656 103.359 l S Q
q 1 0 0 1 0 0 cm
23.656 6.492 m 23.656 9.48 l S Q
25.293 112.266 m 25.293 113.039 25.156 113.633 24.887 114.047 c 24.613 
114.453 24.207 114.656 23.668 114.656 c 23.137 114.656 22.734 114.453 22.465
 114.047 c 22.191 113.641 22.059 113.047 22.059 112.266 c 22.059 111.465
 22.188 110.867 22.449 110.469 c 22.707 110.062 23.121 109.859 23.684 109.859
 c 24.234 109.859 24.641 110.062 24.902 110.469 c 25.16 110.875 25.293 111.477
 25.293 112.266 c h
24.699 112.266 m 24.699 111.59 24.621 111.102 24.465 110.797 c 24.309 110.496
 24.047 110.344 23.684 110.344 c 23.316 110.344 23.059 110.496 22.902 110.797
 c 22.746 111.09 22.668 111.578 22.668 112.266 c 22.668 112.922 22.746 113.406
 22.902 113.719 c 23.066 114.023 23.328 114.172 23.684 114.172 c 24.027 
114.172 24.281 114.016 24.449 113.703 c 24.613 113.391 24.699 112.914 24.699
 112.266 c h
24.699 112.266 m f
q 1 0 0 1 0 0 cm
74.066 106.41 m 74.066 103.359 l S Q
q 1 0 0 1 0 0 cm
74.066 6.492 m 74.066 9.48 l S Q
75.688 113.078 m 75.688 113.57 75.539 113.953 75.25 114.234 c 74.957 114.516
 74.551 114.656 74.031 114.656 c 73.594 114.656 73.238 114.562 72.969 114.375
 c 72.707 114.188 72.539 113.914 72.469 113.547 c 73.078 113.484 l 73.203
 113.945 73.523 114.172 74.047 114.172 c 74.367 114.172 74.617 114.078 74.797
 113.891 c 74.984 113.695 75.078 113.43 75.078 113.094 c 75.078 112.793 
74.984 112.555 74.797 112.375 c 74.617 112.199 74.375 112.109 74.062 112.109
 c 73.895 112.109 73.742 112.137 73.609 112.188 c 73.473 112.23 73.332 112.312
 73.188 112.438 c 72.609 112.438 l 72.766 109.922 l 75.422 109.922 l 75.422
 110.438 l 73.312 110.438 l 73.219 111.922 l 73.477 111.715 73.801 111.609
 74.188 111.609 c 74.645 111.609 75.008 111.746 75.281 112.016 c 75.551 
112.289 75.688 112.641 75.688 113.078 c h
75.688 113.078 m f
q 1 0 0 1 0 0 cm
124.477 106.41 m 124.477 103.359 l S Q
q 1 0 0 1 0 0 cm
124.477 6.492 m 124.477 9.48 l S Q
121.266 114.594 m 121.266 114.094 l 122.453 114.094 l 122.453 110.5 l 121.406
 111.25 l 121.406 110.688 l 122.5 109.922 l 123.047 109.922 l 123.047 114.094
 l 124.188 114.094 l 124.188 114.594 l h
121.266 114.594 m f
128.02 112.266 m 128.02 113.039 127.883 113.633 127.613 114.047 c 127.34
 114.453 126.934 114.656 126.395 114.656 c 125.863 114.656 125.461 114.453
 125.191 114.047 c 124.918 113.641 124.785 113.047 124.785 112.266 c 124.785
 111.465 124.914 110.867 125.176 110.469 c 125.434 110.062 125.848 109.859
 126.41 109.859 c 126.961 109.859 127.367 110.062 127.629 110.469 c 127.887
 110.875 128.02 111.477 128.02 112.266 c h
127.426 112.266 m 127.426 111.59 127.348 111.102 127.191 110.797 c 127.035
 110.496 126.773 110.344 126.41 110.344 c 126.043 110.344 125.785 110.496
 125.629 110.797 c 125.473 111.09 125.395 111.578 125.395 112.266 c 125.395
 112.922 125.473 113.406 125.629 113.719 c 125.793 114.023 126.055 114.172
 126.41 114.172 c 126.754 114.172 127.008 114.016 127.176 113.703 c 127.34
 113.391 127.426 112.914 127.426 112.266 c h
127.426 112.266 m f
q 1 0 0 1 0 0 cm
174.891 106.41 m 174.891 103.359 l S Q
q 1 0 0 1 0 0 cm
174.891 6.492 m 174.891 9.48 l S Q
171.68 114.594 m 171.68 114.094 l 172.867 114.094 l 172.867 110.5 l 171.82
 111.25 l 171.82 110.688 l 172.914 109.922 l 173.461 109.922 l 173.461 114.094
 l 174.602 114.094 l 174.602 114.594 l h
171.68 114.594 m f
178.414 113.078 m 178.414 113.57 178.266 113.953 177.977 114.234 c 177.684
 114.516 177.277 114.656 176.758 114.656 c 176.32 114.656 175.965 114.562
 175.695 114.375 c 175.434 114.188 175.266 113.914 175.195 113.547 c 175.805
 113.484 l 175.93 113.945 176.25 114.172 176.773 114.172 c 177.094 114.172
 177.344 114.078 177.523 113.891 c 177.711 113.695 177.805 113.43 177.805
 113.094 c 177.805 112.793 177.711 112.555 177.523 112.375 c 177.344 112.199
 177.102 112.109 176.789 112.109 c 176.621 112.109 176.469 112.137 176.336
 112.188 c 176.199 112.23 176.059 112.312 175.914 112.438 c 175.336 112.438
 l 175.492 109.922 l 178.148 109.922 l 178.148 110.438 l 176.039 110.438
 l 175.945 111.922 l 176.203 111.715 176.527 111.609 176.914 111.609 c 177.371
 111.609 177.734 111.746 178.008 112.016 c 178.277 112.289 178.414 112.641
 178.414 113.078 c h
178.414 113.078 m f
q 1 0 0 1 0 0 cm
225.301 106.41 m 225.301 103.359 l S Q
q 1 0 0 1 0 0 cm
225.301 6.492 m 225.301 9.48 l S Q
221.918 114.594 m 221.918 114.172 l 222.031 113.914 222.168 113.684 222.324
 113.484 c 222.488 113.289 222.66 113.109 222.84 112.953 c 223.016 112.797
 223.191 112.652 223.371 112.516 c 223.547 112.371 223.703 112.23 223.84
 112.094 c 223.984 111.961 224.098 111.82 224.184 111.672 c 224.277 111.516
 224.324 111.344 224.324 111.156 c 224.324 110.898 224.246 110.699 224.09
 110.562 c 223.941 110.418 223.734 110.344 223.465 110.344 c 223.215 110.344
 223.004 110.418 222.84 110.562 c 222.672 110.699 222.578 110.891 222.559
 111.141 c 221.949 111.078 l 221.988 110.703 222.145 110.406 222.418 110.188
 c 222.688 109.969 223.035 109.859 223.465 109.859 c 223.934 109.859 224.293
 109.977 224.543 110.203 c 224.801 110.422 224.934 110.734 224.934 111.141
 c 224.934 111.32 224.891 111.496 224.809 111.672 c 224.723 111.852 224.598
 112.031 224.434 112.219 c 224.277 112.398 223.965 112.672 223.496 113.047
 c 223.246 113.258 223.043 113.445 222.887 113.609 c 222.738 113.777 222.637
 113.938 222.574 114.094 c 225.012 114.094 l 225.012 114.594 l h
221.918 114.594 m f
228.84 112.266 m 228.84 113.039 228.703 113.633 228.434 114.047 c 228.16
 114.453 227.754 114.656 227.215 114.656 c 226.684 114.656 226.281 114.453
 226.012 114.047 c 225.738 113.641 225.605 113.047 225.605 112.266 c 225.605
 111.465 225.734 110.867 225.996 110.469 c 226.254 110.062 226.668 109.859
 227.23 109.859 c 227.781 109.859 228.188 110.062 228.449 110.469 c 228.707
 110.875 228.84 111.477 228.84 112.266 c h
228.246 112.266 m 228.246 111.59 228.168 111.102 228.012 110.797 c 227.855
 110.496 227.594 110.344 227.23 110.344 c 226.863 110.344 226.605 110.496
 226.449 110.797 c 226.293 111.09 226.215 111.578 226.215 112.266 c 226.215
 112.922 226.293 113.406 226.449 113.719 c 226.613 114.023 226.875 114.172
 227.23 114.172 c 227.574 114.172 227.828 114.016 227.996 113.703 c 228.16
 113.391 228.246 112.914 228.246 112.266 c h
228.246 112.266 m f
q 1 0 0 1 0 0 cm
275.711 106.41 m 275.711 103.359 l S Q
q 1 0 0 1 0 0 cm
275.711 6.492 m 275.711 9.48 l S Q
272.328 114.594 m 272.328 114.172 l 272.441 113.914 272.578 113.684 272.734
 113.484 c 272.898 113.289 273.07 113.109 273.25 112.953 c 273.426 112.797
 273.602 112.652 273.781 112.516 c 273.957 112.371 274.113 112.23 274.25
 112.094 c 274.395 111.961 274.508 111.82 274.594 111.672 c 274.688 111.516
 274.734 111.344 274.734 111.156 c 274.734 110.898 274.656 110.699 274.5
 110.562 c 274.352 110.418 274.145 110.344 273.875 110.344 c 273.625 110.344
 273.414 110.418 273.25 110.562 c 273.082 110.699 272.988 110.891 272.969
 111.141 c 272.359 111.078 l 272.398 110.703 272.555 110.406 272.828 110.188
 c 273.098 109.969 273.445 109.859 273.875 109.859 c 274.344 109.859 274.703
 109.977 274.953 110.203 c 275.211 110.422 275.344 110.734 275.344 111.141
 c 275.344 111.32 275.301 111.496 275.219 111.672 c 275.133 111.852 275.008
 112.031 274.844 112.219 c 274.688 112.398 274.375 112.672 273.906 113.047
 c 273.656 113.258 273.453 113.445 273.297 113.609 c 273.148 113.777 273.047
 113.938 272.984 114.094 c 275.422 114.094 l 275.422 114.594 l h
272.328 114.594 m f
279.238 113.078 m 279.238 113.57 279.09 113.953 278.801 114.234 c 278.508
 114.516 278.102 114.656 277.582 114.656 c 277.145 114.656 276.789 114.562
 276.52 114.375 c 276.258 114.188 276.09 113.914 276.02 113.547 c 276.629
 113.484 l 276.754 113.945 277.074 114.172 277.598 114.172 c 277.918 114.172
 278.168 114.078 278.348 113.891 c 278.535 113.695 278.629 113.43 278.629
 113.094 c 278.629 112.793 278.535 112.555 278.348 112.375 c 278.168 112.199
 277.926 112.109 277.613 112.109 c 277.445 112.109 277.293 112.137 277.16
 112.188 c 277.023 112.23 276.883 112.312 276.738 112.438 c 276.16 112.438
 l 276.316 109.922 l 278.973 109.922 l 278.973 110.438 l 276.863 110.438
 l 276.77 111.922 l 277.027 111.715 277.352 111.609 277.738 111.609 c 278.195
 111.609 278.559 111.746 278.832 112.016 c 279.102 112.289 279.238 112.641
 279.238 113.078 c h
279.238 113.078 m f
q 1 0 0 1 0 0 cm
326.18 106.41 m 326.18 103.359 l S Q
q 1 0 0 1 0 0 cm
326.18 6.492 m 326.18 9.48 l S Q
325.922 113.312 m 325.922 113.742 325.785 114.074 325.516 114.312 c 325.242
 114.543 324.852 114.656 324.344 114.656 c 323.875 114.656 323.5 114.555
 323.219 114.344 c 322.938 114.125 322.77 113.809 322.719 113.391 c 323.328
 113.344 l 323.41 113.898 323.75 114.172 324.344 114.172 c 324.645 114.172
 324.879 114.102 325.047 113.953 c 325.223 113.797 325.312 113.574 325.312
 113.281 c 325.312 113.031 325.211 112.84 325.016 112.703 c 324.816 112.559
 324.535 112.484 324.172 112.484 c 323.828 112.484 l 323.828 111.969 l 324.156
 111.969 l 324.477 111.969 324.727 111.898 324.906 111.75 c 325.094 111.605
 325.188 111.406 325.188 111.156 c 325.188 110.906 325.113 110.711 324.969
 110.562 c 324.82 110.418 324.602 110.344 324.312 110.344 c 324.051 110.344
 323.836 110.414 323.672 110.547 c 323.516 110.684 323.422 110.875 323.391
 111.125 c 322.797 111.078 l 322.836 110.695 322.992 110.398 323.266 110.188
 c 323.535 109.969 323.883 109.859 324.312 109.859 c 324.781 109.859 325.145
 109.969 325.406 110.188 c 325.664 110.406 325.797 110.711 325.797 111.094
 c 325.797 111.398 325.711 111.641 325.547 111.828 c 325.379 112.008 325.141
 112.133 324.828 112.203 c 324.828 112.219 l 325.172 112.25 325.438 112.367
 325.625 112.562 c 325.82 112.762 325.922 113.012 325.922 113.312 c h
325.922 113.312 m f
329.719 112.266 m 329.719 113.039 329.582 113.633 329.312 114.047 c 329.039
 114.453 328.633 114.656 328.094 114.656 c 327.562 114.656 327.16 114.453
 326.891 114.047 c 326.617 113.641 326.484 113.047 326.484 112.266 c 326.484
 111.465 326.613 110.867 326.875 110.469 c 327.133 110.062 327.547 109.859
 328.109 109.859 c 328.66 109.859 329.066 110.062 329.328 110.469 c 329.586
 110.875 329.719 111.477 329.719 112.266 c h
329.125 112.266 m 329.125 111.59 329.047 111.102 328.891 110.797 c 328.734
 110.496 328.473 110.344 328.109 110.344 c 327.742 110.344 327.484 110.496
 327.328 110.797 c 327.172 111.09 327.094 111.578 327.094 112.266 c 327.094
 112.922 327.172 113.406 327.328 113.719 c 327.492 114.023 327.754 114.172
 328.109 114.172 c 328.453 114.172 328.707 114.016 328.875 113.703 c 329.039
 113.391 329.125 112.914 329.125 112.266 c h
329.125 112.266 m f
q 1 0 0 1 0 0 cm
23.656 106.41 m 26.648 106.41 l S Q
q 1 0 0 1 0 0 cm
326.18 106.41 m 323.133 106.41 l S Q
21.453 106.566 m 21.453 107.34 21.316 107.934 21.047 108.348 c 20.773 108.754
 20.367 108.957 19.828 108.957 c 19.297 108.957 18.895 108.754 18.625 108.348
 c 18.352 107.941 18.219 107.348 18.219 106.566 c 18.219 105.766 18.348 
105.168 18.609 104.77 c 18.867 104.363 19.281 104.16 19.844 104.16 c 20.395
 104.16 20.801 104.363 21.062 104.77 c 21.32 105.176 21.453 105.777 21.453
 106.566 c h
20.859 106.566 m 20.859 105.891 20.781 105.402 20.625 105.098 c 20.469 
104.797 20.207 104.645 19.844 104.645 c 19.477 104.645 19.219 104.797 19.062
 105.098 c 18.906 105.391 18.828 105.879 18.828 106.566 c 18.828 107.223
 18.906 107.707 19.062 108.02 c 19.227 108.324 19.488 108.473 19.844 108.473
 c 20.188 108.473 20.441 108.316 20.609 108.004 c 20.773 107.691 20.859 
107.215 20.859 106.566 c h
20.859 106.566 m f
q 1 0 0 1 0 0 cm
23.656 81.402 m 26.648 81.402 l S Q
q 1 0 0 1 0 0 cm
326.18 81.402 m 323.133 81.402 l S Q
15.809 81.559 m 15.809 82.332 15.672 82.926 15.402 83.34 c 15.129 83.746
 14.723 83.949 14.184 83.949 c 13.652 83.949 13.25 83.746 12.98 83.34 c 
12.707 82.934 12.574 82.34 12.574 81.559 c 12.574 80.758 12.703 80.16 12.965
 79.762 c 13.223 79.355 13.637 79.152 14.199 79.152 c 14.75 79.152 15.156
 79.355 15.418 79.762 c 15.676 80.168 15.809 80.77 15.809 81.559 c h
15.215 81.559 m 15.215 80.883 15.137 80.395 14.98 80.09 c 14.824 79.789
 14.562 79.637 14.199 79.637 c 13.832 79.637 13.574 79.789 13.418 80.09 
c 13.262 80.383 13.184 80.871 13.184 81.559 c 13.184 82.215 13.262 82.699
 13.418 83.012 c 13.582 83.316 13.844 83.465 14.199 83.465 c 14.543 83.465
 14.797 83.309 14.965 82.996 c 15.129 82.684 15.215 82.207 15.215 81.559
 c h
15.215 81.559 m f
16.699 83.168 0.641 0.719 re f
21.441 82.371 m 21.441 82.863 21.293 83.246 21.004 83.527 c 20.711 83.809
 20.305 83.949 19.785 83.949 c 19.348 83.949 18.992 83.855 18.723 83.668
 c 18.461 83.48 18.293 83.207 18.223 82.84 c 18.832 82.777 l 18.957 83.238
 19.277 83.465 19.801 83.465 c 20.121 83.465 20.371 83.371 20.551 83.184
 c 20.738 82.988 20.832 82.723 20.832 82.387 c 20.832 82.086 20.738 81.848
 20.551 81.668 c 20.371 81.492 20.129 81.402 19.816 81.402 c 19.648 81.402
 19.496 81.43 19.363 81.48 c 19.227 81.523 19.086 81.605 18.941 81.73 c 
18.363 81.73 l 18.52 79.215 l 21.176 79.215 l 21.176 79.73 l 19.066 79.73
 l 18.973 81.215 l 19.23 81.008 19.555 80.902 19.941 80.902 c 20.398 80.902
 20.762 81.039 21.035 81.309 c 21.305 81.582 21.441 81.934 21.441 82.371
 c h
21.441 82.371 m f
q 1 0 0 1 0 0 cm
23.656 56.449 m 26.648 56.449 l S Q
q 1 0 0 1 0 0 cm
326.18 56.449 m 323.133 56.449 l S Q
18.469 58.934 m 18.469 58.434 l 19.656 58.434 l 19.656 54.84 l 18.609 55.59
 l 18.609 55.027 l 19.703 54.262 l 20.25 54.262 l 20.25 58.434 l 21.391 
58.434 l 21.391 58.934 l h
18.469 58.934 m f
q 1 0 0 1 0 0 cm
23.656 31.441 m 26.648 31.441 l S Q
q 1 0 0 1 0 0 cm
326.18 31.441 m 323.133 31.441 l S Q
12.824 33.926 m 12.824 33.426 l 14.012 33.426 l 14.012 29.832 l 12.965 
30.582 l 12.965 30.02 l 14.059 29.254 l 14.605 29.254 l 14.605 33.426 l 
15.746 33.426 l 15.746 33.926 l h
12.824 33.926 m f
16.699 33.207 0.641 0.719 re f
21.441 32.41 m 21.441 32.902 21.293 33.285 21.004 33.566 c 20.711 33.848
 20.305 33.988 19.785 33.988 c 19.348 33.988 18.992 33.895 18.723 33.707
 c 18.461 33.52 18.293 33.246 18.223 32.879 c 18.832 32.816 l 18.957 33.277
 19.277 33.504 19.801 33.504 c 20.121 33.504 20.371 33.41 20.551 33.223 
c 20.738 33.027 20.832 32.762 20.832 32.426 c 20.832 32.125 20.738 31.887
 20.551 31.707 c 20.371 31.531 20.129 31.441 19.816 31.441 c 19.648 31.441
 19.496 31.469 19.363 31.52 c 19.227 31.562 19.086 31.645 18.941 31.77 c
 18.363 31.77 l 18.52 29.254 l 21.176 29.254 l 21.176 29.77 l 19.066 29.77
 l 18.973 31.254 l 19.23 31.047 19.555 30.941 19.941 30.941 c 20.398 30.941
 20.762 31.078 21.035 31.348 c 21.305 31.621 21.441 31.973 21.441 32.41 
c h
21.441 32.41 m f
q 1 0 0 1 0 0 cm
23.656 6.492 m 26.648 6.492 l S Q
q 1 0 0 1 0 0 cm
326.18 6.492 m 323.133 6.492 l S Q
18.297 8.973 m 18.297 8.551 l 18.41 8.293 18.547 8.062 18.703 7.863 c 18.867
 7.668 19.039 7.488 19.219 7.332 c 19.395 7.176 19.57 7.031 19.75 6.895 
c 19.926 6.75 20.082 6.609 20.219 6.473 c 20.363 6.34 20.477 6.199 20.562
 6.051 c 20.656 5.895 20.703 5.723 20.703 5.535 c 20.703 5.277 20.625 5.078
 20.469 4.941 c 20.32 4.797 20.113 4.723 19.844 4.723 c 19.594 4.723 19.383
 4.797 19.219 4.941 c 19.051 5.078 18.957 5.27 18.938 5.52 c 18.328 5.457
 l 18.367 5.082 18.523 4.785 18.797 4.566 c 19.066 4.348 19.414 4.238 19.844
 4.238 c 20.312 4.238 20.672 4.355 20.922 4.582 c 21.18 4.801 21.312 5.113
 21.312 5.52 c 21.312 5.699 21.27 5.875 21.188 6.051 c 21.102 6.23 20.977
 6.41 20.812 6.598 c 20.656 6.777 20.344 7.051 19.875 7.426 c 19.625 7.637
 19.422 7.824 19.266 7.988 c 19.117 8.156 19.016 8.316 18.953 8.473 c 21.391
 8.473 l 21.391 8.973 l h
18.297 8.973 m f
q 1 0 0 1 0 0 cm
23.656 106.41 m 326.18 106.41 l S Q
q 1 0 0 1 0 0 cm
23.656 6.492 m 326.18 6.492 l S Q
q 1 0 0 1 0 0 cm
23.656 106.41 m 23.656 6.492 l S Q
q 1 0 0 1 0 0 cm
326.18 106.41 m 326.18 6.492 l S Q
Q q
220.672 54.445 105.562 4 re W n
q
220 54 107 5 re W n
  q
0 0 1 rg
1.01613 w
0 J
1 j
[] 0.0 d
10 M q 1 0 0 -1 0 0 cm
221.293 -57.352 m 222.363 -57.297 l 223.438 -57.184 l 224.512 -57.129 l
 225.582 -57.016 l 226.656 -56.957 l 227.727 -56.844 l 228.801 -56.73 l 
229.871 -56.676 l 232.02 -56.449 l 233.09 -56.395 l 234.164 -56.281 l 235.18
 -56.223 l 236.25 -56.168 l 237.324 -56.055 l 238.398 -56 l 239.469 -55.941
 l 240.543 -55.941 l 241.613 -55.887 l 242.688 -55.828 l 250.141 -55.828
 l 251.211 -55.887 l 252.285 -55.887 l 253.355 -55.941 l 254.43 -56 l 255.5
 -56 l 257.648 -56.109 l 258.719 -56.168 l 259.793 -56.223 l 260.863 -56.281
 l 261.938 -56.336 l 263.012 -56.395 l 264.082 -56.395 l 265.098 -56.449
 l 266.172 -56.508 l 267.242 -56.562 l 268.316 -56.562 l 269.391 -56.621
 l 270.461 -56.621 l 271.535 -56.676 l 272.605 -56.676 l 273.68 -56.73 l
 283.277 -56.73 l 284.348 -56.676 l 286.492 -56.676 l 287.566 -56.621 l 
288.641 -56.621 l 289.711 -56.562 l 290.785 -56.562 l 291.855 -56.508 l 
292.93 -56.508 l 294 -56.449 l 295.02 -56.449 l 296.09 -56.395 l 298.234
 -56.395 l 299.309 -56.336 l 301.453 -56.336 l 302.527 -56.281 l 306.816
 -56.281 l 307.891 -56.223 l 311.051 -56.223 l 312.125 -56.281 l 318.559
 -56.281 l 319.633 -56.336 l 322.848 -56.336 l 323.922 -56.395 l 326.234
 -56.395 l S Q
  Q
Q
Q q
0 0 1 rg
1.01613 w
0 J
1 j
[] 0.0 d
10 M q 1 0 0 1 0 0 cm
115.5 49.562 m 116.574 49.281 l 117.648 49.055 l 118.719 48.887 l 119.793
 48.887 l 120.863 48.941 l 121.938 49.055 l 123.012 49.281 l 124.082 49.562
 l 125.156 49.902 l 126.227 50.352 l 127.301 50.805 l 128.371 51.312 l 129.391
 51.879 l 130.461 52.441 l 131.535 53.008 l 132.605 53.629 l 133.68 54.25
 l 134.75 54.871 l 135.824 55.492 l 136.898 56.055 l 137.969 56.676 l 139.043
 57.184 l 140.113 57.691 l 141.188 58.199 l 142.262 58.652 l 143.332 59.047
 l 144.348 59.387 l 145.422 59.668 l 146.492 59.949 l 147.566 60.121 l 148.641
 60.289 l 149.711 60.402 l 150.785 60.457 l 151.855 60.457 l 152.93 60.402
 l 154 60.289 l 155.074 60.176 l 156.148 60.008 l 157.219 59.836 l 158.293
 59.609 l 159.309 59.328 l 160.383 59.047 l 161.453 58.766 l 162.527 58.426
 l 163.598 58.145 l 164.672 57.805 l 165.742 57.465 l 166.816 57.129 l 167.891
 56.789 l 168.961 56.508 l 170.035 56.168 l 171.105 55.887 l 172.18 55.66
 l 173.25 55.379 l 174.324 55.152 l 175.34 54.98 l 176.414 54.758 l 177.484
 54.645 l 179.633 54.418 l 180.703 54.359 l 181.777 54.305 l 182.848 54.25
 l 183.922 54.305 l 184.992 54.305 l 186.066 54.359 l 187.141 54.418 l 188.211
 54.531 l 189.285 54.645 l 190.301 54.758 l 191.371 54.926 l 192.445 55.094
 l 193.52 55.266 l 194.59 55.379 l 195.664 55.602 l 196.734 55.773 l 198.883
 56.109 l 199.953 56.281 l 201.027 56.449 l 202.098 56.621 l 203.172 56.73
 l 204.242 56.902 l 205.262 57.016 l 206.332 57.129 l 207.406 57.242 l 208.477
 57.352 l 209.551 57.41 l 210.621 57.465 l 211.695 57.523 l 212.77 57.523
 l 213.84 57.578 l 215.984 57.578 l 217.059 57.523 l 218.133 57.523 l 219.203
 57.465 l 220.219 57.41 l 221.293 57.352 l S Q
Q q
23.656 28.445 93.016 78.02 re W n
q
23 28 94 79 re W n
  q
0 0 1 rg
1.01613 w
0 J
1 j
[] 0.0 d
10 M q 1 0 0 -1 0 0 cm
23.656 -106.41 m 24.672 -106.297 l 25.742 -105.844 l 26.816 -104.941 l 
27.891 -103.586 l 28.961 -101.723 l 30.035 -99.41 l 31.105 -96.699 l 32.18
 -93.652 l 33.25 -90.32 l 34.324 -86.707 l 35.398 -82.926 l 36.469 -79.031
 l 37.543 -74.965 l 38.613 -70.902 l 39.633 -66.836 l 40.703 -62.828 l 41.777
 -58.879 l 42.848 -55.094 l 43.922 -51.48 l 44.992 -48.039 l 46.066 -44.879
 l 47.141 -42 l 48.211 -39.344 l 49.285 -37.031 l 50.355 -35 l 51.43 -33.359
 l 52.5 -32.008 l 53.574 -30.992 l 54.59 -30.312 l 55.664 -29.973 l 56.734
 -29.918 l 57.809 -30.199 l 58.883 -30.766 l 59.953 -31.609 l 61.027 -32.684
 l 62.098 -33.98 l 63.172 -35.508 l 64.242 -37.145 l 65.316 -39.008 l 66.391
 -40.926 l 67.461 -43.016 l 68.535 -45.102 l 69.551 -47.305 l 70.621 -49.449
 l 71.695 -51.652 l 72.77 -53.742 l 73.84 -55.828 l 74.914 -57.805 l 75.984
 -59.723 l 77.059 -61.473 l 78.133 -63.109 l 79.203 -64.637 l 80.277 -65.992
 l 81.348 -67.176 l 82.422 -68.191 l 83.492 -68.98 l 84.512 -69.66 l 85.582
 -70.109 l 86.656 -70.449 l 87.727 -70.562 l 88.801 -70.508 l 89.871 -70.336
 l 90.945 -70 l 92.02 -69.492 l 93.09 -68.871 l 94.164 -68.137 l 95.234 
-67.289 l 96.309 -66.387 l 97.383 -65.371 l 98.453 -64.297 l 99.469 -63.168
 l 100.543 -62.039 l 101.613 -60.91 l 102.688 -59.723 l 103.762 -58.594 
l 104.832 -57.465 l 105.906 -56.336 l 106.977 -55.32 l 108.051 -54.305 l
 109.121 -53.402 l 110.195 -52.555 l 111.27 -51.766 l 112.34 -51.086 l 113.414
 -50.465 l 114.43 -49.957 l 115.5 -49.562 l S Q
  Q
Q
Q q
0 g
161.812 122.637 m 161.625 122.688 161.426 122.715 161.219 122.715 c 160.738
 122.715 160.5 122.445 160.5 121.902 c 160.5 119.512 l 160.094 119.512 l
 160.094 119.09 l 160.531 119.09 l 160.703 118.277 l 161.094 118.277 l 161.094
 119.09 l 161.766 119.09 l 161.766 119.512 l 161.094 119.512 l 161.094 121.777
 l 161.094 121.957 161.117 122.082 161.172 122.152 c 161.234 122.215 161.332
 122.246 161.469 122.246 c 161.551 122.246 161.664 122.23 161.812 122.199
 c h
161.812 122.637 m f
162.32 118.324 m 162.32 117.762 l 162.914 117.762 l 162.914 118.324 l h
162.32 122.668 m 162.32 119.09 l 162.914 119.09 l 162.914 122.668 l h
162.32 122.668 m f
165.918 122.668 m 165.918 120.402 l 165.918 120.051 165.871 119.809 165.777
 119.684 c 165.684 119.551 165.512 119.48 165.262 119.48 c 165 119.48 164.797
 119.582 164.652 119.777 c 164.504 119.965 164.434 120.238 164.434 120.59
 c 164.434 122.668 l 163.84 122.668 l 163.84 119.855 l 163.84 119.441 163.832
 119.184 163.824 119.09 c 164.387 119.09 l 164.387 119.102 164.387 119.133
 164.387 119.184 c 164.387 119.227 164.387 119.277 164.387 119.34 c 164.395
 119.402 164.406 119.523 164.418 119.699 c 164.543 119.449 164.688 119.273
 164.855 119.168 c 165.02 119.066 165.223 119.012 165.465 119.012 c 165.734
 119.012 165.949 119.07 166.105 119.184 c 166.27 119.289 166.379 119.461
 166.434 119.699 c 166.449 119.699 l 166.574 119.461 166.723 119.289 166.902
 119.184 c 167.078 119.07 167.293 119.012 167.543 119.012 c 167.895 119.012
 168.156 119.113 168.324 119.309 c 168.488 119.508 168.574 119.832 168.574
 120.277 c 168.574 122.668 l 167.98 122.668 l 167.98 120.402 l 167.98 120.051
 167.934 119.809 167.84 119.684 c 167.746 119.551 167.574 119.48 167.324
 119.48 c 167.062 119.48 166.859 119.582 166.715 119.777 c 166.566 119.965
 166.496 120.238 166.496 120.59 c 166.496 122.668 l h
165.918 122.668 m f
169.922 120.996 m 169.922 121.414 170.004 121.738 170.172 121.965 c 170.348
 122.184 170.598 122.293 170.922 122.293 c 171.18 122.293 171.391 122.242
 171.547 122.137 c 171.703 122.035 171.805 121.898 171.859 121.73 c 172.391
 121.887 l 172.172 122.449 171.68 122.73 170.922 122.73 c 170.398 122.73
 170 122.574 169.719 122.262 c 169.438 121.949 169.297 121.48 169.297 120.855
 c 169.297 120.262 169.438 119.809 169.719 119.496 c 170 119.176 170.395
 119.012 170.906 119.012 c 171.957 119.012 172.484 119.648 172.484 120.918
 c 172.484 120.996 l h
171.875 120.543 m 171.832 120.168 171.734 119.898 171.578 119.73 c 171.422
 119.555 171.191 119.465 170.891 119.465 c 170.609 119.465 170.379 119.566
 170.203 119.762 c 170.035 119.949 169.945 120.211 169.938 120.543 c h
171.875 120.543 m f
175.086 120.902 m 175.086 120.27 175.184 119.699 175.383 119.199 c 175.578
 118.691 175.887 118.211 176.305 117.762 c 176.883 117.762 l 176.465 118.223
 176.156 118.711 175.961 119.23 c 175.773 119.742 175.68 120.305 175.68 
120.918 c 175.68 121.523 175.773 122.086 175.961 122.605 c 176.156 123.113
 176.465 123.605 176.883 124.074 c 176.305 124.074 l 175.887 123.625 175.578
 123.145 175.383 122.637 c 175.184 122.129 175.086 121.555 175.086 120.918
 c h
175.086 120.902 m f
180.062 121.684 m 180.062 122.02 179.93 122.277 179.672 122.465 c 179.422
 122.645 179.066 122.73 178.609 122.73 c 178.16 122.73 177.816 122.66 177.578
 122.512 c 177.336 122.367 177.18 122.137 177.109 121.824 c 177.641 121.73
 l 177.691 121.918 177.797 122.059 177.953 122.152 c 178.109 122.238 178.328
 122.277 178.609 122.277 c 178.91 122.277 179.129 122.23 179.266 122.137
 c 179.41 122.043 179.484 121.91 179.484 121.73 c 179.484 121.586 179.438
 121.473 179.344 121.387 c 179.25 121.293 179.094 121.223 178.875 121.168
 c 178.438 121.043 l 178.102 120.961 177.863 120.879 177.719 120.793 c 177.57
 120.711 177.457 120.605 177.375 120.48 c 177.289 120.355 177.25 120.207
 177.25 120.027 c 177.25 119.707 177.363 119.461 177.594 119.293 c 177.832
 119.117 178.176 119.027 178.625 119.027 c 179.02 119.027 179.332 119.102
 179.562 119.246 c 179.789 119.383 179.938 119.602 180 119.902 c 179.469
 119.98 l 179.438 119.816 179.348 119.691 179.203 119.605 c 179.055 119.523
 178.863 119.48 178.625 119.48 c 178.352 119.48 178.148 119.523 178.016 
119.605 c 177.891 119.691 177.828 119.816 177.828 119.98 c 177.828 120.074
 177.852 120.16 177.906 120.23 c 177.957 120.293 178.035 120.352 178.141
 120.402 c 178.242 120.445 178.461 120.508 178.797 120.59 c 179.117 120.664
 179.348 120.738 179.484 120.809 c 179.617 120.871 179.727 120.945 179.812
 121.027 c 179.895 121.113 179.957 121.207 180 121.309 c 180.039 121.414
 180.062 121.539 180.062 121.684 c h
180.062 121.684 m f
181.215 120.996 m 181.215 121.414 181.297 121.738 181.465 121.965 c 181.641
 122.184 181.891 122.293 182.215 122.293 c 182.473 122.293 182.684 122.242
 182.84 122.137 c 182.996 122.035 183.098 121.898 183.152 121.73 c 183.684
 121.887 l 183.465 122.449 182.973 122.73 182.215 122.73 c 181.691 122.73
 181.293 122.574 181.012 122.262 c 180.73 121.949 180.59 121.48 180.59 120.855
 c 180.59 120.262 180.73 119.809 181.012 119.496 c 181.293 119.176 181.688
 119.012 182.199 119.012 c 183.25 119.012 183.777 119.648 183.777 120.918
 c 183.777 120.996 l h
183.168 120.543 m 183.125 120.168 183.027 119.898 182.871 119.73 c 182.715
 119.555 182.484 119.465 182.184 119.465 c 181.902 119.465 181.672 119.566
 181.496 119.762 c 181.328 119.949 181.238 120.211 181.23 120.543 c h
183.168 120.543 m f
184.98 120.855 m 184.98 121.336 185.051 121.691 185.199 121.918 c 185.355
 122.148 185.582 122.262 185.887 122.262 c 186.094 122.262 186.27 122.207
 186.418 122.09 c 186.562 121.977 186.652 121.801 186.684 121.559 c 187.293
 121.605 l 187.238 121.949 187.09 122.227 186.84 122.434 c 186.598 122.633
 186.285 122.73 185.902 122.73 c 185.402 122.73 185.016 122.574 184.746 
122.262 c 184.484 121.941 184.355 121.477 184.355 120.871 c 184.355 120.27
 184.484 119.809 184.746 119.496 c 185.016 119.176 185.402 119.012 185.902
 119.012 c 186.266 119.012 186.566 119.113 186.809 119.309 c 187.047 119.496
 187.199 119.758 187.262 120.09 c 186.652 120.137 l 186.621 119.941 186.543
 119.785 186.418 119.668 c 186.293 119.543 186.113 119.48 185.887 119.48
 c 185.562 119.48 185.328 119.59 185.184 119.809 c 185.047 120.02 184.98
 120.367 184.98 120.855 c h
184.98 120.855 m f
189.305 120.918 m 189.305 121.555 189.199 122.129 188.992 122.637 c 188.793
 123.145 188.484 123.625 188.07 124.074 c 187.508 124.074 l 187.914 123.605
 188.211 123.113 188.398 122.605 c 188.594 122.098 188.695 121.535 188.695
 120.918 c 188.695 120.305 188.594 119.742 188.398 119.23 c 188.211 118.711
 187.914 118.223 187.508 117.762 c 188.07 117.762 l 188.484 118.211 188.793
 118.691 188.992 119.199 c 189.199 119.699 189.305 120.27 189.305 120.902
 c h
189.305 120.918 m f
5.32 61.715 m 5.812 61.715 6.242 61.809 6.617 61.996 c 6.984 62.184 7.266
 62.457 7.461 62.809 c 7.648 63.152 7.742 63.566 7.742 64.043 c 7.742 64.523
 7.648 64.934 7.461 65.277 c 7.266 65.621 6.984 65.887 6.617 66.074 c 6.242
 66.254 5.812 66.34 5.32 66.34 c 4.582 66.34 4.004 66.137 3.586 65.73 c 
3.16 65.324 2.945 64.758 2.945 64.027 c 2.945 63.559 3.039 63.152 3.227 
62.809 c 3.414 62.457 3.691 62.184 4.055 61.996 c 4.41 61.809 4.832 61.715
 5.32 61.715 c h
5.32 62.371 m 4.75 62.371 4.297 62.52 3.961 62.809 c 3.629 63.09 3.461 
63.496 3.461 64.027 c 3.461 64.559 3.629 64.973 3.961 65.262 c 4.285 65.555
 4.738 65.699 5.32 65.699 c 5.906 65.699 6.367 65.555 6.711 65.262 c 7.055
 64.973 7.227 64.566 7.227 64.043 c 7.227 63.504 7.066 63.09 6.742 62.809
 c 6.41 62.52 5.938 62.371 5.32 62.371 c h
5.32 62.371 m f
4.102 60.352 m 6.367 60.352 l 6.609 60.352 6.797 60.332 6.93 60.289 c 7.055
 60.25 7.148 60.176 7.211 60.07 c 7.266 59.969 7.289 59.816 7.289 59.617
 c 7.289 59.336 7.191 59.113 6.992 58.945 c 6.797 58.781 6.523 58.695 6.18
 58.695 c 4.102 58.695 l 4.102 58.102 l 6.914 58.102 l 7.332 58.102 7.586
 58.094 7.68 58.07 c 7.68 58.633 l 7.672 58.645 7.645 58.648 7.602 58.648
 c 7.551 58.648 7.492 58.656 7.43 58.664 c 7.367 58.664 7.25 58.664 7.07
 58.664 c 7.07 58.68 l 7.32 58.816 7.5 58.973 7.602 59.148 c 7.695 59.328
 7.742 59.551 7.742 59.82 c 7.742 60.219 7.648 60.508 7.461 60.695 c 7.266
 60.875 6.938 60.961 6.477 60.961 c 4.102 60.961 l h
4.102 60.352 m f
7.648 55.801 m 7.699 55.988 7.727 56.188 7.727 56.395 c 7.727 56.875 7.457
 57.113 6.914 57.113 c 4.523 57.113 l 4.523 57.52 l 4.102 57.52 l 4.102 
57.082 l 3.289 56.91 l 3.289 56.52 l 4.102 56.52 l 4.102 55.848 l 4.523 
55.848 l 4.523 56.52 l 6.789 56.52 l 6.969 56.52 7.094 56.496 7.164 56.441
 c 7.227 56.379 7.258 56.281 7.258 56.145 c 7.258 56.062 7.242 55.949 7.211
 55.801 c h
7.648 55.801 m f
5.867 52.262 m 7.117 52.262 7.742 52.699 7.742 53.574 c 7.742 54.129 7.535
 54.496 7.117 54.684 c 7.117 54.699 l 7.141 54.699 7.328 54.699 7.68 54.699
 c 9.086 54.699 l 9.086 55.293 l 4.836 55.293 l 4.461 55.293 4.219 55.301
 4.102 55.309 c 4.102 54.73 l 4.113 54.73 4.145 54.73 4.195 54.73 c 4.25
 54.723 4.332 54.715 4.445 54.715 c 4.562 54.707 4.641 54.699 4.68 54.699
 c 4.68 54.684 l 4.453 54.582 4.289 54.445 4.195 54.277 c 4.094 54.102 4.039
 53.867 4.039 53.574 c 4.039 53.137 4.188 52.809 4.477 52.59 c 4.77 52.371
 5.234 52.262 5.867 52.262 c h
5.883 52.887 m 5.383 52.887 5.031 52.957 4.82 53.09 c 4.602 53.227 4.492
 53.441 4.492 53.73 c 4.492 53.973 4.547 54.16 4.648 54.293 c 4.742 54.418
 4.898 54.52 5.117 54.59 c 5.328 54.664 5.598 54.699 5.93 54.699 c 6.398
 54.699 6.75 54.629 6.977 54.48 c 7.195 54.324 7.305 54.074 7.305 53.73 
c 7.305 53.441 7.195 53.227 6.977 53.09 c 6.758 52.957 6.395 52.887 5.883
 52.887 c h
5.883 52.887 m f
4.102 50.934 m 6.367 50.934 l 6.609 50.934 6.797 50.914 6.93 50.871 c 7.055
 50.832 7.148 50.758 7.211 50.652 c 7.266 50.551 7.289 50.398 7.289 50.199
 c 7.289 49.918 7.191 49.695 6.992 49.527 c 6.797 49.363 6.523 49.277 6.18
 49.277 c 4.102 49.277 l 4.102 48.684 l 6.914 48.684 l 7.332 48.684 7.586
 48.676 7.68 48.652 c 7.68 49.215 l 7.672 49.227 7.645 49.23 7.602 49.23
 c 7.551 49.23 7.492 49.238 7.43 49.246 c 7.367 49.246 7.25 49.246 7.07 
49.246 c 7.07 49.262 l 7.32 49.398 7.5 49.555 7.602 49.73 c 7.695 49.91 
7.742 50.133 7.742 50.402 c 7.742 50.801 7.648 51.09 7.461 51.277 c 7.266
 51.457 6.938 51.543 6.477 51.543 c 4.102 51.543 l h
4.102 50.934 m f
7.648 46.387 m 7.699 46.574 7.727 46.773 7.727 46.98 c 7.727 47.461 7.457
 47.699 6.914 47.699 c 4.523 47.699 l 4.523 48.105 l 4.102 48.105 l 4.102
 47.668 l 3.289 47.496 l 3.289 47.105 l 4.102 47.105 l 4.102 46.434 l 4.523
 46.434 l 4.523 47.105 l 6.789 47.105 l 6.969 47.105 7.094 47.082 7.164 
47.027 c 7.227 46.965 7.258 46.867 7.258 46.73 c 7.258 46.648 7.242 46.535
 7.211 46.387 c h
7.648 46.387 m f
Q q
23.656 58.445 302.578 1 re W n
q
23 58 304 2 re W n
  q
0 g
0.33871 w
0 J
1 j
[] 0.0 d
10 M q 1 0 0 -1 0 0 cm
23.656 -58.934 m 326.234 -58.934 l S Q
  Q
Q
Q q
23.656 53.445 302.578 1 re W n
q
23 53 304 2 re W n
  q
0 g
0.33871 w
0 J
1 j
[] 0.0 d
10 M q 1 0 0 -1 0 0 cm
23.656 -53.91 m 326.234 -53.91 l S Q
  Q
Q
Q q
0 g
0.33871 w
0 J
1 j
[] 0.0 d
10 M q 1 0 0 1 0 0 cm
29.188 103.871 m 29.188 48.941 l S Q
q 1 0 0 1 0 0 cm
40.762 103.871 m 40.762 48.941 l S Q
55.23 75.418 m 54.012 73.48 l 52.559 73.48 l 52.559 75.418 l 51.934 75.418
 l 51.934 70.746 l 54.121 70.746 l 54.652 70.746 55.059 70.867 55.34 71.105
 c 55.621 71.348 55.762 71.676 55.762 72.09 c 55.762 72.434 55.66 72.727
 55.465 72.965 c 55.266 73.195 54.988 73.34 54.637 73.402 c 55.949 75.418
 l h
55.137 72.09 m 55.137 71.82 55.043 71.617 54.855 71.48 c 54.668 71.336 
54.402 71.262 54.059 71.262 c 52.559 71.262 l 52.559 72.98 l 54.09 72.98
 l 54.422 72.98 54.676 72.902 54.855 72.746 c 55.043 72.59 55.137 72.371
 55.137 72.09 c h
55.137 72.09 m f
56.719 71.074 m 56.719 70.512 l 57.312 70.512 l 57.312 71.074 l h
56.719 75.418 m 56.719 71.84 l 57.312 71.84 l 57.312 75.418 l h
56.719 75.418 m f
60.91 74.434 m 60.91 74.77 60.777 75.027 60.52 75.215 c 60.27 75.395 59.914
 75.48 59.457 75.48 c 59.008 75.48 58.664 75.41 58.426 75.262 c 58.184 75.117
 58.027 74.887 57.957 74.574 c 58.488 74.48 l 58.539 74.668 58.645 74.809
 58.801 74.902 c 58.957 74.988 59.176 75.027 59.457 75.027 c 59.758 75.027
 59.977 74.98 60.113 74.887 c 60.258 74.793 60.332 74.66 60.332 74.48 c 
60.332 74.336 60.285 74.223 60.191 74.137 c 60.098 74.043 59.941 73.973 
59.723 73.918 c 59.285 73.793 l 58.949 73.711 58.711 73.629 58.566 73.543
 c 58.418 73.461 58.305 73.355 58.223 73.23 c 58.137 73.105 58.098 72.957
 58.098 72.777 c 58.098 72.457 58.211 72.211 58.441 72.043 c 58.68 71.867
 59.023 71.777 59.473 71.777 c 59.867 71.777 60.18 71.852 60.41 71.996 c
 60.637 72.133 60.785 72.352 60.848 72.652 c 60.316 72.73 l 60.285 72.566
 60.195 72.441 60.051 72.355 c 59.902 72.273 59.711 72.23 59.473 72.23 c
 59.199 72.23 58.996 72.273 58.863 72.355 c 58.738 72.441 58.676 72.566 
58.676 72.73 c 58.676 72.824 58.699 72.91 58.754 72.98 c 58.805 73.043 58.883
 73.102 58.988 73.152 c 59.09 73.195 59.309 73.258 59.645 73.34 c 59.965
 73.414 60.195 73.488 60.332 73.559 c 60.465 73.621 60.574 73.695 60.66 
73.777 c 60.742 73.863 60.805 73.957 60.848 74.059 c 60.887 74.164 60.91
 74.289 60.91 74.434 c h
60.91 74.434 m f
62.062 73.746 m 62.062 74.164 62.145 74.488 62.312 74.715 c 62.488 74.934
 62.738 75.043 63.062 75.043 c 63.32 75.043 63.531 74.992 63.688 74.887 
c 63.844 74.785 63.945 74.648 64 74.48 c 64.531 74.637 l 64.312 75.199 63.82
 75.48 63.062 75.48 c 62.539 75.48 62.141 75.324 61.859 75.012 c 61.578 
74.699 61.438 74.23 61.438 73.605 c 61.438 73.012 61.578 72.559 61.859 72.246
 c 62.141 71.926 62.535 71.762 63.047 71.762 c 64.098 71.762 64.625 72.398
 64.625 73.668 c 64.625 73.746 l h
64.016 73.293 m 63.973 72.918 63.875 72.648 63.719 72.48 c 63.562 72.305
 63.332 72.215 63.031 72.215 c 62.75 72.215 62.52 72.316 62.344 72.512 c
 62.176 72.699 62.086 72.961 62.078 73.293 c h
64.016 73.293 m f
68.633 75.387 m 68.445 75.438 68.246 75.465 68.039 75.465 c 67.559 75.465
 67.32 75.195 67.32 74.652 c 67.32 72.262 l 66.914 72.262 l 66.914 71.84
 l 67.352 71.84 l 67.523 71.027 l 67.914 71.027 l 67.914 71.84 l 68.586 
71.84 l 68.586 72.262 l 67.914 72.262 l 67.914 74.527 l 67.914 74.707 67.938
 74.832 67.992 74.902 c 68.055 74.965 68.152 74.996 68.289 74.996 c 68.371
 74.996 68.484 74.98 68.633 74.949 c h
68.633 75.387 m f
69.141 71.074 m 69.141 70.512 l 69.734 70.512 l 69.734 71.074 l h
69.141 75.418 m 69.141 71.84 l 69.734 71.84 l 69.734 75.418 l h
69.141 75.418 m f
72.738 75.418 m 72.738 73.152 l 72.738 72.801 72.691 72.559 72.598 72.434
 c 72.504 72.301 72.332 72.23 72.082 72.23 c 71.82 72.23 71.617 72.332 71.473
 72.527 c 71.324 72.715 71.254 72.988 71.254 73.34 c 71.254 75.418 l 70.66
 75.418 l 70.66 72.605 l 70.66 72.191 70.652 71.934 70.645 71.84 c 71.207
 71.84 l 71.207 71.852 71.207 71.883 71.207 71.934 c 71.207 71.977 71.207
 72.027 71.207 72.09 c 71.215 72.152 71.227 72.273 71.238 72.449 c 71.363
 72.199 71.508 72.023 71.676 71.918 c 71.84 71.816 72.043 71.762 72.285 
71.762 c 72.555 71.762 72.77 71.82 72.926 71.934 c 73.09 72.039 73.199 72.211
 73.254 72.449 c 73.27 72.449 l 73.395 72.211 73.543 72.039 73.723 71.934
 c 73.898 71.82 74.113 71.762 74.363 71.762 c 74.715 71.762 74.977 71.863
 75.145 72.059 c 75.309 72.258 75.395 72.582 75.395 73.027 c 75.395 75.418
 l 74.801 75.418 l 74.801 73.152 l 74.801 72.801 74.754 72.559 74.66 72.434
 c 74.566 72.301 74.395 72.23 74.145 72.23 c 73.883 72.23 73.68 72.332 73.535
 72.527 c 73.387 72.715 73.316 72.988 73.316 73.34 c 73.316 75.418 l h
72.738 75.418 m f
76.742 73.746 m 76.742 74.164 76.824 74.488 76.992 74.715 c 77.168 74.934
 77.418 75.043 77.742 75.043 c 78 75.043 78.211 74.992 78.367 74.887 c 78.523
 74.785 78.625 74.648 78.68 74.48 c 79.211 74.637 l 78.992 75.199 78.5 75.48
 77.742 75.48 c 77.219 75.48 76.82 75.324 76.539 75.012 c 76.258 74.699 
76.117 74.23 76.117 73.605 c 76.117 73.012 76.258 72.559 76.539 72.246 c
 76.82 71.926 77.215 71.762 77.727 71.762 c 78.777 71.762 79.305 72.398 
79.305 73.668 c 79.305 73.746 l h
78.695 73.293 m 78.652 72.918 78.555 72.648 78.398 72.48 c 78.242 72.305
 78.012 72.215 77.711 72.215 c 77.43 72.215 77.199 72.316 77.023 72.512 
c 76.855 72.699 76.766 72.961 76.758 73.293 c h
78.695 73.293 m f
q 1 0 0 1 0 0 cm
160.777 103.871 m 160.777 48.941 l S Q
169.004 90.789 m 169.004 91.219 168.832 91.551 168.488 91.789 c 168.152
 92.02 167.68 92.133 167.066 92.133 c 165.93 92.133 165.273 91.738 165.098
 90.945 c 165.707 90.836 l 165.777 91.109 165.93 91.312 166.16 91.445 c 
166.387 91.582 166.699 91.648 167.098 91.648 c 167.504 91.648 167.816 91.582
 168.035 91.445 c 168.262 91.301 168.379 91.094 168.379 90.82 c 168.379 
90.664 168.34 90.539 168.27 90.445 c 168.195 90.352 168.098 90.273 167.973
 90.211 c 167.848 90.148 167.695 90.098 167.52 90.055 c 167.352 90.016 167.16
 89.969 166.941 89.914 c 166.574 89.832 166.293 89.754 166.098 89.68 c 165.91
 89.598 165.758 89.504 165.645 89.398 c 165.539 89.297 165.457 89.18 165.395
 89.055 c 165.34 88.922 165.316 88.766 165.316 88.586 c 165.316 88.18 165.465
 87.875 165.77 87.664 c 166.07 87.445 166.508 87.336 167.082 87.336 c 167.613
 87.336 168.02 87.422 168.301 87.586 c 168.582 87.742 168.777 88.02 168.895
 88.414 c 168.27 88.523 l 168.195 88.273 168.059 88.094 167.863 87.977 c
 167.676 87.863 167.414 87.805 167.082 87.805 c 166.707 87.805 166.418 87.867
 166.223 87.992 c 166.023 88.117 165.926 88.305 165.926 88.555 c 165.926
 88.703 165.961 88.82 166.035 88.914 c 166.117 89.008 166.227 89.086 166.363
 89.148 c 166.508 89.211 166.793 89.289 167.223 89.383 c 167.367 89.414 
167.512 89.453 167.66 89.492 c 167.805 89.523 167.941 89.566 168.066 89.617
 c 168.199 89.66 168.32 89.711 168.426 89.773 c 168.539 89.836 168.637 89.914
 168.723 90.008 c 168.805 90.102 168.871 90.211 168.926 90.336 c 168.977
 90.461 169.004 90.613 169.004 90.789 c h
169.004 90.789 m f
170.211 90.398 m 170.211 90.816 170.293 91.141 170.461 91.367 c 170.637
 91.586 170.887 91.695 171.211 91.695 c 171.469 91.695 171.68 91.645 171.836
 91.539 c 171.992 91.438 172.094 91.301 172.148 91.133 c 172.68 91.289 l
 172.461 91.852 171.969 92.133 171.211 92.133 c 170.688 92.133 170.289 91.977
 170.008 91.664 c 169.727 91.352 169.586 90.883 169.586 90.258 c 169.586
 89.664 169.727 89.211 170.008 88.898 c 170.289 88.578 170.684 88.414 171.195
 88.414 c 172.246 88.414 172.773 89.051 172.773 90.32 c 172.773 90.398 l
 h
172.164 89.945 m 172.121 89.57 172.023 89.301 171.867 89.133 c 171.711 
88.957 171.48 88.867 171.18 88.867 c 170.898 88.867 170.668 88.969 170.492
 89.164 c 170.324 89.352 170.234 89.613 170.227 89.945 c h
172.164 89.945 m f
174.898 92.039 m 174.711 92.09 174.512 92.117 174.305 92.117 c 173.824 
92.117 173.586 91.848 173.586 91.305 c 173.586 88.914 l 173.18 88.914 l 
173.18 88.492 l 173.617 88.492 l 173.789 87.68 l 174.18 87.68 l 174.18 88.492
 l 174.852 88.492 l 174.852 88.914 l 174.18 88.914 l 174.18 91.18 l 174.18
 91.359 174.203 91.484 174.258 91.555 c 174.32 91.617 174.418 91.648 174.555
 91.648 c 174.637 91.648 174.75 91.633 174.898 91.602 c h
174.898 92.039 m f
176.781 92.039 m 176.594 92.09 176.395 92.117 176.188 92.117 c 175.707 
92.117 175.469 91.848 175.469 91.305 c 175.469 88.914 l 175.062 88.914 l
 175.062 88.492 l 175.5 88.492 l 175.672 87.68 l 176.062 87.68 l 176.062
 88.492 l 176.734 88.492 l 176.734 88.914 l 176.062 88.914 l 176.062 91.18
 l 176.062 91.359 176.086 91.484 176.141 91.555 c 176.203 91.617 176.301
 91.648 176.438 91.648 c 176.52 91.648 176.633 91.633 176.781 91.602 c h
176.781 92.039 m f
177.289 87.164 0.594 4.906 re f
178.793 87.727 m 178.793 87.164 l 179.387 87.164 l 179.387 87.727 l h
178.793 92.07 m 178.793 88.492 l 179.387 88.492 l 179.387 92.07 l h
178.793 92.07 m f
182.578 92.07 m 182.578 89.805 l 182.578 89.566 182.551 89.383 182.5 89.258
 c 182.457 89.125 182.383 89.031 182.281 88.977 c 182.176 88.914 182.031
 88.883 181.844 88.883 c 181.551 88.883 181.32 88.984 181.156 89.18 c 180.988
 89.379 180.906 89.648 180.906 89.992 c 180.906 92.07 l 180.312 92.07 l 
180.312 89.258 l 180.312 88.844 180.305 88.586 180.297 88.492 c 180.859 
88.492 l 180.859 88.504 180.859 88.535 180.859 88.586 c 180.859 88.629 180.859
 88.68 180.859 88.742 c 180.867 88.805 180.879 88.926 180.891 89.102 c 181.023
 88.852 181.18 88.676 181.359 88.57 c 181.547 88.469 181.77 88.414 182.031
 88.414 c 182.426 88.414 182.711 88.516 182.891 88.711 c 183.078 88.91 183.172
 89.234 183.172 89.68 c 183.172 92.07 l h
182.578 92.07 m f
185.422 93.477 m 185.035 93.477 184.723 93.398 184.484 93.242 c 184.254
 93.094 184.109 92.875 184.047 92.586 c 184.641 92.508 l 184.68 92.672 184.77
 92.797 184.906 92.883 c 185.039 92.977 185.219 93.023 185.438 93.023 c 
186.031 93.023 186.328 92.672 186.328 91.977 c 186.328 91.398 l 186.211 
91.629 186.055 91.805 185.859 91.93 c 185.66 92.047 185.43 92.102 185.172
 92.102 c 184.734 92.102 184.41 91.957 184.203 91.664 c 183.992 91.375 183.891
 90.914 183.891 90.289 c 183.891 89.656 184 89.188 184.219 88.883 c 184.445
 88.582 184.785 88.43 185.234 88.43 c 185.492 88.43 185.711 88.488 185.891
 88.602 c 186.078 88.719 186.223 88.883 186.328 89.102 c 186.344 89.102 
l 186.344 89.039 186.344 88.926 186.344 88.758 c 186.352 88.594 186.363 
88.504 186.375 88.492 c 186.938 88.492 l 186.926 88.609 186.922 88.852 186.922
 89.227 c 186.922 91.961 l 186.922 92.969 186.422 93.477 185.422 93.477 
c h
186.328 90.273 m 186.328 89.984 186.285 89.734 186.203 89.523 c 186.129
 89.316 186.02 89.16 185.875 89.055 c 185.727 88.941 185.566 88.883 185.391
 88.883 c 185.078 88.883 184.852 88.992 184.719 89.211 c 184.582 89.43 184.516
 89.785 184.516 90.273 c 184.516 90.766 184.578 91.117 184.703 91.336 c 
184.836 91.555 185.062 91.664 185.375 91.664 c 185.562 91.664 185.727 91.609
 185.875 91.492 c 186.02 91.379 186.129 91.223 186.203 91.023 c 186.285 
90.816 186.328 90.566 186.328 90.273 c h
186.328 90.273 m f
191.09 92.039 m 190.902 92.09 190.703 92.117 190.496 92.117 c 190.016 92.117
 189.777 91.848 189.777 91.305 c 189.777 88.914 l 189.371 88.914 l 189.371
 88.492 l 189.809 88.492 l 189.98 87.68 l 190.371 87.68 l 190.371 88.492
 l 191.043 88.492 l 191.043 88.914 l 190.371 88.914 l 190.371 91.18 l 190.371
 91.359 190.395 91.484 190.449 91.555 c 190.512 91.617 190.609 91.648 190.746
 91.648 c 190.828 91.648 190.941 91.633 191.09 91.602 c h
191.09 92.039 m f
191.598 87.727 m 191.598 87.164 l 192.191 87.164 l 192.191 87.727 l h
191.598 92.07 m 191.598 88.492 l 192.191 88.492 l 192.191 92.07 l h
191.598 92.07 m f
195.195 92.07 m 195.195 89.805 l 195.195 89.453 195.148 89.211 195.055 
89.086 c 194.961 88.953 194.789 88.883 194.539 88.883 c 194.277 88.883 194.074
 88.984 193.93 89.18 c 193.781 89.367 193.711 89.641 193.711 89.992 c 193.711
 92.07 l 193.117 92.07 l 193.117 89.258 l 193.117 88.844 193.109 88.586 
193.102 88.492 c 193.664 88.492 l 193.664 88.504 193.664 88.535 193.664 
88.586 c 193.664 88.629 193.664 88.68 193.664 88.742 c 193.672 88.805 193.684
 88.926 193.695 89.102 c 193.82 88.852 193.965 88.676 194.133 88.57 c 194.297
 88.469 194.5 88.414 194.742 88.414 c 195.012 88.414 195.227 88.473 195.383
 88.586 c 195.547 88.691 195.656 88.863 195.711 89.102 c 195.727 89.102 
l 195.852 88.863 196 88.691 196.18 88.586 c 196.355 88.473 196.57 88.414
 196.82 88.414 c 197.172 88.414 197.434 88.516 197.602 88.711 c 197.766 
88.91 197.852 89.234 197.852 89.68 c 197.852 92.07 l 197.258 92.07 l 197.258
 89.805 l 197.258 89.453 197.211 89.211 197.117 89.086 c 197.023 88.953 
196.852 88.883 196.602 88.883 c 196.34 88.883 196.137 88.984 195.992 89.18
 c 195.844 89.367 195.773 89.641 195.773 89.992 c 195.773 92.07 l h
195.195 92.07 m f
199.195 90.398 m 199.195 90.816 199.277 91.141 199.445 91.367 c 199.621
 91.586 199.871 91.695 200.195 91.695 c 200.453 91.695 200.664 91.645 200.82
 91.539 c 200.977 91.438 201.078 91.301 201.133 91.133 c 201.664 91.289 
l 201.445 91.852 200.953 92.133 200.195 92.133 c 199.672 92.133 199.273 
91.977 198.992 91.664 c 198.711 91.352 198.57 90.883 198.57 90.258 c 198.57
 89.664 198.711 89.211 198.992 88.898 c 199.273 88.578 199.668 88.414 200.18
 88.414 c 201.23 88.414 201.758 89.051 201.758 90.32 c 201.758 90.398 l 
h
201.148 89.945 m 201.105 89.57 201.008 89.301 200.852 89.133 c 200.695 
88.957 200.465 88.867 200.164 88.867 c 199.883 88.867 199.652 88.969 199.477
 89.164 c 199.309 89.352 199.219 89.613 199.211 89.945 c h
201.148 89.945 m f
q 1 0 0 1 0 0 cm
46.688 29.859 m 66.84 29.859 l S Q
Q q
23.656 55.445 302.578 2 re W n
q
23 55 304 3 re W n
  q
0 g
0.33871 w
0 J
1 j
[ 4.06452 4.06452] 0 d
10 M q 1 0 0 -1 0 0 cm
23.656 -56.395 m 326.234 -56.395 l S Q
  Q
Q
Q q
0 g
81.898 43.195 m 81.898 43.688 81.805 44.117 81.617 44.492 c 81.43 44.859
 81.156 45.141 80.805 45.336 c 80.461 45.523 80.047 45.617 79.57 45.617 
c 79.09 45.617 78.68 45.523 78.336 45.336 c 77.992 45.141 77.727 44.859 
77.539 44.492 c 77.359 44.117 77.273 43.688 77.273 43.195 c 77.273 42.457
 77.477 41.879 77.883 41.461 c 78.289 41.035 78.855 40.82 79.586 40.82 c
 80.055 40.82 80.461 40.914 80.805 41.102 c 81.156 41.289 81.43 41.566 81.617
 41.93 c 81.805 42.285 81.898 42.707 81.898 43.195 c h
81.242 43.195 m 81.242 42.625 81.094 42.172 80.805 41.836 c 80.523 41.504
 80.117 41.336 79.586 41.336 c 79.055 41.336 78.641 41.504 78.352 41.836
 c 78.059 42.16 77.914 42.613 77.914 43.195 c 77.914 43.781 78.059 44.242
 78.352 44.586 c 78.641 44.93 79.047 45.102 79.57 45.102 c 80.109 45.102
 80.523 44.941 80.805 44.617 c 81.094 44.285 81.242 43.812 81.242 43.195
 c h
81.242 43.195 m f
84.246 45.555 m 83.543 45.555 l 82.23 41.977 l 82.871 41.977 l 83.668 44.305
 l 83.688 44.391 83.762 44.648 83.887 45.086 c 84.137 44.305 l 84.949 41.977
 l 85.59 41.977 l h
84.246 45.555 m f
86.508 43.883 m 86.508 44.301 86.59 44.625 86.758 44.852 c 86.934 45.07
 87.184 45.18 87.508 45.18 c 87.766 45.18 87.977 45.129 88.133 45.023 c 
88.289 44.922 88.391 44.785 88.445 44.617 c 88.977 44.773 l 88.758 45.336
 88.266 45.617 87.508 45.617 c 86.984 45.617 86.586 45.461 86.305 45.148
 c 86.023 44.836 85.883 44.367 85.883 43.742 c 85.883 43.148 86.023 42.695
 86.305 42.383 c 86.586 42.062 86.98 41.898 87.492 41.898 c 88.543 41.898
 89.07 42.535 89.07 43.805 c 89.07 43.883 l h
88.461 43.43 m 88.418 43.055 88.32 42.785 88.164 42.617 c 88.008 42.441
 87.777 42.352 87.477 42.352 c 87.195 42.352 86.965 42.453 86.789 42.648
 c 86.621 42.836 86.531 43.098 86.523 43.43 c h
88.461 43.43 m f
89.84 45.555 m 89.84 42.805 l 89.84 42.555 89.832 42.281 89.824 41.977 
c 90.387 41.977 l 90.406 42.383 90.418 42.629 90.418 42.711 c 90.52 42.398
 90.629 42.188 90.746 42.07 c 90.871 41.957 91.047 41.898 91.277 41.898 
c 91.348 41.898 91.426 41.914 91.512 41.945 c 91.512 42.492 l 91.438 42.461
 91.332 42.445 91.199 42.445 c 90.949 42.445 90.754 42.555 90.621 42.773
 c 90.496 42.984 90.434 43.285 90.434 43.68 c 90.434 45.555 l h
89.84 45.555 m f
94.766 44.57 m 94.766 44.906 94.633 45.164 94.375 45.352 c 94.125 45.531
 93.77 45.617 93.312 45.617 c 92.863 45.617 92.52 45.547 92.281 45.398 c
 92.039 45.254 91.883 45.023 91.812 44.711 c 92.344 44.617 l 92.395 44.805
 92.5 44.945 92.656 45.039 c 92.812 45.125 93.031 45.164 93.312 45.164 c
 93.613 45.164 93.832 45.117 93.969 45.023 c 94.113 44.93 94.188 44.797 
94.188 44.617 c 94.188 44.473 94.141 44.359 94.047 44.273 c 93.953 44.18
 93.797 44.109 93.578 44.055 c 93.141 43.93 l 92.805 43.848 92.566 43.766
 92.422 43.68 c 92.273 43.598 92.16 43.492 92.078 43.367 c 91.992 43.242
 91.953 43.094 91.953 42.914 c 91.953 42.594 92.066 42.348 92.297 42.18 
c 92.535 42.004 92.879 41.914 93.328 41.914 c 93.723 41.914 94.035 41.988
 94.266 42.133 c 94.492 42.27 94.641 42.488 94.703 42.789 c 94.172 42.867
 l 94.141 42.703 94.051 42.578 93.906 42.492 c 93.758 42.41 93.566 42.367
 93.328 42.367 c 93.055 42.367 92.852 42.41 92.719 42.492 c 92.594 42.578
 92.531 42.703 92.531 42.867 c 92.531 42.961 92.555 43.047 92.609 43.117
 c 92.66 43.18 92.738 43.238 92.844 43.289 c 92.945 43.332 93.164 43.395
 93.5 43.477 c 93.82 43.551 94.051 43.625 94.188 43.695 c 94.32 43.758 94.43
 43.832 94.516 43.914 c 94.598 44 94.66 44.094 94.703 44.195 c 94.742 44.301
 94.766 44.426 94.766 44.57 c h
94.766 44.57 m f
96.059 42.586 m 96.184 42.348 96.332 42.176 96.512 42.07 c 96.699 41.957
 96.926 41.898 97.199 41.898 c 97.594 41.898 97.879 42 98.059 42.195 c 98.246
 42.395 98.34 42.719 98.34 43.164 c 98.34 45.555 l 97.746 45.555 l 97.746
 43.289 l 97.746 43.031 97.719 42.844 97.668 42.727 c 97.625 42.602 97.551
 42.516 97.449 42.461 c 97.344 42.398 97.199 42.367 97.012 42.367 c 96.73
 42.367 96.5 42.469 96.324 42.664 c 96.156 42.852 96.074 43.113 96.074 43.445
 c 96.074 45.555 l 95.48 45.555 l 95.48 40.648 l 96.074 40.648 l 96.074 
41.914 l 96.074 42.051 96.066 42.191 96.059 42.336 c 96.059 42.484 96.059
 42.566 96.059 42.586 c h
96.059 42.586 m f
102.262 43.758 m 102.262 44.383 102.121 44.852 101.84 45.164 c 101.566 
45.469 101.172 45.617 100.652 45.617 c 100.129 45.617 99.734 45.461 99.465
 45.148 c 99.191 44.828 99.059 44.363 99.059 43.758 c 99.059 42.52 99.594
 41.898 100.668 41.898 c 101.219 41.898 101.621 42.051 101.871 42.352 c 
102.129 42.656 102.262 43.125 102.262 43.758 c h
101.637 43.758 m 101.637 43.27 101.562 42.914 101.418 42.695 c 101.27 42.469
 101.027 42.352 100.684 42.352 c 100.328 42.352 100.074 42.469 99.918 42.695
 c 99.762 42.926 99.684 43.281 99.684 43.758 c 99.684 44.227 99.762 44.582
 99.918 44.82 c 100.074 45.062 100.312 45.18 100.637 45.18 c 101 45.18 101.254
 45.066 101.402 44.836 c 101.559 44.609 101.637 44.25 101.637 43.758 c h
101.637 43.758 m f
106.031 43.758 m 106.031 44.383 105.891 44.852 105.609 45.164 c 105.336
 45.469 104.941 45.617 104.422 45.617 c 103.898 45.617 103.504 45.461 103.234
 45.148 c 102.961 44.828 102.828 44.363 102.828 43.758 c 102.828 42.52 103.363
 41.898 104.438 41.898 c 104.988 41.898 105.391 42.051 105.641 42.352 c 
105.898 42.656 106.031 43.125 106.031 43.758 c h
105.406 43.758 m 105.406 43.27 105.332 42.914 105.188 42.695 c 105.039 
42.469 104.797 42.352 104.453 42.352 c 104.098 42.352 103.844 42.469 103.688
 42.695 c 103.531 42.926 103.453 43.281 103.453 43.758 c 103.453 44.227 
103.531 44.582 103.688 44.82 c 103.844 45.062 104.082 45.18 104.406 45.18
 c 104.77 45.18 105.023 45.066 105.172 44.836 c 105.328 44.609 105.406 44.25
 105.406 43.758 c h
105.406 43.758 m f
108.141 45.523 m 107.953 45.574 107.754 45.602 107.547 45.602 c 107.066
 45.602 106.828 45.332 106.828 44.789 c 106.828 42.398 l 106.422 42.398 
l 106.422 41.977 l 106.859 41.977 l 107.031 41.164 l 107.422 41.164 l 107.422
 41.977 l 108.094 41.977 l 108.094 42.398 l 107.422 42.398 l 107.422 44.664
 l 107.422 44.844 107.445 44.969 107.5 45.039 c 107.562 45.102 107.66 45.133
 107.797 45.133 c 107.879 45.133 107.992 45.117 108.141 45.086 c h
108.141 45.523 m f
229.52 82.492 m 229.52 82.922 229.348 83.254 229.004 83.492 c 228.668 83.723
 228.195 83.836 227.582 83.836 c 226.445 83.836 225.789 83.441 225.613 82.648
 c 226.223 82.539 l 226.293 82.812 226.445 83.016 226.676 83.148 c 226.902
 83.285 227.215 83.352 227.613 83.352 c 228.02 83.352 228.332 83.285 228.551
 83.148 c 228.777 83.004 228.895 82.797 228.895 82.523 c 228.895 82.367 
228.855 82.242 228.785 82.148 c 228.711 82.055 228.613 81.977 228.488 81.914
 c 228.363 81.852 228.211 81.801 228.035 81.758 c 227.867 81.719 227.676
 81.672 227.457 81.617 c 227.09 81.535 226.809 81.457 226.613 81.383 c 226.426
 81.301 226.273 81.207 226.16 81.102 c 226.055 81 225.973 80.883 225.91 
80.758 c 225.855 80.625 225.832 80.469 225.832 80.289 c 225.832 79.883 225.98
 79.578 226.285 79.367 c 226.586 79.148 227.023 79.039 227.598 79.039 c 
228.129 79.039 228.535 79.125 228.816 79.289 c 229.098 79.445 229.293 79.723
 229.41 80.117 c 228.785 80.227 l 228.711 79.977 228.574 79.797 228.379 
79.68 c 228.191 79.566 227.93 79.508 227.598 79.508 c 227.223 79.508 226.934
 79.57 226.738 79.695 c 226.539 79.82 226.441 80.008 226.441 80.258 c 226.441
 80.406 226.477 80.523 226.551 80.617 c 226.633 80.711 226.742 80.789 226.879
 80.852 c 227.023 80.914 227.309 80.992 227.738 81.086 c 227.883 81.117 
228.027 81.156 228.176 81.195 c 228.32 81.227 228.457 81.27 228.582 81.32
 c 228.715 81.363 228.836 81.414 228.941 81.477 c 229.055 81.539 229.152
 81.617 229.238 81.711 c 229.32 81.805 229.387 81.914 229.441 82.039 c 229.492
 82.164 229.52 82.316 229.52 82.492 c h
229.52 82.492 m f
231.648 83.742 m 231.461 83.793 231.262 83.82 231.055 83.82 c 230.574 83.82
 230.336 83.551 230.336 83.008 c 230.336 80.617 l 229.93 80.617 l 229.93
 80.195 l 230.367 80.195 l 230.539 79.383 l 230.93 79.383 l 230.93 80.195
 l 231.602 80.195 l 231.602 80.617 l 230.93 80.617 l 230.93 82.883 l 230.93
 83.062 230.953 83.188 231.008 83.258 c 231.07 83.32 231.168 83.352 231.305
 83.352 c 231.387 83.352 231.5 83.336 231.648 83.305 c h
231.648 83.742 m f
232.609 82.102 m 232.609 82.52 232.691 82.844 232.859 83.07 c 233.035 83.289
 233.285 83.398 233.609 83.398 c 233.867 83.398 234.078 83.348 234.234 83.242
 c 234.391 83.141 234.492 83.004 234.547 82.836 c 235.078 82.992 l 234.859
 83.555 234.367 83.836 233.609 83.836 c 233.086 83.836 232.688 83.68 232.406
 83.367 c 232.125 83.055 231.984 82.586 231.984 81.961 c 231.984 81.367 
232.125 80.914 232.406 80.602 c 232.688 80.281 233.082 80.117 233.594 80.117
 c 234.645 80.117 235.172 80.754 235.172 82.023 c 235.172 82.102 l h
234.562 81.648 m 234.52 81.273 234.422 81.004 234.266 80.836 c 234.109 
80.66 233.879 80.57 233.578 80.57 c 233.297 80.57 233.066 80.672 232.891
 80.867 c 232.723 81.055 232.633 81.316 232.625 81.648 c h
234.562 81.648 m f
236.844 83.836 m 236.477 83.836 236.203 83.742 236.016 83.555 c 235.836
 83.367 235.75 83.109 235.75 82.773 c 235.75 82.398 235.867 82.113 236.109
 81.914 c 236.359 81.719 236.754 81.613 237.297 81.602 c 238.109 81.586 
l 238.109 81.398 l 238.109 81.109 238.047 80.898 237.922 80.773 c 237.797
 80.648 237.602 80.586 237.344 80.586 c 237.07 80.586 236.875 80.633 236.75
 80.727 c 236.633 80.812 236.562 80.953 236.531 81.148 c 235.922 81.086 
l 236.016 80.441 236.492 80.117 237.359 80.117 c 237.805 80.117 238.141 
80.223 238.359 80.43 c 238.586 80.641 238.703 80.941 238.703 81.336 c 238.703
 82.867 l 238.703 83.047 238.723 83.18 238.766 83.273 c 238.816 83.359 238.91
 83.398 239.047 83.398 c 239.098 83.398 239.16 83.395 239.234 83.383 c 239.234
 83.758 l 239.086 83.789 238.938 83.805 238.781 83.805 c 238.562 83.805 
238.398 83.75 238.297 83.633 c 238.191 83.52 238.133 83.336 238.125 83.086
 c 238.109 83.086 l 237.953 83.359 237.77 83.551 237.562 83.664 c 237.363
 83.777 237.125 83.836 236.844 83.836 c h
236.969 83.398 m 237.188 83.398 237.379 83.352 237.547 83.258 c 237.723
 83.156 237.859 83.016 237.953 82.836 c 238.055 82.66 238.109 82.484 238.109
 82.305 c 238.109 82.008 l 237.453 82.023 l 237.172 82.023 236.957 82.051
 236.812 82.102 c 236.664 82.156 236.555 82.238 236.484 82.352 c 236.41 
82.457 236.375 82.602 236.375 82.789 c 236.375 82.977 236.426 83.129 236.531
 83.242 c 236.633 83.348 236.781 83.398 236.969 83.398 c h
236.969 83.398 m f
241.953 83.195 m 241.836 83.426 241.688 83.594 241.5 83.695 c 241.32 83.789
 241.102 83.836 240.844 83.836 c 240.383 83.836 240.047 83.688 239.828 83.383
 c 239.617 83.082 239.516 82.617 239.516 81.992 c 239.516 80.742 239.957
 80.117 240.844 80.117 c 241.113 80.117 241.336 80.172 241.516 80.273 c 
241.691 80.379 241.836 80.535 241.953 80.742 c 241.953 78.867 l 242.547 
78.867 l 242.547 83.039 l 242.547 83.414 242.551 83.66 242.562 83.773 c 
242 83.773 l 241.988 83.742 241.977 83.664 241.969 83.539 c 241.969 83.406
 241.969 83.289 241.969 83.195 c h
240.141 81.977 m 240.141 82.477 240.207 82.836 240.344 83.055 c 240.477
 83.273 240.691 83.383 240.984 83.383 c 241.328 83.383 241.57 83.27 241.719
 83.039 c 241.875 82.801 241.953 82.438 241.953 81.945 c 241.953 81.469 
241.875 81.117 241.719 80.898 c 241.57 80.68 241.332 80.57 241 80.57 c 240.695
 80.57 240.477 80.68 240.344 80.898 c 240.207 81.117 240.141 81.477 240.141
 81.977 c h
240.141 81.977 m f
243.625 85.18 m 243.469 85.18 243.332 85.168 243.219 85.148 c 243.219 84.695
 l 243.301 84.703 243.395 84.711 243.5 84.711 c 243.875 84.711 244.164 84.438
 244.375 83.898 c 244.438 83.758 l 243.016 80.195 l 243.656 80.195 l 244.406
 82.164 l 244.414 82.195 244.426 82.238 244.438 82.289 c 244.457 82.332 
244.508 82.477 244.594 82.727 c 244.676 82.969 244.723 83.098 244.734 83.117
 c 244.969 82.477 l 245.75 80.195 l 246.375 80.195 l 245 83.773 l 244.852
 84.156 244.711 84.438 244.578 84.617 c 244.453 84.805 244.312 84.945 244.156
 85.039 c 244 85.133 243.82 85.18 243.625 85.18 c h
243.625 85.18 m f
251.414 82.789 m 251.414 83.125 251.281 83.383 251.023 83.57 c 250.773 
83.75 250.418 83.836 249.961 83.836 c 249.512 83.836 249.168 83.766 248.93
 83.617 c 248.688 83.473 248.531 83.242 248.461 82.93 c 248.992 82.836 l
 249.043 83.023 249.148 83.164 249.305 83.258 c 249.461 83.344 249.68 83.383
 249.961 83.383 c 250.262 83.383 250.48 83.336 250.617 83.242 c 250.762 
83.148 250.836 83.016 250.836 82.836 c 250.836 82.691 250.789 82.578 250.695
 82.492 c 250.602 82.398 250.445 82.328 250.227 82.273 c 249.789 82.148 
l 249.453 82.066 249.215 81.984 249.07 81.898 c 248.922 81.816 248.809 81.711
 248.727 81.586 c 248.641 81.461 248.602 81.312 248.602 81.133 c 248.602
 80.812 248.715 80.566 248.945 80.398 c 249.184 80.223 249.527 80.133 249.977
 80.133 c 250.371 80.133 250.684 80.207 250.914 80.352 c 251.141 80.488 
251.289 80.707 251.352 81.008 c 250.82 81.086 l 250.789 80.922 250.699 80.797
 250.555 80.711 c 250.406 80.629 250.215 80.586 249.977 80.586 c 249.703
 80.586 249.5 80.629 249.367 80.711 c 249.242 80.797 249.18 80.922 249.18
 81.086 c 249.18 81.18 249.203 81.266 249.258 81.336 c 249.309 81.398 249.387
 81.457 249.492 81.508 c 249.594 81.551 249.812 81.613 250.148 81.695 c 
250.469 81.77 250.699 81.844 250.836 81.914 c 250.969 81.977 251.078 82.051
 251.164 82.133 c 251.246 82.219 251.309 82.312 251.352 82.414 c 251.391
 82.52 251.414 82.645 251.414 82.789 c h
251.414 82.789 m f
253.488 83.742 m 253.301 83.793 253.102 83.82 252.895 83.82 c 252.414 83.82
 252.176 83.551 252.176 83.008 c 252.176 80.617 l 251.77 80.617 l 251.77
 80.195 l 252.207 80.195 l 252.379 79.383 l 252.77 79.383 l 252.77 80.195
 l 253.441 80.195 l 253.441 80.617 l 252.77 80.617 l 252.77 82.883 l 252.77
 83.062 252.793 83.188 252.848 83.258 c 252.91 83.32 253.008 83.352 253.145
 83.352 c 253.227 83.352 253.34 83.336 253.488 83.305 c h
253.488 83.742 m f
254.918 83.836 m 254.551 83.836 254.277 83.742 254.09 83.555 c 253.91 83.367
 253.824 83.109 253.824 82.773 c 253.824 82.398 253.941 82.113 254.184 81.914
 c 254.434 81.719 254.828 81.613 255.371 81.602 c 256.184 81.586 l 256.184
 81.398 l 256.184 81.109 256.121 80.898 255.996 80.773 c 255.871 80.648 
255.676 80.586 255.418 80.586 c 255.145 80.586 254.949 80.633 254.824 80.727
 c 254.707 80.812 254.637 80.953 254.605 81.148 c 253.996 81.086 l 254.09
 80.441 254.566 80.117 255.434 80.117 c 255.879 80.117 256.215 80.223 256.434
 80.43 c 256.66 80.641 256.777 80.941 256.777 81.336 c 256.777 82.867 l 
256.777 83.047 256.797 83.18 256.84 83.273 c 256.891 83.359 256.984 83.398
 257.121 83.398 c 257.172 83.398 257.234 83.395 257.309 83.383 c 257.309
 83.758 l 257.16 83.789 257.012 83.805 256.855 83.805 c 256.637 83.805 256.473
 83.75 256.371 83.633 c 256.266 83.52 256.207 83.336 256.199 83.086 c 256.184
 83.086 l 256.027 83.359 255.844 83.551 255.637 83.664 c 255.438 83.777 
255.199 83.836 254.918 83.836 c h
255.043 83.398 m 255.262 83.398 255.453 83.352 255.621 83.258 c 255.797
 83.156 255.934 83.016 256.027 82.836 c 256.129 82.66 256.184 82.484 256.184
 82.305 c 256.184 82.008 l 255.527 82.023 l 255.246 82.023 255.031 82.051
 254.887 82.102 c 254.738 82.156 254.629 82.238 254.559 82.352 c 254.484
 82.457 254.449 82.602 254.449 82.789 c 254.449 82.977 254.5 83.129 254.605
 83.242 c 254.707 83.348 254.855 83.398 255.043 83.398 c h
255.043 83.398 m f
259.137 83.742 m 258.949 83.793 258.75 83.82 258.543 83.82 c 258.062 83.82
 257.824 83.551 257.824 83.008 c 257.824 80.617 l 257.418 80.617 l 257.418
 80.195 l 257.855 80.195 l 258.027 79.383 l 258.418 79.383 l 258.418 80.195
 l 259.09 80.195 l 259.09 80.617 l 258.418 80.617 l 258.418 82.883 l 258.418
 83.062 258.441 83.188 258.496 83.258 c 258.559 83.32 258.656 83.352 258.793
 83.352 c 258.875 83.352 258.988 83.336 259.137 83.305 c h
259.137 83.742 m f
260.098 82.102 m 260.098 82.52 260.18 82.844 260.348 83.07 c 260.523 83.289
 260.773 83.398 261.098 83.398 c 261.355 83.398 261.566 83.348 261.723 83.242
 c 261.879 83.141 261.98 83.004 262.035 82.836 c 262.566 82.992 l 262.348
 83.555 261.855 83.836 261.098 83.836 c 260.574 83.836 260.176 83.68 259.895
 83.367 c 259.613 83.055 259.473 82.586 259.473 81.961 c 259.473 81.367 
259.613 80.914 259.895 80.602 c 260.176 80.281 260.57 80.117 261.082 80.117
 c 262.133 80.117 262.66 80.754 262.66 82.023 c 262.66 82.102 l h
262.051 81.648 m 262.008 81.273 261.91 81.004 261.754 80.836 c 261.598 
80.66 261.367 80.57 261.066 80.57 c 260.785 80.57 260.555 80.672 260.379
 80.867 c 260.211 81.055 260.121 81.316 260.113 81.648 c h
262.051 81.648 m f
266.875 83.773 m 266.172 83.773 l 264.859 80.195 l 265.5 80.195 l 266.297
 82.523 l 266.316 82.609 266.391 82.867 266.516 83.305 c 266.766 82.523 
l 267.578 80.195 l 268.219 80.195 l h
266.875 83.773 m f
269.605 83.836 m 269.238 83.836 268.965 83.742 268.777 83.555 c 268.598
 83.367 268.512 83.109 268.512 82.773 c 268.512 82.398 268.629 82.113 268.871
 81.914 c 269.121 81.719 269.516 81.613 270.059 81.602 c 270.871 81.586 
l 270.871 81.398 l 270.871 81.109 270.809 80.898 270.684 80.773 c 270.559
 80.648 270.363 80.586 270.105 80.586 c 269.832 80.586 269.637 80.633 269.512
 80.727 c 269.395 80.812 269.324 80.953 269.293 81.148 c 268.684 81.086 
l 268.777 80.441 269.254 80.117 270.121 80.117 c 270.566 80.117 270.902 
80.223 271.121 80.43 c 271.348 80.641 271.465 80.941 271.465 81.336 c 271.465
 82.867 l 271.465 83.047 271.484 83.18 271.527 83.273 c 271.578 83.359 271.672
 83.398 271.809 83.398 c 271.859 83.398 271.922 83.395 271.996 83.383 c 
271.996 83.758 l 271.848 83.789 271.699 83.805 271.543 83.805 c 271.324 
83.805 271.16 83.75 271.059 83.633 c 270.953 83.52 270.895 83.336 270.887
 83.086 c 270.871 83.086 l 270.715 83.359 270.531 83.551 270.324 83.664 
c 270.125 83.777 269.887 83.836 269.605 83.836 c h
269.73 83.398 m 269.949 83.398 270.141 83.352 270.309 83.258 c 270.484 
83.156 270.621 83.016 270.715 82.836 c 270.816 82.66 270.871 82.484 270.871
 82.305 c 270.871 82.008 l 270.215 82.023 l 269.934 82.023 269.719 82.051
 269.574 82.102 c 269.426 82.156 269.316 82.238 269.246 82.352 c 269.172
 82.457 269.137 82.602 269.137 82.789 c 269.137 82.977 269.188 83.129 269.293
 83.242 c 269.395 83.348 269.543 83.398 269.73 83.398 c h
269.73 83.398 m f
272.449 78.867 0.594 4.906 re f
274.547 80.195 m 274.547 82.461 l 274.547 82.703 274.566 82.891 274.609
 83.023 c 274.648 83.148 274.723 83.242 274.828 83.305 c 274.93 83.359 275.082
 83.383 275.281 83.383 c 275.562 83.383 275.785 83.285 275.953 83.086 c 
276.117 82.891 276.203 82.617 276.203 82.273 c 276.203 80.195 l 276.797 
80.195 l 276.797 83.008 l 276.797 83.426 276.805 83.68 276.828 83.773 c 
276.266 83.773 l 276.254 83.766 276.25 83.738 276.25 83.695 c 276.25 83.645
 276.242 83.586 276.234 83.523 c 276.234 83.461 276.234 83.344 276.234 83.164
 c 276.219 83.164 l 276.082 83.414 275.926 83.594 275.75 83.695 c 275.57
 83.789 275.348 83.836 275.078 83.836 c 274.68 83.836 274.391 83.742 274.203
 83.555 c 274.023 83.359 273.938 83.031 273.938 82.57 c 273.938 80.195 l
 h
274.547 80.195 m f
278.172 82.102 m 278.172 82.52 278.254 82.844 278.422 83.07 c 278.598 83.289
 278.848 83.398 279.172 83.398 c 279.43 83.398 279.641 83.348 279.797 83.242
 c 279.953 83.141 280.055 83.004 280.109 82.836 c 280.641 82.992 l 280.422
 83.555 279.93 83.836 279.172 83.836 c 278.648 83.836 278.25 83.68 277.969
 83.367 c 277.688 83.055 277.547 82.586 277.547 81.961 c 277.547 81.367 
277.688 80.914 277.969 80.602 c 278.25 80.281 278.645 80.117 279.156 80.117
 c 280.207 80.117 280.734 80.754 280.734 82.023 c 280.734 82.102 l h
280.125 81.648 m 280.082 81.273 279.984 81.004 279.828 80.836 c 279.672
 80.66 279.441 80.57 279.141 80.57 c 278.859 80.57 278.629 80.672 278.453
 80.867 c 278.285 81.055 278.195 81.316 278.188 81.648 c h
280.125 81.648 m f
Q q
220.672 55.445 105.562 3 re W n
q
220 55 107 4 re W n
  q
0 0 1 rg
0.33871 w
0 J
1 j
[] 0.0 d
10 M q 1 0 0 -1 0 0 cm
221.293 -57.352 m 222.363 -57.297 l 223.438 -57.184 l 224.512 -57.129 l
 225.582 -57.016 l 226.656 -56.957 l 227.727 -56.844 l 228.801 -56.73 l 
229.871 -56.676 l 232.02 -56.449 l 233.09 -56.395 l 234.164 -56.281 l 235.18
 -56.223 l 236.25 -56.168 l 237.324 -56.055 l 238.398 -56 l 239.469 -55.941
 l 240.543 -55.941 l 241.613 -55.887 l 242.688 -55.828 l 250.141 -55.828
 l 251.211 -55.887 l 252.285 -55.887 l 253.355 -55.941 l 254.43 -56 l 255.5
 -56 l 257.648 -56.109 l 258.719 -56.168 l 259.793 -56.223 l 260.863 -56.281
 l 261.938 -56.336 l 263.012 -56.395 l 264.082 -56.395 l 265.098 -56.449
 l 266.172 -56.508 l 267.242 -56.562 l 268.316 -56.562 l 269.391 -56.621
 l 270.461 -56.621 l 271.535 -56.676 l 272.605 -56.676 l 273.68 -56.73 l
 283.277 -56.73 l 284.348 -56.676 l 286.492 -56.676 l 287.566 -56.621 l 
288.641 -56.621 l 289.711 -56.562 l 290.785 -56.562 l 291.855 -56.508 l 
292.93 -56.508 l 294 -56.449 l 295.02 -56.449 l 296.09 -56.395 l 298.234
 -56.395 l 299.309 -56.336 l 301.453 -56.336 l 302.527 -56.281 l 306.816
 -56.281 l 307.891 -56.223 l 311.051 -56.223 l 312.125 -56.281 l 318.559
 -56.281 l 319.633 -56.336 l 322.848 -56.336 l 323.922 -56.395 l 326.234
 -56.395 l S Q
  Q
Q
Q q
0 0 1 rg
0.33871 w
0 J
1 j
[] 0.0 d
10 M q 1 0 0 1 0 0 cm
115.5 49.562 m 116.574 49.281 l 117.648 49.055 l 118.719 48.887 l 119.793
 48.887 l 120.863 48.941 l 121.938 49.055 l 123.012 49.281 l 124.082 49.562
 l 125.156 49.902 l 126.227 50.352 l 127.301 50.805 l 128.371 51.312 l 129.391
 51.879 l 130.461 52.441 l 131.535 53.008 l 132.605 53.629 l 133.68 54.25
 l 134.75 54.871 l 135.824 55.492 l 136.898 56.055 l 137.969 56.676 l 139.043
 57.184 l 140.113 57.691 l 141.188 58.199 l 142.262 58.652 l 143.332 59.047
 l 144.348 59.387 l 145.422 59.668 l 146.492 59.949 l 147.566 60.121 l 148.641
 60.289 l 149.711 60.402 l 150.785 60.457 l 151.855 60.457 l 152.93 60.402
 l 154 60.289 l 155.074 60.176 l 156.148 60.008 l 157.219 59.836 l 158.293
 59.609 l 159.309 59.328 l 160.383 59.047 l 161.453 58.766 l 162.527 58.426
 l 163.598 58.145 l 164.672 57.805 l 165.742 57.465 l 166.816 57.129 l 167.891
 56.789 l 168.961 56.508 l 170.035 56.168 l 171.105 55.887 l 172.18 55.66
 l 173.25 55.379 l 174.324 55.152 l 175.34 54.98 l 176.414 54.758 l 177.484
 54.645 l 179.633 54.418 l 180.703 54.359 l 181.777 54.305 l 182.848 54.25
 l 183.922 54.305 l 184.992 54.305 l 186.066 54.359 l 187.141 54.418 l 188.211
 54.531 l 189.285 54.645 l 190.301 54.758 l 191.371 54.926 l 192.445 55.094
 l 193.52 55.266 l 194.59 55.379 l 195.664 55.602 l 196.734 55.773 l 198.883
 56.109 l 199.953 56.281 l 201.027 56.449 l 202.098 56.621 l 203.172 56.73
 l 204.242 56.902 l 205.262 57.016 l 206.332 57.129 l 207.406 57.242 l 208.477
 57.352 l 209.551 57.41 l 210.621 57.465 l 211.695 57.523 l 212.77 57.523
 l 213.84 57.578 l 215.984 57.578 l 217.059 57.523 l 218.133 57.523 l 219.203
 57.465 l 220.219 57.41 l 221.293 57.352 l S Q
Q q
23.656 29.445 92.016 77.02 re W n
q
23 29 93 78 re W n
  q
0 0 1 rg
0.33871 w
0 J
1 j
[] 0.0 d
10 M q 1 0 0 -1 0 0 cm
23.656 -106.41 m 24.672 -106.297 l 25.742 -105.844 l 26.816 -104.941 l 
27.891 -103.586 l 28.961 -101.723 l 30.035 -99.41 l 31.105 -96.699 l 32.18
 -93.652 l 33.25 -90.32 l 34.324 -86.707 l 35.398 -82.926 l 36.469 -79.031
 l 37.543 -74.965 l 38.613 -70.902 l 39.633 -66.836 l 40.703 -62.828 l 41.777
 -58.879 l 42.848 -55.094 l 43.922 -51.48 l 44.992 -48.039 l 46.066 -44.879
 l 47.141 -42 l 48.211 -39.344 l 49.285 -37.031 l 50.355 -35 l 51.43 -33.359
 l 52.5 -32.008 l 53.574 -30.992 l 54.59 -30.312 l 55.664 -29.973 l 56.734
 -29.918 l 57.809 -30.199 l 58.883 -30.766 l 59.953 -31.609 l 61.027 -32.684
 l 62.098 -33.98 l 63.172 -35.508 l 64.242 -37.145 l 65.316 -39.008 l 66.391
 -40.926 l 67.461 -43.016 l 68.535 -45.102 l 69.551 -47.305 l 70.621 -49.449
 l 71.695 -51.652 l 72.77 -53.742 l 73.84 -55.828 l 74.914 -57.805 l 75.984
 -59.723 l 77.059 -61.473 l 78.133 -63.109 l 79.203 -64.637 l 80.277 -65.992
 l 81.348 -67.176 l 82.422 -68.191 l 83.492 -68.98 l 84.512 -69.66 l 85.582
 -70.109 l 86.656 -70.449 l 87.727 -70.562 l 88.801 -70.508 l 89.871 -70.336
 l 90.945 -70 l 92.02 -69.492 l 93.09 -68.871 l 94.164 -68.137 l 95.234 
-67.289 l 96.309 -66.387 l 97.383 -65.371 l 98.453 -64.297 l 99.469 -63.168
 l 100.543 -62.039 l 101.613 -60.91 l 102.688 -59.723 l 103.762 -58.594 
l 104.832 -57.465 l 105.906 -56.336 l 106.977 -55.32 l 108.051 -54.305 l
 109.121 -53.402 l 110.195 -52.555 l 111.27 -51.766 l 112.34 -51.086 l 113.414
 -50.465 l 114.43 -49.957 l 115.5 -49.562 l S Q
  Q
Q
Q q
0 g
0.33871 w
0 J
1 j
[] 0.0 d
10 M q 1 0 0 1 0 0 cm
21.68 72.371 m 25.066 72.371 l S Q
22.695 69.828 m 29.469 72.371 l 22.695 74.91 l 25.066 72.371 l 22.695 69.828
 l f*
q 1 0 0 1 0 0 cm
49 72.371 m 45.613 72.371 l S Q
47.984 74.91 m 41.211 72.371 l 47.984 69.828 l 45.613 72.371 l 47.984 74.91
 l f*
q 1 0 0 1 0 0 cm
33.871 89.98 m 155.863 89.98 l S Q
36.242 87.441 m 29.469 89.98 l 36.242 92.523 l 33.871 89.98 l 36.242 87.441
 l f*
153.492 87.441 m 160.27 89.98 l 153.492 92.523 l 155.863 89.98 l 153.492
 87.441 l f*
q 1 0 0 1 0 0 cm
66.559 52.723 m 66.559 35.789 l S Q
64.02 50.352 m 66.559 57.129 l 69.098 50.352 l 66.559 52.723 l 64.02 50.352
 l f*
64.02 38.16 m 66.559 31.387 l 69.098 38.16 l 66.559 35.789 l 64.02 38.16
 l f*
q 1 0 0 1 0 0 cm
285.195 75.305 m 320.195 59.555 l S Q
316.977 58.199 m 324.203 57.75 l 319.066 62.828 l 320.195 59.555 l 316.977
 58.199 l f*
Q Q
showpage
%%Trailer
end
%%EOF
