%!PS-Adobe-3.0 EPSF-3.0
%%Creator: cairo 1.16.0 (https://cairographics.org)
%%CreationDate: Wed Aug  7 13:04:51 2019
%%Pages: 1
%%DocumentData: Clean7Bit
%%LanguageLevel: 2
%%BoundingBox: 0 0 333 126
%%EndComments
%%BeginProlog
50 dict begin
/q { gsave } bind def
/Q { grestore } bind def
/cm { 6 array astore concat } bind def
/w { setlinewidth } bind def
/J { setlinecap } bind def
/j { setlinejoin } bind def
/M { setmiterlimit } bind def
/d { setdash } bind def
/m { moveto } bind def
/l { lineto } bind def
/c { curveto } bind def
/h { closepath } bind def
/re { exch dup neg 3 1 roll 5 3 roll moveto 0 rlineto
      0 exch rlineto 0 rlineto closepath } bind def
/S { stroke } bind def
/f { fill } bind def
/f* { eofill } bind def
/n { newpath } bind def
/W { clip } bind def
/W* { eoclip } bind def
/BT { } bind def
/ET { } bind def
/BDC { mark 3 1 roll /BDC pdfmark } bind def
/EMC { mark /EMC pdfmark } bind def
/cairo_store_point { /cairo_point_y exch def /cairo_point_x exch def } def
/Tj { show currentpoint cairo_store_point } bind def
/TJ {
  {
    dup
    type /stringtype eq
    { show } { -0.001 mul 0 cairo_font_matrix dtransform rmoveto } ifelse
  } forall
  currentpoint cairo_store_point
} bind def
/cairo_selectfont { cairo_font_matrix aload pop pop pop 0 0 6 array astore
    cairo_font exch selectfont cairo_point_x cairo_point_y moveto } bind def
/Tf { pop /cairo_font exch def /cairo_font_matrix where
      { pop cairo_selectfont } if } bind def
/Td { matrix translate cairo_font_matrix matrix concatmatrix dup
      /cairo_font_matrix exch def dup 4 get exch 5 get cairo_store_point
      /cairo_font where { pop cairo_selectfont } if } bind def
/Tm { 2 copy 8 2 roll 6 array astore /cairo_font_matrix exch def
      cairo_store_point /cairo_font where { pop cairo_selectfont } if } bind def
/g { setgray } bind def
/rg { setrgbcolor } bind def
/d1 { setcachedevice } bind def
/cairo_data_source {
  CairoDataIndex CairoData length lt
    { CairoData CairoDataIndex get /CairoDataIndex CairoDataIndex 1 add def }
    { () } ifelse
} def
/cairo_flush_ascii85_file { cairo_ascii85_file status { cairo_ascii85_file flushfile } if } def
/cairo_image { image cairo_flush_ascii85_file } def
/cairo_imagemask { imagemask cairo_flush_ascii85_file } def
%%EndProlog
%%BeginSetup
%%EndSetup
%%Page: 1 1
%%BeginPageSetup
%%PageBoundingBox: 0 0 333 126
%%EndPageSetup
q 0 0 333 126 rectclip
1 0 0 -1 0 126 cm q
Q q
q
0 0 333 126 re W n
[ 1 0 0 1 0 0 ] concat
  q
1 g
0 0 333 126 rectfill
  Q
Q
1 g
23.656 6.488 302.523 99.922 re f*
0.33871 w
0 J
1 j
[] 0.0 d
10 M q 1 0 0 1 0 0 cm
23.656 6.488 302.523 99.922 re S Q
0 g
q 1 0 0 1 0 0 cm
23.656 106.41 m 326.18 106.41 l S Q
q 1 0 0 1 0 0 cm
23.656 6.492 m 326.18 6.492 l S Q
q 1 0 0 1 0 0 cm
23.656 106.41 m 23.656 6.492 l S Q
q 1 0 0 1 0 0 cm
326.18 106.41 m 326.18 6.492 l S Q
q 1 0 0 1 0 0 cm
23.656 106.41 m 326.18 106.41 l S Q
q 1 0 0 1 0 0 cm
23.656 106.41 m 23.656 6.492 l S Q
q 1 0 0 1 0 0 cm
23.656 106.41 m 23.656 103.359 l S Q
q 1 0 0 1 0 0 cm
23.656 6.492 m 23.656 9.48 l S Q
22.719 113.98 m 22.719 114.184 22.684 114.34 22.613 114.449 c 22.539 114.559
 22.43 114.613 22.289 114.613 c 22.148 114.613 22.043 114.559 21.969 114.449
 c 21.898 114.344 21.863 114.188 21.863 113.98 c 21.863 113.766 21.898 113.609
 21.965 113.504 c 22.035 113.395 22.145 113.344 22.293 113.344 c 22.438 
113.344 22.547 113.395 22.617 113.504 c 22.684 113.613 22.719 113.77 22.719
 113.98 c h
22.562 113.98 m 22.562 113.801 22.543 113.672 22.5 113.59 c 22.457 113.512
 22.391 113.473 22.293 113.473 c 22.195 113.473 22.129 113.512 22.086 113.59
 c 22.047 113.668 22.023 113.797 22.023 113.98 c 22.023 114.152 22.047 114.281
 22.086 114.363 c 22.129 114.445 22.199 114.484 22.293 114.484 c 22.383 
114.484 22.453 114.441 22.496 114.359 c 22.539 114.277 22.562 114.152 22.562
 113.98 c h
22.562 113.98 m f
q 1 0 0 1 0 0 cm
74.066 106.41 m 74.066 103.359 l S Q
q 1 0 0 1 0 0 cm
74.066 6.492 m 74.066 9.48 l S Q
73.125 114.195 m 73.125 114.324 73.086 114.426 73.012 114.5 c 72.934 114.574
 72.824 114.613 72.688 114.613 c 72.57 114.613 72.477 114.586 72.406 114.539
 c 72.336 114.488 72.293 114.414 72.273 114.316 c 72.434 114.301 l 72.469
 114.422 72.555 114.484 72.691 114.484 c 72.777 114.484 72.844 114.457 72.891
 114.41 c 72.941 114.359 72.965 114.289 72.965 114.199 c 72.965 114.117 
72.941 114.055 72.891 114.008 c 72.844 113.961 72.777 113.938 72.695 113.938
 c 72.652 113.938 72.609 113.945 72.574 113.957 c 72.539 113.969 72.504 
113.992 72.465 114.023 c 72.312 114.023 l 72.352 113.359 l 73.055 113.359
 l 73.055 113.496 l 72.496 113.496 l 72.473 113.887 l 72.539 113.832 72.625
 113.805 72.73 113.805 c 72.852 113.805 72.945 113.844 73.02 113.914 c 73.09
 113.984 73.125 114.078 73.125 114.195 c h
73.125 114.195 m f
q 1 0 0 1 0 0 cm
124.477 106.41 m 124.477 103.359 l S Q
q 1 0 0 1 0 0 cm
124.477 6.492 m 124.477 9.48 l S Q
120.887 114.594 m 120.887 114.465 l 121.203 114.465 l 121.203 113.512 l
 120.926 113.711 l 120.926 113.562 l 121.215 113.359 l 121.359 113.359 l
 121.359 114.465 l 121.66 114.465 l 121.66 114.594 l h
120.887 114.594 m f
125.445 113.98 m 125.445 114.184 125.406 114.34 125.336 114.449 c 125.266
 114.559 125.156 114.613 125.016 114.613 c 124.875 114.613 124.766 114.559
 124.695 114.449 c 124.625 114.344 124.59 114.188 124.59 113.98 c 124.59
 113.766 124.621 113.609 124.691 113.504 c 124.762 113.395 124.871 113.344
 125.02 113.344 c 125.164 113.344 125.273 113.395 125.34 113.504 c 125.41
 113.613 125.445 113.77 125.445 113.98 c h
125.289 113.98 m 125.289 113.801 125.266 113.672 125.227 113.59 c 125.184
 113.512 125.113 113.473 125.02 113.473 c 124.922 113.473 124.852 113.512
 124.812 113.59 c 124.77 113.668 124.75 113.797 124.75 113.98 c 124.75 114.152
 124.77 114.281 124.812 114.363 c 124.855 114.445 124.926 114.484 125.02
 114.484 c 125.109 114.484 125.176 114.441 125.223 114.359 c 125.266 114.277
 125.289 114.152 125.289 113.98 c h
125.289 113.98 m f
q 1 0 0 1 0 0 cm
174.891 106.41 m 174.891 103.359 l S Q
q 1 0 0 1 0 0 cm
174.891 6.492 m 174.891 9.48 l S Q
171.301 114.594 m 171.301 114.465 l 171.613 114.465 l 171.613 113.512 l
 171.336 113.711 l 171.336 113.562 l 171.625 113.359 l 171.773 113.359 l
 171.773 114.465 l 172.074 114.465 l 172.074 114.594 l h
171.301 114.594 m f
175.852 114.195 m 175.852 114.324 175.812 114.426 175.738 114.5 c 175.66
 114.574 175.551 114.613 175.414 114.613 c 175.297 114.613 175.203 114.586
 175.133 114.539 c 175.062 114.488 175.02 114.414 175 114.316 c 175.16 114.301
 l 175.195 114.422 175.281 114.484 175.418 114.484 c 175.504 114.484 175.57
 114.457 175.617 114.41 c 175.668 114.359 175.691 114.289 175.691 114.199
 c 175.691 114.117 175.668 114.055 175.617 114.008 c 175.57 113.961 175.504
 113.938 175.422 113.938 c 175.379 113.938 175.336 113.945 175.301 113.957
 c 175.266 113.969 175.23 113.992 175.191 114.023 c 175.039 114.023 l 175.078
 113.359 l 175.781 113.359 l 175.781 113.496 l 175.223 113.496 l 175.199
 113.887 l 175.266 113.832 175.352 113.805 175.457 113.805 c 175.578 113.805
 175.672 113.844 175.746 113.914 c 175.816 113.984 175.852 114.078 175.852
 114.195 c h
175.852 114.195 m f
q 1 0 0 1 0 0 cm
225.301 106.41 m 225.301 103.359 l S Q
q 1 0 0 1 0 0 cm
225.301 6.492 m 225.301 9.48 l S Q
221.664 114.594 m 221.664 114.484 l 221.695 114.414 221.73 114.355 221.773
 114.301 c 221.816 114.25 221.863 114.203 221.91 114.16 c 221.957 114.121
 222.004 114.082 222.051 114.047 c 222.098 114.008 222.137 113.969 222.176
 113.934 c 222.211 113.898 222.242 113.863 222.266 113.82 c 222.289 113.781
 222.301 113.734 222.301 113.688 c 222.301 113.617 222.281 113.566 222.242
 113.527 c 222.203 113.492 222.145 113.473 222.074 113.473 c 222.008 113.473
 221.953 113.492 221.91 113.527 c 221.867 113.566 221.84 113.617 221.836
 113.684 c 221.676 113.664 l 221.684 113.566 221.727 113.488 221.797 113.43
 c 221.871 113.371 221.961 113.344 222.074 113.344 c 222.199 113.344 222.293
 113.375 222.359 113.434 c 222.43 113.492 222.465 113.574 222.465 113.684
 c 222.465 113.73 222.453 113.777 222.43 113.82 c 222.406 113.871 222.375
 113.918 222.332 113.969 c 222.289 114.016 222.207 114.086 222.082 114.188
 c 222.016 114.242 221.965 114.293 221.922 114.336 c 221.883 114.379 221.855
 114.422 221.84 114.465 c 222.484 114.465 l 222.484 114.594 l h
221.664 114.594 m f
226.266 113.98 m 226.266 114.184 226.23 114.34 226.16 114.449 c 226.086
 114.559 225.98 114.613 225.836 114.613 c 225.695 114.613 225.59 114.559
 225.52 114.449 c 225.445 114.344 225.41 114.188 225.41 113.98 c 225.41 
113.766 225.445 113.609 225.516 113.504 c 225.582 113.395 225.691 113.344
 225.84 113.344 c 225.988 113.344 226.094 113.395 226.164 113.504 c 226.23
 113.613 226.266 113.77 226.266 113.98 c h
226.109 113.98 m 226.109 113.801 226.09 113.672 226.047 113.59 c 226.008
 113.512 225.938 113.473 225.84 113.473 c 225.746 113.473 225.676 113.512
 225.637 113.59 c 225.594 113.668 225.574 113.797 225.574 113.98 c 225.574
 114.152 225.594 114.281 225.637 114.363 c 225.68 114.445 225.746 114.484
 225.84 114.484 c 225.934 114.484 226 114.441 226.043 114.359 c 226.086 
114.277 226.109 114.152 226.109 113.98 c h
226.109 113.98 m f
q 1 0 0 1 0 0 cm
275.711 106.41 m 275.711 103.359 l S Q
q 1 0 0 1 0 0 cm
275.711 6.492 m 275.711 9.48 l S Q
272.078 114.594 m 272.078 114.484 l 272.105 114.414 272.145 114.355 272.184
 114.301 c 272.227 114.25 272.273 114.203 272.32 114.16 c 272.367 114.121
 272.414 114.082 272.461 114.047 c 272.508 114.008 272.551 113.969 272.586
 113.934 c 272.625 113.898 272.652 113.863 272.676 113.82 c 272.699 113.781
 272.715 113.734 272.715 113.688 c 272.715 113.617 272.691 113.566 272.652
 113.527 c 272.613 113.492 272.559 113.473 272.484 113.473 c 272.422 113.473
 272.363 113.492 272.32 113.527 c 272.277 113.566 272.25 113.617 272.246
 113.684 c 272.086 113.664 l 272.094 113.566 272.137 113.488 272.211 113.43
 c 272.281 113.371 272.371 113.344 272.484 113.344 c 272.609 113.344 272.707
 113.375 272.77 113.434 c 272.84 113.492 272.875 113.574 272.875 113.684
 c 272.875 113.73 272.863 113.777 272.84 113.82 c 272.82 113.871 272.785
 113.918 272.742 113.969 c 272.699 114.016 272.617 114.086 272.496 114.188
 c 272.43 114.242 272.375 114.293 272.332 114.336 c 272.293 114.379 272.266
 114.422 272.25 114.465 c 272.895 114.465 l 272.895 114.594 l h
272.078 114.594 m f
276.676 114.195 m 276.676 114.324 276.637 114.426 276.559 114.5 c 276.48
 114.574 276.375 114.613 276.234 114.613 c 276.121 114.613 276.027 114.586
 275.953 114.539 c 275.887 114.488 275.84 114.414 275.824 114.316 c 275.984
 114.301 l 276.016 114.422 276.102 114.484 276.238 114.484 c 276.324 114.484
 276.391 114.457 276.438 114.41 c 276.488 114.359 276.512 114.289 276.512
 114.199 c 276.512 114.117 276.488 114.055 276.438 114.008 c 276.391 113.961
 276.328 113.938 276.246 113.938 c 276.199 113.938 276.16 113.945 276.125
 113.957 c 276.09 113.969 276.051 113.992 276.012 114.023 c 275.859 114.023
 l 275.902 113.359 l 276.605 113.359 l 276.605 113.496 l 276.047 113.496
 l 276.02 113.887 l 276.09 113.832 276.176 113.805 276.277 113.805 c 276.398
 113.805 276.496 113.844 276.566 113.914 c 276.637 113.984 276.676 114.078
 276.676 114.195 c h
276.676 114.195 m f
q 1 0 0 1 0 0 cm
326.18 106.41 m 326.18 103.359 l S Q
q 1 0 0 1 0 0 cm
326.18 6.492 m 326.18 9.48 l S Q
323.371 114.258 m 323.371 114.371 323.336 114.457 323.266 114.52 c 323.191
 114.582 323.09 114.613 322.953 114.613 c 322.832 114.613 322.73 114.586
 322.656 114.527 c 322.582 114.473 322.539 114.387 322.523 114.277 c 322.684
 114.266 l 322.707 114.41 322.797 114.484 322.953 114.484 c 323.035 114.484
 323.094 114.465 323.141 114.426 c 323.188 114.383 323.211 114.324 323.211
 114.246 c 323.211 114.184 323.184 114.133 323.133 114.094 c 323.078 114.059
 323.004 114.039 322.91 114.039 c 322.816 114.039 l 322.816 113.902 l 322.906
 113.902 l 322.988 113.902 323.055 113.883 323.102 113.844 c 323.152 113.805
 323.176 113.75 323.176 113.688 c 323.176 113.621 323.156 113.566 323.121
 113.527 c 323.082 113.492 323.023 113.473 322.945 113.473 c 322.875 113.473
 322.82 113.488 322.777 113.523 c 322.734 113.562 322.711 113.613 322.703
 113.676 c 322.543 113.664 l 322.555 113.562 322.598 113.484 322.668 113.43
 c 322.738 113.371 322.832 113.344 322.945 113.344 c 323.07 113.344 323.164
 113.371 323.234 113.43 c 323.305 113.488 323.34 113.566 323.34 113.668 
c 323.34 113.75 323.316 113.812 323.273 113.863 c 323.227 113.91 323.164
 113.945 323.082 113.961 c 323.082 113.969 l 323.172 113.977 323.242 114.008
 323.293 114.059 c 323.344 114.109 323.371 114.176 323.371 114.258 c h
323.371 114.258 m f
327.145 113.98 m 327.145 114.184 327.109 114.34 327.039 114.449 c 326.965
 114.559 326.859 114.613 326.715 114.613 c 326.574 114.613 326.469 114.559
 326.398 114.449 c 326.324 114.344 326.289 114.188 326.289 113.98 c 326.289
 113.766 326.324 113.609 326.395 113.504 c 326.461 113.395 326.57 113.344
 326.719 113.344 c 326.867 113.344 326.973 113.395 327.043 113.504 c 327.109
 113.613 327.145 113.77 327.145 113.98 c h
326.988 113.98 m 326.988 113.801 326.969 113.672 326.926 113.59 c 326.887
 113.512 326.816 113.473 326.719 113.473 c 326.625 113.473 326.555 113.512
 326.516 113.59 c 326.473 113.668 326.453 113.797 326.453 113.98 c 326.453
 114.152 326.473 114.281 326.516 114.363 c 326.559 114.445 326.625 114.484
 326.719 114.484 c 326.812 114.484 326.879 114.441 326.922 114.359 c 326.965
 114.277 326.988 114.152 326.988 113.98 c h
326.988 113.98 m f
q 1 0 0 1 0 0 cm
23.656 106.41 m 26.648 106.41 l S Q
q 1 0 0 1 0 0 cm
326.18 106.41 m 323.133 106.41 l S Q
18.879 108.277 m 18.879 108.48 18.844 108.641 18.773 108.75 c 18.699 108.855
 18.594 108.91 18.449 108.91 c 18.309 108.91 18.203 108.855 18.133 108.75
 c 18.059 108.641 18.023 108.484 18.023 108.277 c 18.023 108.066 18.059 
107.906 18.129 107.801 c 18.195 107.695 18.305 107.641 18.453 107.641 c 
18.602 107.641 18.707 107.695 18.777 107.801 c 18.844 107.91 18.879 108.07
 18.879 108.277 c h
18.723 108.277 m 18.723 108.098 18.703 107.969 18.66 107.891 c 18.621 107.809
 18.551 107.77 18.453 107.77 c 18.355 107.77 18.289 107.809 18.246 107.891
 c 18.207 107.965 18.184 108.094 18.184 108.277 c 18.184 108.449 18.207 
108.578 18.246 108.66 c 18.289 108.742 18.359 108.781 18.453 108.781 c 18.547
 108.781 18.613 108.742 18.656 108.656 c 18.699 108.574 18.723 108.449 18.723
 108.277 c h
18.723 108.277 m f
q 1 0 0 1 0 0 cm
23.656 81.402 m 26.648 81.402 l S Q
q 1 0 0 1 0 0 cm
326.18 81.402 m 323.133 81.402 l S Q
13.234 83.27 m 13.234 83.473 13.199 83.633 13.129 83.742 c 13.055 83.848
 12.949 83.902 12.805 83.902 c 12.664 83.902 12.559 83.848 12.488 83.742
 c 12.414 83.633 12.379 83.477 12.379 83.27 c 12.379 83.059 12.414 82.898
 12.484 82.793 c 12.551 82.688 12.66 82.633 12.809 82.633 c 12.953 82.633
 13.062 82.688 13.133 82.793 c 13.199 82.902 13.234 83.062 13.234 83.27 
c h
13.078 83.27 m 13.078 83.09 13.059 82.961 13.016 82.879 c 12.973 82.801
 12.906 82.762 12.809 82.762 c 12.711 82.762 12.645 82.801 12.602 82.879
 c 12.562 82.957 12.539 83.086 12.539 83.27 c 12.539 83.441 12.562 83.57
 12.602 83.652 c 12.645 83.734 12.715 83.773 12.809 83.773 c 12.898 83.773
 12.969 83.73 13.012 83.648 c 13.055 83.566 13.078 83.441 13.078 83.27 c
 h
13.078 83.27 m f
16.242 83.695 0.168 0.191 re f
18.879 83.484 m 18.879 83.613 18.84 83.715 18.766 83.789 c 18.688 83.863
 18.578 83.902 18.441 83.902 c 18.328 83.902 18.234 83.879 18.16 83.828 
c 18.094 83.777 18.047 83.707 18.027 83.609 c 18.191 83.594 l 18.223 83.715
 18.309 83.773 18.445 83.773 c 18.531 83.773 18.598 83.75 18.645 83.699 
c 18.695 83.648 18.719 83.578 18.719 83.488 c 18.719 83.41 18.695 83.348
 18.645 83.297 c 18.598 83.25 18.531 83.227 18.449 83.227 c 18.406 83.227
 18.367 83.234 18.332 83.25 c 18.293 83.262 18.258 83.281 18.219 83.316 
c 18.066 83.316 l 18.105 82.648 l 18.809 82.648 l 18.809 82.785 l 18.254
 82.785 l 18.227 83.18 l 18.297 83.125 18.383 83.098 18.484 83.098 c 18.605
 83.098 18.699 83.133 18.773 83.203 c 18.844 83.277 18.879 83.367 18.879
 83.484 c h
18.879 83.484 m f
q 1 0 0 1 0 0 cm
23.656 56.449 m 26.648 56.449 l S Q
q 1 0 0 1 0 0 cm
326.18 56.449 m 323.133 56.449 l S Q
18.09 58.934 m 18.09 58.801 l 18.406 58.801 l 18.406 57.852 l 18.129 58.047
 l 18.129 57.898 l 18.418 57.695 l 18.562 57.695 l 18.562 58.801 l 18.863
 58.801 l 18.863 58.934 l h
18.09 58.934 m f
q 1 0 0 1 0 0 cm
23.656 31.441 m 26.648 31.441 l S Q
q 1 0 0 1 0 0 cm
326.18 31.441 m 323.133 31.441 l S Q
12.445 33.926 m 12.445 33.793 l 12.758 33.793 l 12.758 32.844 l 12.484 
33.039 l 12.484 32.891 l 12.773 32.688 l 12.918 32.688 l 12.918 33.793 l
 13.219 33.793 l 13.219 33.926 l h
12.445 33.926 m f
16.242 33.734 0.168 0.191 re f
18.879 33.523 m 18.879 33.656 18.84 33.754 18.766 33.832 c 18.688 33.906
 18.578 33.941 18.441 33.941 c 18.328 33.941 18.234 33.918 18.16 33.867 
c 18.094 33.816 18.047 33.746 18.027 33.648 c 18.191 33.633 l 18.223 33.754
 18.309 33.812 18.445 33.812 c 18.531 33.812 18.598 33.789 18.645 33.738
 c 18.695 33.688 18.719 33.617 18.719 33.527 c 18.719 33.449 18.695 33.387
 18.645 33.34 c 18.598 33.293 18.531 33.27 18.449 33.27 c 18.406 33.27 18.367
 33.273 18.332 33.289 c 18.293 33.301 18.258 33.32 18.219 33.355 c 18.066
 33.355 l 18.105 32.688 l 18.809 32.688 l 18.809 32.824 l 18.254 32.824 
l 18.227 33.219 l 18.297 33.164 18.383 33.137 18.484 33.137 c 18.605 33.137
 18.699 33.172 18.773 33.242 c 18.844 33.316 18.879 33.41 18.879 33.523 
c h
18.879 33.523 m f
q 1 0 0 1 0 0 cm
23.656 6.492 m 26.648 6.492 l S Q
q 1 0 0 1 0 0 cm
326.18 6.492 m 323.133 6.492 l S Q
18.043 8.973 m 18.043 8.863 l 18.074 8.793 18.109 8.734 18.152 8.68 c 18.195
 8.629 18.242 8.582 18.289 8.539 c 18.336 8.5 18.383 8.461 18.43 8.426 c
 18.477 8.387 18.516 8.348 18.555 8.312 c 18.59 8.277 18.621 8.242 18.645
 8.203 c 18.668 8.16 18.68 8.113 18.68 8.066 c 18.68 7.996 18.66 7.945 18.621
 7.906 c 18.582 7.871 18.527 7.852 18.453 7.852 c 18.387 7.852 18.332 7.871
 18.289 7.906 c 18.246 7.945 18.219 7.996 18.215 8.062 c 18.055 8.043 l 
18.062 7.945 18.105 7.867 18.176 7.809 c 18.25 7.75 18.34 7.723 18.453 7.723
 c 18.578 7.723 18.672 7.754 18.738 7.812 c 18.809 7.871 18.844 7.953 18.844
 8.062 c 18.844 8.109 18.832 8.156 18.809 8.203 c 18.785 8.25 18.754 8.297
 18.711 8.348 c 18.668 8.395 18.586 8.465 18.461 8.566 c 18.395 8.621 18.344
 8.672 18.301 8.715 c 18.262 8.758 18.234 8.801 18.219 8.844 c 18.863 8.844
 l 18.863 8.973 l h
18.043 8.973 m f
q 1 0 0 1 0 0 cm
23.656 106.41 m 326.18 106.41 l S Q
q 1 0 0 1 0 0 cm
23.656 6.492 m 326.18 6.492 l S Q
q 1 0 0 1 0 0 cm
23.656 106.41 m 23.656 6.492 l S Q
q 1 0 0 1 0 0 cm
326.18 106.41 m 326.18 6.492 l S Q
Q q
220.672 54.445 105.562 4 re W n
q
220 54 107 5 re W n
[ 1 0 0 1 0 0 ] concat
  q
0 0 1 rg
1.01613 w
0 J
1 j
[] 0.0 d
10 M q 1 0 0 -1 0 0 cm
221.293 -57.352 m 222.363 -57.297 l 223.438 -57.184 l 224.512 -57.129 l
 225.582 -57.016 l 226.656 -56.957 l 227.727 -56.844 l 228.801 -56.73 l 
229.871 -56.676 l 232.02 -56.449 l 233.09 -56.395 l 234.164 -56.281 l 235.18
 -56.223 l 236.25 -56.168 l 237.324 -56.055 l 238.398 -56 l 239.469 -55.941
 l 240.543 -55.941 l 241.613 -55.887 l 242.688 -55.828 l 250.141 -55.828
 l 251.211 -55.887 l 252.285 -55.887 l 253.355 -55.941 l 254.43 -56 l 255.5
 -56 l 257.648 -56.109 l 258.719 -56.168 l 259.793 -56.223 l 260.863 -56.281
 l 261.938 -56.336 l 263.012 -56.395 l 264.082 -56.395 l 265.098 -56.449
 l 266.172 -56.508 l 267.242 -56.562 l 268.316 -56.562 l 269.391 -56.621
 l 270.461 -56.621 l 271.535 -56.676 l 272.605 -56.676 l 273.68 -56.73 l
 283.277 -56.73 l 284.348 -56.676 l 286.492 -56.676 l 287.566 -56.621 l 
288.641 -56.621 l 289.711 -56.562 l 290.785 -56.562 l 291.855 -56.508 l 
292.93 -56.508 l 294 -56.449 l 295.02 -56.449 l 296.09 -56.395 l 298.234
 -56.395 l 299.309 -56.336 l 301.453 -56.336 l 302.527 -56.281 l 306.816
 -56.281 l 307.891 -56.223 l 311.051 -56.223 l 312.125 -56.281 l 318.559
 -56.281 l 319.633 -56.336 l 322.848 -56.336 l 323.922 -56.395 l 326.234
 -56.395 l S Q
  Q
Q
Q q
0 0 1 rg
1.01613 w
0 J
1 j
[] 0.0 d
10 M q 1 0 0 1 0 0 cm
115.5 49.562 m 116.574 49.281 l 117.648 49.055 l 118.719 48.887 l 119.793
 48.887 l 120.863 48.941 l 121.938 49.055 l 123.012 49.281 l 124.082 49.562
 l 125.156 49.902 l 126.227 50.352 l 127.301 50.805 l 128.371 51.312 l 129.391
 51.879 l 130.461 52.441 l 131.535 53.008 l 132.605 53.629 l 133.68 54.25
 l 134.75 54.871 l 135.824 55.492 l 136.898 56.055 l 137.969 56.676 l 139.043
 57.184 l 140.113 57.691 l 141.188 58.199 l 142.262 58.652 l 143.332 59.047
 l 144.348 59.387 l 145.422 59.668 l 146.492 59.949 l 147.566 60.121 l 148.641
 60.289 l 149.711 60.402 l 150.785 60.457 l 151.855 60.457 l 152.93 60.402
 l 154 60.289 l 155.074 60.176 l 156.148 60.008 l 157.219 59.836 l 158.293
 59.609 l 159.309 59.328 l 160.383 59.047 l 161.453 58.766 l 162.527 58.426
 l 163.598 58.145 l 164.672 57.805 l 165.742 57.465 l 166.816 57.129 l 167.891
 56.789 l 168.961 56.508 l 170.035 56.168 l 171.105 55.887 l 172.18 55.66
 l 173.25 55.379 l 174.324 55.152 l 175.34 54.98 l 176.414 54.758 l 177.484
 54.645 l 179.633 54.418 l 180.703 54.359 l 181.777 54.305 l 182.848 54.25
 l 183.922 54.305 l 184.992 54.305 l 186.066 54.359 l 187.141 54.418 l 188.211
 54.531 l 189.285 54.645 l 190.301 54.758 l 191.371 54.926 l 192.445 55.094
 l 193.52 55.266 l 194.59 55.379 l 195.664 55.602 l 196.734 55.773 l 198.883
 56.109 l 199.953 56.281 l 201.027 56.449 l 202.098 56.621 l 203.172 56.73
 l 204.242 56.902 l 205.262 57.016 l 206.332 57.129 l 207.406 57.242 l 208.477
 57.352 l 209.551 57.41 l 210.621 57.465 l 211.695 57.523 l 212.77 57.523
 l 213.84 57.578 l 215.984 57.578 l 217.059 57.523 l 218.133 57.523 l 219.203
 57.465 l 220.219 57.41 l 221.293 57.352 l S Q
Q q
23.656 28.445 93.016 78.02 re W n
q
23 28 94 79 re W n
[ 1 0 0 1 0 0 ] concat
  q
0 0 1 rg
1.01613 w
0 J
1 j
[] 0.0 d
10 M q 1 0 0 -1 0 0 cm
23.656 -106.41 m 24.672 -106.297 l 25.742 -105.844 l 26.816 -104.941 l 
27.891 -103.586 l 28.961 -101.723 l 30.035 -99.41 l 31.105 -96.699 l 32.18
 -93.652 l 33.25 -90.32 l 34.324 -86.707 l 35.398 -82.926 l 36.469 -79.031
 l 37.543 -74.965 l 38.613 -70.902 l 39.633 -66.836 l 40.703 -62.828 l 41.777
 -58.879 l 42.848 -55.094 l 43.922 -51.48 l 44.992 -48.039 l 46.066 -44.879
 l 47.141 -42 l 48.211 -39.344 l 49.285 -37.031 l 50.355 -35 l 51.43 -33.359
 l 52.5 -32.008 l 53.574 -30.992 l 54.59 -30.312 l 55.664 -29.973 l 56.734
 -29.918 l 57.809 -30.199 l 58.883 -30.766 l 59.953 -31.609 l 61.027 -32.684
 l 62.098 -33.98 l 63.172 -35.508 l 64.242 -37.145 l 65.316 -39.008 l 66.391
 -40.926 l 67.461 -43.016 l 68.535 -45.102 l 69.551 -47.305 l 70.621 -49.449
 l 71.695 -51.652 l 72.77 -53.742 l 73.84 -55.828 l 74.914 -57.805 l 75.984
 -59.723 l 77.059 -61.473 l 78.133 -63.109 l 79.203 -64.637 l 80.277 -65.992
 l 81.348 -67.176 l 82.422 -68.191 l 83.492 -68.98 l 84.512 -69.66 l 85.582
 -70.109 l 86.656 -70.449 l 87.727 -70.562 l 88.801 -70.508 l 89.871 -70.336
 l 90.945 -70 l 92.02 -69.492 l 93.09 -68.871 l 94.164 -68.137 l 95.234 
-67.289 l 96.309 -66.387 l 97.383 -65.371 l 98.453 -64.297 l 99.469 -63.168
 l 100.543 -62.039 l 101.613 -60.91 l 102.688 -59.723 l 103.762 -58.594 
l 104.832 -57.465 l 105.906 -56.336 l 106.977 -55.32 l 108.051 -54.305 l
 109.121 -53.402 l 110.195 -52.555 l 111.27 -51.766 l 112.34 -51.086 l 113.414
 -50.465 l 114.43 -49.957 l 115.5 -49.562 l S Q
  Q
Q
Q q
0 g
160.469 122.66 m 160.422 122.672 160.367 122.68 160.312 122.68 c 160.184
 122.68 160.121 122.609 160.121 122.465 c 160.121 121.832 l 160.016 121.832
 l 160.016 121.719 l 160.129 121.719 l 160.176 121.504 l 160.281 121.504
 l 160.281 121.719 l 160.457 121.719 l 160.457 121.832 l 160.281 121.832
 l 160.281 122.434 l 160.281 122.48 160.285 122.512 160.301 122.531 c 160.316
 122.547 160.344 122.555 160.379 122.555 c 160.398 122.555 160.43 122.551
 160.469 122.543 c h
160.469 122.66 m f
161.988 121.52 m 161.988 121.371 l 162.145 121.371 l 162.145 121.52 l h
161.988 122.668 m 161.988 121.719 l 162.145 121.719 l 162.145 122.668 l
 h
161.988 122.668 m f
164.047 122.668 m 164.047 122.066 l 164.047 121.977 164.035 121.91 164.008
 121.879 c 163.984 121.844 163.938 121.824 163.875 121.824 c 163.805 121.824
 163.75 121.852 163.711 121.902 c 163.672 121.953 163.652 122.023 163.652
 122.117 c 163.652 122.668 l 163.496 122.668 l 163.496 121.922 l 163.496
 121.812 163.496 121.746 163.492 121.719 c 163.641 121.719 l 163.641 121.723
 163.641 121.73 163.641 121.746 c 163.641 121.758 163.641 121.77 163.641
 121.785 c 163.645 121.805 163.648 121.836 163.648 121.883 c 163.684 121.816
 163.723 121.77 163.766 121.742 c 163.809 121.715 163.863 121.699 163.926
 121.699 c 164 121.699 164.055 121.715 164.098 121.746 c 164.141 121.773
 164.168 121.82 164.184 121.883 c 164.188 121.883 l 164.219 121.82 164.258
 121.773 164.309 121.746 c 164.355 121.715 164.41 121.699 164.477 121.699
 c 164.57 121.699 164.641 121.727 164.684 121.777 c 164.727 121.832 164.75
 121.918 164.75 122.035 c 164.75 122.668 l 164.594 122.668 l 164.594 122.066
 l 164.594 121.977 164.582 121.91 164.555 121.879 c 164.531 121.844 164.484
 121.824 164.418 121.824 c 164.352 121.824 164.297 121.852 164.258 121.902
 c 164.219 121.953 164.199 122.023 164.199 122.117 c 164.199 122.668 l h
164.047 122.668 m f
169.254 122.227 m 169.254 122.336 169.277 122.422 169.32 122.48 c 169.367
 122.539 169.434 122.566 169.52 122.566 c 169.59 122.566 169.645 122.555
 169.688 122.527 c 169.727 122.5 169.754 122.465 169.77 122.418 c 169.91
 122.461 l 169.852 122.609 169.723 122.684 169.52 122.684 c 169.383 122.684
 169.277 122.641 169.203 122.559 c 169.129 122.477 169.09 122.352 169.09
 122.188 c 169.09 122.031 169.129 121.91 169.203 121.828 c 169.277 121.742
 169.379 121.699 169.516 121.699 c 169.793 121.699 169.934 121.867 169.934
 122.203 c 169.934 122.227 l h
169.773 122.105 m 169.762 122.008 169.734 121.934 169.695 121.891 c 169.652
 121.844 169.59 121.82 169.512 121.82 c 169.438 121.82 169.375 121.848 169.328
 121.898 c 169.285 121.949 169.262 122.016 169.262 122.105 c h
169.773 122.105 m f
174.777 122.199 m 174.777 122.031 174.805 121.883 174.855 121.75 c 174.906
 121.613 174.988 121.488 175.102 121.371 c 175.254 121.371 l 175.141 121.492
 175.059 121.621 175.008 121.758 c 174.961 121.895 174.934 122.043 174.934
 122.203 c 174.934 122.363 174.961 122.512 175.008 122.652 c 175.059 122.785
 175.141 122.914 175.254 123.039 c 175.102 123.039 l 174.988 122.922 174.906
 122.793 174.855 122.66 c 174.805 122.523 174.777 122.371 174.777 122.203
 c h
174.777 122.199 m f
177.754 122.406 m 177.754 122.496 177.719 122.562 177.648 122.613 c 177.582
 122.66 177.488 122.684 177.367 122.684 c 177.25 122.684 177.156 122.664
 177.094 122.625 c 177.031 122.586 176.988 122.527 176.973 122.445 c 177.113
 122.418 l 177.125 122.469 177.152 122.508 177.195 122.531 c 177.234 122.555
 177.293 122.562 177.367 122.562 c 177.449 122.562 177.504 122.551 177.543
 122.527 c 177.578 122.504 177.598 122.469 177.598 122.418 c 177.598 122.383
 177.586 122.352 177.562 122.328 c 177.539 122.305 177.496 122.285 177.438
 122.27 c 177.324 122.238 l 177.234 122.215 177.172 122.195 177.133 122.172
 c 177.094 122.148 177.062 122.121 177.043 122.09 c 177.02 122.055 177.008
 122.016 177.008 121.969 c 177.008 121.883 177.039 121.82 177.098 121.773
 c 177.164 121.727 177.254 121.703 177.371 121.703 c 177.477 121.703 177.559
 121.723 177.621 121.762 c 177.68 121.797 177.719 121.855 177.734 121.938
 c 177.594 121.957 l 177.586 121.914 177.562 121.879 177.523 121.855 c 177.484
 121.836 177.434 121.824 177.371 121.824 c 177.301 121.824 177.246 121.836
 177.211 121.855 c 177.176 121.879 177.16 121.914 177.16 121.957 c 177.16
 121.98 177.168 122.004 177.184 122.023 c 177.195 122.039 177.215 122.055
 177.242 122.066 c 177.27 122.078 177.328 122.098 177.418 122.117 c 177.504
 122.137 177.562 122.156 177.598 122.176 c 177.633 122.191 177.664 122.211
 177.688 122.234 c 177.707 122.258 177.723 122.281 177.734 122.309 c 177.746
 122.336 177.754 122.367 177.754 122.406 c h
177.754 122.406 m f
180.547 122.227 m 180.547 122.336 180.57 122.422 180.613 122.48 c 180.66
 122.539 180.727 122.566 180.812 122.566 c 180.883 122.566 180.938 122.555
 180.977 122.527 c 181.02 122.5 181.047 122.465 181.062 122.418 c 181.203
 122.461 l 181.145 122.609 181.012 122.684 180.812 122.684 c 180.676 122.684
 180.57 122.641 180.496 122.559 c 180.422 122.477 180.383 122.352 180.383
 122.188 c 180.383 122.031 180.422 121.91 180.496 121.828 c 180.57 121.742
 180.672 121.699 180.809 121.699 c 181.086 121.699 181.227 121.867 181.227
 122.203 c 181.227 122.227 l h
181.066 122.105 m 181.055 122.008 181.027 121.934 180.988 121.891 c 180.945
 121.844 180.883 121.82 180.805 121.82 c 180.73 121.82 180.668 121.848 180.621
 121.898 c 180.578 121.949 180.555 122.016 180.551 122.105 c h
181.066 122.105 m f
184.316 122.188 m 184.316 122.316 184.332 122.41 184.371 122.469 c 184.414
 122.531 184.473 122.559 184.555 122.559 c 184.609 122.559 184.656 122.547
 184.695 122.516 c 184.734 122.484 184.758 122.438 184.766 122.375 c 184.926
 122.387 l 184.91 122.477 184.871 122.551 184.805 122.605 c 184.742 122.656
 184.66 122.684 184.559 122.684 c 184.426 122.684 184.324 122.641 184.254
 122.559 c 184.184 122.477 184.148 122.352 184.148 122.191 c 184.148 122.031
 184.184 121.91 184.254 121.828 c 184.324 121.742 184.426 121.699 184.559
 121.699 c 184.656 121.699 184.734 121.727 184.797 121.777 c 184.863 121.828
 184.902 121.898 184.918 121.984 c 184.758 121.996 l 184.75 121.945 184.727
 121.906 184.695 121.875 c 184.66 121.84 184.613 121.824 184.555 121.824
 c 184.469 121.824 184.406 121.852 184.367 121.91 c 184.332 121.965 184.316
 122.059 184.316 122.188 c h
184.316 122.188 m f
187.949 122.203 m 187.949 122.371 187.922 122.523 187.867 122.66 c 187.812
 122.793 187.734 122.922 187.625 123.039 c 187.473 123.039 l 187.582 122.914
 187.66 122.785 187.711 122.652 c 187.762 122.516 187.789 122.367 187.789
 122.203 c 187.789 122.043 187.762 121.895 187.711 121.758 c 187.66 121.621
 187.582 121.492 187.473 121.371 c 187.625 121.371 l 187.734 121.488 187.812
 121.613 187.867 121.75 c 187.922 121.883 187.949 122.031 187.949 122.199
 c h
187.949 122.203 m f
7.055 65.355 m 7.188 65.355 7.301 65.383 7.398 65.43 c 7.496 65.48 7.57
 65.555 7.621 65.645 c 7.672 65.738 7.695 65.848 7.695 65.973 c 7.695 66.102
 7.672 66.207 7.621 66.301 c 7.57 66.391 7.496 66.461 7.398 66.512 c 7.301
 66.559 7.188 66.582 7.055 66.582 c 6.859 66.582 6.707 66.527 6.598 66.418
 c 6.484 66.312 6.426 66.16 6.426 65.969 c 6.426 65.844 6.453 65.738 6.5
 65.645 c 6.551 65.555 6.625 65.48 6.723 65.43 c 6.816 65.383 6.926 65.355
 7.055 65.355 c h
7.055 65.531 m 6.906 65.531 6.785 65.57 6.695 65.645 c 6.609 65.719 6.562
 65.828 6.562 65.969 c 6.562 66.109 6.609 66.219 6.695 66.297 c 6.781 66.371
 6.902 66.41 7.055 66.41 c 7.211 66.41 7.332 66.371 7.422 66.297 c 7.516
 66.219 7.559 66.109 7.559 65.973 c 7.559 65.832 7.52 65.719 7.434 65.645
 c 7.344 65.57 7.219 65.531 7.055 65.531 c h
7.055 65.531 m f
6.734 61.121 m 7.332 61.121 l 7.398 61.121 7.445 61.113 7.48 61.102 c 7.516
 61.094 7.539 61.074 7.555 61.047 c 7.57 61.02 7.578 60.977 7.578 60.926
 c 7.578 60.852 7.551 60.793 7.496 60.746 c 7.445 60.703 7.375 60.684 7.281
 60.684 c 6.734 60.684 l 6.734 60.523 l 7.477 60.523 l 7.586 60.523 7.656
 60.523 7.68 60.516 c 7.68 60.664 l 7.68 60.668 7.672 60.668 7.66 60.668
 c 7.645 60.668 7.629 60.672 7.613 60.672 c 7.598 60.672 7.566 60.672 7.52
 60.672 c 7.52 60.676 l 7.586 60.715 7.633 60.754 7.66 60.801 c 7.684 60.848
 7.695 60.906 7.695 60.98 c 7.695 61.086 7.672 61.16 7.621 61.211 c 7.57
 61.258 7.484 61.281 7.363 61.281 c 6.734 61.281 l h
6.734 61.121 m f
7.672 57.148 m 7.684 57.195 7.691 57.25 7.691 57.305 c 7.691 57.43 7.621
 57.492 7.477 57.492 c 6.844 57.492 l 6.844 57.602 l 6.734 57.602 l 6.734
 57.484 l 6.52 57.441 l 6.52 57.336 l 6.734 57.336 l 6.734 57.16 l 6.844
 57.16 l 6.844 57.336 l 7.445 57.336 l 7.492 57.336 7.523 57.332 7.543 57.316
 c 7.559 57.301 7.566 57.273 7.566 57.238 c 7.566 57.215 7.562 57.188 7.555
 57.148 c h
7.672 57.148 m f
7.199 54.824 m 7.531 54.824 7.695 54.941 7.695 55.172 c 7.695 55.32 7.641
 55.418 7.531 55.465 c 7.531 55.469 l 7.539 55.469 7.586 55.469 7.68 55.469
 c 8.051 55.469 l 8.051 55.629 l 6.926 55.629 l 6.828 55.629 6.766 55.629
 6.734 55.633 c 6.734 55.48 l 6.734 55.48 6.746 55.48 6.758 55.48 c 6.773
 55.477 6.793 55.473 6.824 55.473 c 6.855 55.473 6.875 55.469 6.887 55.469
 c 6.887 55.465 l 6.828 55.438 6.781 55.402 6.758 55.359 c 6.73 55.312 6.715
 55.25 6.715 55.172 c 6.715 55.059 6.758 54.969 6.832 54.914 c 6.91 54.855
 7.031 54.824 7.199 54.824 c h
7.203 54.992 m 7.07 54.992 6.98 55.008 6.922 55.043 c 6.867 55.082 6.836
 55.137 6.836 55.215 c 6.836 55.277 6.852 55.328 6.879 55.363 c 6.902 55.395
 6.945 55.422 7 55.441 c 7.059 55.461 7.129 55.469 7.219 55.469 c 7.34 55.469
 7.434 55.453 7.492 55.414 c 7.551 55.371 7.582 55.305 7.582 55.215 c 7.582
 55.137 7.551 55.082 7.492 55.043 c 7.438 55.008 7.34 54.992 7.203 54.992
 c h
7.203 54.992 m f
6.734 51.703 m 7.332 51.703 l 7.398 51.703 7.445 51.699 7.48 51.688 c 7.516
 51.676 7.539 51.656 7.555 51.629 c 7.57 51.602 7.578 51.562 7.578 51.508
 c 7.578 51.434 7.551 51.375 7.496 51.332 c 7.445 51.289 7.375 51.266 7.281
 51.266 c 6.734 51.266 l 6.734 51.109 l 7.477 51.109 l 7.586 51.109 7.656
 51.105 7.68 51.102 c 7.68 51.25 l 7.68 51.254 7.672 51.254 7.66 51.254 
c 7.645 51.254 7.629 51.254 7.613 51.258 c 7.598 51.258 7.566 51.258 7.52
 51.258 c 7.52 51.262 l 7.586 51.297 7.633 51.34 7.66 51.387 c 7.684 51.434
 7.695 51.492 7.695 51.562 c 7.695 51.668 7.672 51.746 7.621 51.793 c 7.57
 51.844 7.484 51.863 7.363 51.863 c 6.734 51.863 l h
6.734 51.703 m f
7.672 47.73 m 7.684 47.781 7.691 47.832 7.691 47.887 c 7.691 48.016 7.621
 48.078 7.477 48.078 c 6.844 48.078 l 6.844 48.184 l 6.734 48.184 l 6.734
 48.07 l 6.52 48.023 l 6.52 47.922 l 6.734 47.922 l 6.734 47.742 l 6.844
 47.742 l 6.844 47.922 l 7.445 47.922 l 7.492 47.922 7.523 47.914 7.543 
47.898 c 7.559 47.883 7.566 47.859 7.566 47.82 c 7.566 47.801 7.562 47.77
 7.555 47.73 c h
7.672 47.73 m f
Q q
23.656 58.445 302.578 1 re W n
q
23 58 304 2 re W n
[ 1 0 0 1 0 0 ] concat
  q
0 g
0.33871 w
0 J
1 j
[] 0.0 d
10 M q 1 0 0 -1 0 0 cm
23.656 -58.934 m 326.234 -58.934 l S Q
  Q
Q
Q q
23.656 53.445 302.578 1 re W n
q
23 53 304 2 re W n
[ 1 0 0 1 0 0 ] concat
  q
0 g
0.33871 w
0 J
1 j
[] 0.0 d
10 M q 1 0 0 -1 0 0 cm
23.656 -53.91 m 326.234 -53.91 l S Q
  Q
Q
Q q
0 g
0.33871 w
0 J
1 j
[] 0.0 d
10 M q 1 0 0 1 0 0 cm
29.188 103.871 m 29.188 48.941 l S Q
q 1 0 0 1 0 0 cm
40.762 103.871 m 40.762 48.941 l S Q
52.395 75.418 m 52.07 74.906 l 51.688 74.906 l 51.688 75.418 l 51.523 75.418
 l 51.523 74.18 l 52.102 74.18 l 52.242 74.18 52.348 74.215 52.422 74.277
 c 52.496 74.34 52.535 74.426 52.535 74.535 c 52.535 74.629 52.508 74.707
 52.457 74.77 c 52.402 74.828 52.328 74.867 52.238 74.883 c 52.586 75.418
 l h
52.371 74.535 m 52.371 74.465 52.344 74.41 52.293 74.375 c 52.246 74.336
 52.176 74.316 52.082 74.316 c 51.688 74.316 l 51.688 74.773 l 52.094 74.773
 l 52.18 74.773 52.246 74.75 52.293 74.711 c 52.344 74.668 52.371 74.609
 52.371 74.535 c h
52.371 74.535 m f
56.383 74.27 m 56.383 74.121 l 56.539 74.121 l 56.539 74.27 l h
56.383 75.418 m 56.383 74.469 l 56.539 74.469 l 56.539 75.418 l h
56.383 75.418 m f
58.598 75.156 m 58.598 75.246 58.562 75.312 58.496 75.363 c 58.43 75.41
 58.336 75.434 58.215 75.434 c 58.094 75.434 58.004 75.414 57.941 75.375
 c 57.879 75.336 57.836 75.277 57.816 75.195 c 57.957 75.168 l 57.973 75.219
 58 75.258 58.039 75.281 c 58.082 75.305 58.141 75.312 58.215 75.312 c 58.293
 75.312 58.352 75.301 58.387 75.277 c 58.426 75.254 58.445 75.219 58.445
 75.168 c 58.445 75.133 58.434 75.102 58.41 75.078 c 58.383 75.055 58.344
 75.035 58.285 75.02 c 58.168 74.988 l 58.078 74.965 58.016 74.945 57.98
 74.922 c 57.938 74.898 57.91 74.871 57.887 74.84 c 57.863 74.805 57.855
 74.766 57.855 74.719 c 57.855 74.633 57.883 74.57 57.945 74.523 c 58.008
 74.477 58.098 74.453 58.219 74.453 c 58.324 74.453 58.406 74.473 58.465
 74.512 c 58.527 74.547 58.566 74.605 58.582 74.688 c 58.441 74.707 l 58.434
 74.664 58.41 74.629 58.371 74.605 c 58.332 74.586 58.281 74.574 58.219 
74.574 c 58.145 74.574 58.094 74.586 58.059 74.605 c 58.023 74.629 58.008
 74.664 58.008 74.707 c 58.008 74.73 58.016 74.754 58.027 74.773 c 58.043
 74.789 58.062 74.805 58.09 74.816 c 58.117 74.828 58.176 74.848 58.266 
74.867 c 58.348 74.887 58.41 74.906 58.445 74.926 c 58.48 74.941 58.512 
74.961 58.531 74.984 c 58.555 75.008 58.57 75.031 58.582 75.059 c 58.594
 75.086 58.598 75.117 58.598 75.156 c h
58.598 75.156 m f
61.395 74.977 m 61.395 75.086 61.418 75.172 61.461 75.23 c 61.508 75.289
 61.574 75.316 61.66 75.316 c 61.727 75.316 61.781 75.305 61.824 75.277 
c 61.867 75.25 61.895 75.215 61.906 75.168 c 62.047 75.211 l 61.988 75.359
 61.859 75.434 61.66 75.434 c 61.52 75.434 61.414 75.391 61.34 75.309 c 
61.266 75.227 61.23 75.102 61.23 74.938 c 61.23 74.781 61.266 74.66 61.34
 74.578 c 61.414 74.492 61.52 74.449 61.656 74.449 c 61.934 74.449 62.074
 74.617 62.074 74.953 c 62.074 74.977 l h
61.91 74.855 m 61.898 74.758 61.875 74.684 61.832 74.641 c 61.793 74.594
 61.73 74.57 61.652 74.57 c 61.578 74.57 61.516 74.598 61.469 74.648 c 61.426
 74.699 61.402 74.766 61.398 74.855 c h
61.91 74.855 m f
67.289 75.41 m 67.238 75.422 67.188 75.43 67.133 75.43 c 67.004 75.43 66.941
 75.359 66.941 75.215 c 66.941 74.582 l 66.832 74.582 l 66.832 74.469 l 
66.949 74.469 l 66.996 74.254 l 67.098 74.254 l 67.098 74.469 l 67.277 74.469
 l 67.277 74.582 l 67.098 74.582 l 67.098 75.184 l 67.098 75.23 67.105 75.262
 67.117 75.281 c 67.137 75.297 67.16 75.305 67.195 75.305 c 67.219 75.305
 67.25 75.301 67.289 75.293 c h
67.289 75.41 m f
68.809 74.27 m 68.809 74.121 l 68.965 74.121 l 68.965 74.27 l h
68.809 75.418 m 68.809 74.469 l 68.965 74.469 l 68.965 75.418 l h
68.809 75.418 m f
70.867 75.418 m 70.867 74.816 l 70.867 74.727 70.852 74.66 70.828 74.629
 c 70.805 74.594 70.758 74.574 70.691 74.574 c 70.621 74.574 70.57 74.602
 70.531 74.652 c 70.492 74.703 70.473 74.773 70.473 74.867 c 70.473 75.418
 l 70.316 75.418 l 70.316 74.672 l 70.316 74.562 70.312 74.496 70.312 74.469
 c 70.461 74.469 l 70.461 74.473 70.461 74.48 70.461 74.496 c 70.461 74.508
 70.461 74.52 70.461 74.535 c 70.461 74.555 70.465 74.586 70.469 74.633 
c 70.5 74.566 70.539 74.52 70.586 74.492 c 70.629 74.465 70.68 74.449 70.746
 74.449 c 70.816 74.449 70.875 74.465 70.914 74.496 c 70.957 74.523 70.988
 74.57 71 74.633 c 71.008 74.633 l 71.039 74.57 71.078 74.523 71.125 74.496
 c 71.172 74.465 71.23 74.449 71.297 74.449 c 71.387 74.449 71.457 74.477
 71.504 74.527 c 71.547 74.582 71.566 74.668 71.566 74.785 c 71.566 75.418
 l 71.41 75.418 l 71.41 74.816 l 71.41 74.727 71.398 74.66 71.375 74.629
 c 71.348 74.594 71.305 74.574 71.238 74.574 c 71.168 74.574 71.113 74.602
 71.078 74.652 c 71.035 74.703 71.02 74.773 71.02 74.867 c 71.02 75.418 
l h
70.867 75.418 m f
76.074 74.977 m 76.074 75.086 76.098 75.172 76.141 75.23 c 76.188 75.289
 76.254 75.316 76.34 75.316 c 76.406 75.316 76.461 75.305 76.504 75.277 
c 76.547 75.25 76.574 75.215 76.586 75.168 c 76.727 75.211 l 76.668 75.359
 76.539 75.434 76.34 75.434 c 76.199 75.434 76.094 75.391 76.02 75.309 c
 75.945 75.227 75.91 75.102 75.91 74.938 c 75.91 74.781 75.945 74.66 76.02
 74.578 c 76.094 74.492 76.199 74.449 76.336 74.449 c 76.613 74.449 76.754
 74.617 76.754 74.953 c 76.754 74.977 l h
76.59 74.855 m 76.578 74.758 76.555 74.684 76.512 74.641 c 76.473 74.594
 76.41 74.57 76.332 74.57 c 76.258 74.57 76.195 74.598 76.148 74.648 c 76.105
 74.699 76.082 74.766 76.078 74.855 c h
76.59 74.855 m f
q 1 0 0 1 0 0 cm
160.777 103.871 m 160.777 48.941 l S Q
165.902 91.73 m 165.902 91.844 165.855 91.934 165.766 91.996 c 165.676 
92.059 165.551 92.086 165.387 92.086 c 165.086 92.086 164.914 91.984 164.867
 91.773 c 165.027 91.742 l 165.047 91.816 165.086 91.871 165.148 91.906 
c 165.207 91.941 165.293 91.957 165.398 91.957 c 165.504 91.957 165.586 
91.941 165.645 91.906 c 165.703 91.867 165.734 91.812 165.734 91.738 c 165.734
 91.699 165.727 91.664 165.707 91.641 c 165.688 91.617 165.66 91.594 165.629
 91.578 c 165.594 91.562 165.555 91.547 165.508 91.535 c 165.465 91.527 
165.414 91.516 165.355 91.5 c 165.258 91.477 165.184 91.457 165.133 91.438
 c 165.082 91.418 165.043 91.391 165.012 91.363 c 164.984 91.336 164.961
 91.305 164.945 91.273 c 164.934 91.238 164.926 91.195 164.926 91.148 c 
164.926 91.039 164.965 90.961 165.047 90.906 c 165.125 90.848 165.242 90.816
 165.395 90.816 c 165.531 90.816 165.641 90.84 165.715 90.883 c 165.789 
90.926 165.84 91 165.871 91.102 c 165.707 91.133 l 165.688 91.066 165.652
 91.02 165.598 90.988 c 165.551 90.957 165.48 90.941 165.395 90.941 c 165.293
 90.941 165.219 90.957 165.164 90.992 c 165.113 91.023 165.086 91.074 165.086
 91.141 c 165.086 91.18 165.098 91.211 165.117 91.234 c 165.137 91.262 165.168
 91.281 165.203 91.297 c 165.242 91.312 165.316 91.336 165.43 91.359 c 165.469
 91.367 165.508 91.379 165.547 91.387 c 165.582 91.395 165.621 91.406 165.652
 91.422 c 165.688 91.434 165.719 91.445 165.75 91.461 c 165.777 91.48 165.805
 91.5 165.828 91.523 c 165.848 91.551 165.867 91.578 165.879 91.613 c 165.895
 91.645 165.902 91.684 165.902 91.73 c h
165.902 91.73 m f
169.543 91.629 m 169.543 91.738 169.566 91.824 169.609 91.883 c 169.656
 91.941 169.723 91.973 169.809 91.973 c 169.875 91.973 169.93 91.957 169.973
 91.93 c 170.016 91.902 170.043 91.867 170.055 91.824 c 170.195 91.863 l
 170.137 92.012 170.008 92.086 169.809 92.086 c 169.668 92.086 169.562 92.047
 169.488 91.961 c 169.414 91.879 169.379 91.758 169.379 91.59 c 169.379 
91.434 169.414 91.312 169.488 91.23 c 169.562 91.145 169.668 91.102 169.805
 91.102 c 170.082 91.102 170.223 91.27 170.223 91.605 c 170.223 91.629 l
 h
170.059 91.508 m 170.047 91.41 170.023 91.336 169.98 91.293 c 169.941 91.246
 169.879 91.223 169.801 91.223 c 169.727 91.223 169.664 91.25 169.617 91.301
 c 169.574 91.352 169.551 91.422 169.547 91.508 c h
170.059 91.508 m f
173.555 92.062 m 173.504 92.074 173.449 92.082 173.395 92.082 c 173.27 
92.082 173.207 92.012 173.207 91.867 c 173.207 91.234 l 173.098 91.234 l
 173.098 91.125 l 173.215 91.125 l 173.262 90.91 l 173.363 90.91 l 173.363
 91.125 l 173.539 91.125 l 173.539 91.234 l 173.363 91.234 l 173.363 91.836
 l 173.363 91.883 173.371 91.914 173.383 91.934 c 173.402 91.949 173.426
 91.957 173.461 91.957 c 173.484 91.957 173.516 91.953 173.555 91.945 c 
h
173.555 92.062 m f
175.438 92.062 m 175.387 92.074 175.336 92.082 175.281 92.082 c 175.152
 92.082 175.09 92.012 175.09 91.867 c 175.09 91.234 l 174.98 91.234 l 174.98
 91.125 l 175.098 91.125 l 175.145 90.91 l 175.246 90.91 l 175.246 91.125
 l 175.426 91.125 l 175.426 91.234 l 175.246 91.234 l 175.246 91.836 l 175.246
 91.883 175.254 91.914 175.266 91.934 c 175.285 91.949 175.309 91.957 175.344
 91.957 c 175.367 91.957 175.398 91.953 175.438 91.945 c h
175.438 92.062 m f
176.957 90.773 0.156 1.297 re f
178.461 90.922 m 178.461 90.773 l 178.617 90.773 l 178.617 90.922 l h
178.461 92.07 m 178.461 91.125 l 178.617 91.125 l 178.617 92.07 l h
178.461 92.07 m f
180.566 92.07 m 180.566 91.473 l 180.566 91.406 180.559 91.359 180.547 
91.328 c 180.535 91.293 180.516 91.266 180.488 91.25 c 180.461 91.234 180.422
 91.227 180.375 91.227 c 180.297 91.227 180.234 91.254 180.191 91.305 c 
180.148 91.359 180.125 91.43 180.125 91.52 c 180.125 92.07 l 179.969 92.07
 l 179.969 91.328 l 179.969 91.215 179.965 91.148 179.965 91.125 c 180.113
 91.125 l 180.113 91.125 180.113 91.137 180.113 91.148 c 180.113 91.16 180.113
 91.172 180.113 91.191 c 180.113 91.207 180.117 91.238 180.121 91.285 c 
180.156 91.219 180.199 91.172 180.246 91.145 c 180.293 91.117 180.352 91.102
 180.422 91.102 c 180.527 91.102 180.602 91.129 180.648 91.18 c 180.699 
91.234 180.723 91.32 180.723 91.438 c 180.723 92.07 l h
180.566 92.07 m f
184.09 92.441 m 183.988 92.441 183.906 92.422 183.844 92.379 c 183.781 
92.34 183.742 92.285 183.727 92.207 c 183.883 92.188 l 183.895 92.23 183.918
 92.262 183.953 92.285 c 183.988 92.309 184.035 92.324 184.094 92.324 c 
184.25 92.324 184.328 92.23 184.328 92.047 c 184.328 91.891 l 184.297 91.953
 184.258 92 184.207 92.031 c 184.152 92.062 184.094 92.078 184.023 92.078
 c 183.906 92.078 183.82 92.039 183.766 91.961 c 183.711 91.887 183.684 
91.766 183.684 91.598 c 183.684 91.43 183.715 91.309 183.773 91.227 c 183.832
 91.148 183.922 91.105 184.039 91.105 c 184.109 91.105 184.168 91.121 184.215
 91.152 c 184.262 91.184 184.301 91.227 184.328 91.285 c 184.332 91.285 
l 184.332 91.27 184.332 91.238 184.332 91.195 c 184.336 91.152 184.34 91.125
 184.344 91.125 c 184.492 91.125 l 184.488 91.156 184.488 91.219 184.488
 91.316 c 184.488 92.043 l 184.488 92.309 184.355 92.441 184.09 92.441 c
 h
184.328 91.594 m 184.328 91.52 184.316 91.453 184.297 91.395 c 184.277 
91.34 184.246 91.301 184.211 91.273 c 184.172 91.242 184.129 91.227 184.082
 91.227 c 184 91.227 183.938 91.258 183.902 91.312 c 183.867 91.371 183.852
 91.465 183.852 91.594 c 183.852 91.727 183.867 91.816 183.898 91.875 c 
183.934 91.934 183.996 91.961 184.078 91.961 c 184.129 91.961 184.172 91.949
 184.211 91.918 c 184.246 91.887 184.277 91.848 184.297 91.793 c 184.316
 91.738 184.328 91.672 184.328 91.594 c h
184.328 91.594 m f
189.742 92.062 m 189.695 92.074 189.641 92.082 189.586 92.082 c 189.461
 92.082 189.395 92.012 189.395 91.867 c 189.395 91.234 l 189.289 91.234 
l 189.289 91.125 l 189.406 91.125 l 189.449 90.91 l 189.555 90.91 l 189.555
 91.125 l 189.73 91.125 l 189.73 91.234 l 189.555 91.234 l 189.555 91.836
 l 189.555 91.883 189.559 91.914 189.574 91.934 c 189.59 91.949 189.617 
91.957 189.652 91.957 c 189.676 91.957 189.703 91.953 189.742 91.945 c h
189.742 92.062 m f
191.262 90.922 m 191.262 90.773 l 191.422 90.773 l 191.422 90.922 l h
191.262 92.07 m 191.262 91.125 l 191.422 91.125 l 191.422 92.07 l h
191.262 92.07 m f
193.32 92.07 m 193.32 91.473 l 193.32 91.379 193.309 91.312 193.285 91.281
 c 193.258 91.246 193.215 91.227 193.148 91.227 c 193.078 91.227 193.023
 91.254 192.984 91.305 c 192.945 91.355 192.93 91.426 192.93 91.52 c 192.93
 92.07 l 192.77 92.07 l 192.77 91.328 l 192.77 91.215 192.77 91.148 192.766
 91.125 c 192.914 91.125 l 192.914 91.125 192.914 91.137 192.914 91.148 
c 192.914 91.16 192.914 91.172 192.914 91.191 c 192.918 91.207 192.922 91.238
 192.926 91.285 c 192.957 91.219 192.996 91.172 193.039 91.145 c 193.082
 91.117 193.137 91.102 193.199 91.102 c 193.273 91.102 193.328 91.117 193.371
 91.148 c 193.414 91.176 193.441 91.223 193.457 91.285 c 193.461 91.285 
l 193.496 91.223 193.535 91.176 193.582 91.148 c 193.629 91.117 193.684 
91.102 193.75 91.102 c 193.844 91.102 193.914 91.129 193.957 91.18 c 194
 91.234 194.023 91.32 194.023 91.438 c 194.023 92.07 l 193.867 92.07 l 193.867
 91.473 l 193.867 91.379 193.855 91.312 193.828 91.281 c 193.805 91.246 
193.758 91.227 193.691 91.227 c 193.625 91.227 193.57 91.254 193.531 91.305
 c 193.492 91.355 193.473 91.426 193.473 91.52 c 193.473 92.07 l h
193.32 92.07 m f
198.531 91.629 m 198.531 91.738 198.551 91.824 198.598 91.883 c 198.641
 91.941 198.707 91.973 198.793 91.973 c 198.863 91.973 198.918 91.957 198.961
 91.93 c 199 91.902 199.027 91.867 199.043 91.824 c 199.184 91.863 l 199.125
 92.012 198.996 92.086 198.793 92.086 c 198.656 92.086 198.551 92.047 198.477
 91.961 c 198.402 91.879 198.363 91.758 198.363 91.59 c 198.363 91.434 198.402
 91.312 198.477 91.23 c 198.551 91.145 198.656 91.102 198.789 91.102 c 199.066
 91.102 199.207 91.27 199.207 91.605 c 199.207 91.629 l h
199.047 91.508 m 199.035 91.41 199.008 91.336 198.969 91.293 c 198.926 
91.246 198.867 91.223 198.785 91.223 c 198.711 91.223 198.652 91.25 198.605
 91.301 c 198.559 91.352 198.535 91.422 198.535 91.508 c h
199.047 91.508 m f
q 1 0 0 1 0 0 cm
46.688 29.859 m 66.84 29.859 l S Q
Q q
23.656 55.445 302.578 2 re W n
q
23 55 304 3 re W n
[ 1 0 0 1 0 0 ] concat
  q
0 g
0.33871 w
0 J
1 j
[ 4.06452 4.06452] 0 d
10 M q 1 0 0 -1 0 0 cm
23.656 -56.395 m 326.234 -56.395 l S Q
  Q
Q
Q q
0 g
78.258 44.93 m 78.258 45.059 78.23 45.176 78.184 45.273 c 78.133 45.371
 78.059 45.445 77.969 45.496 c 77.875 45.547 77.766 45.57 77.641 45.57 c
 77.512 45.57 77.406 45.547 77.312 45.496 c 77.223 45.445 77.152 45.371 
77.102 45.273 c 77.055 45.176 77.031 45.059 77.031 44.93 c 77.031 44.734
 77.086 44.582 77.195 44.473 c 77.301 44.359 77.453 44.301 77.645 44.301
 c 77.77 44.301 77.875 44.328 77.969 44.375 c 78.059 44.426 78.133 44.5 
78.184 44.594 c 78.23 44.688 78.258 44.801 78.258 44.93 c h
78.082 44.93 m 78.082 44.777 78.043 44.66 77.969 44.57 c 77.895 44.484 
77.785 44.438 77.645 44.438 c 77.504 44.438 77.395 44.484 77.316 44.57 c
 77.242 44.656 77.203 44.777 77.203 44.93 c 77.203 45.086 77.242 45.207 
77.316 45.297 c 77.395 45.391 77.5 45.434 77.641 45.434 c 77.781 45.434 
77.895 45.391 77.969 45.305 c 78.043 45.219 78.082 45.094 78.082 44.93 c
 h
78.082 44.93 m f
82.754 45.555 m 82.566 45.555 l 82.219 44.609 l 82.391 44.609 l 82.602 
45.223 l 82.605 45.246 82.625 45.316 82.66 45.43 c 82.727 45.223 l 82.941
 44.609 l 83.109 44.609 l h
82.754 45.555 m f
85.844 45.113 m 85.844 45.223 85.863 45.309 85.91 45.367 c 85.957 45.426
 86.023 45.457 86.109 45.457 c 86.176 45.457 86.23 45.441 86.273 45.414 
c 86.312 45.387 86.34 45.352 86.355 45.305 c 86.496 45.348 l 86.438 45.496
 86.309 45.57 86.109 45.57 c 85.969 45.57 85.863 45.531 85.789 45.445 c 
85.715 45.363 85.676 45.238 85.676 45.074 c 85.676 44.918 85.715 44.797 
85.789 44.715 c 85.863 44.629 85.969 44.586 86.102 44.586 c 86.383 44.586
 86.52 44.754 86.52 45.09 c 86.52 45.113 l h
86.359 44.992 m 86.348 44.895 86.324 44.82 86.281 44.777 c 86.238 44.73
 86.18 44.707 86.098 44.707 c 86.023 44.707 85.965 44.734 85.918 44.785 
c 85.871 44.836 85.848 44.902 85.848 44.992 c h
86.359 44.992 m f
89.492 45.555 m 89.492 44.828 l 89.492 44.762 89.492 44.688 89.488 44.609
 c 89.637 44.609 l 89.645 44.715 89.648 44.781 89.648 44.801 c 89.672 44.719
 89.703 44.664 89.734 44.633 c 89.766 44.602 89.812 44.586 89.875 44.586
 c 89.895 44.586 89.914 44.59 89.938 44.598 c 89.938 44.742 l 89.918 44.734
 89.887 44.73 89.852 44.73 c 89.789 44.73 89.734 44.762 89.699 44.82 c 89.668
 44.875 89.652 44.953 89.652 45.059 c 89.652 45.555 l h
89.492 45.555 m f
92.457 45.293 m 92.457 45.383 92.422 45.449 92.352 45.5 c 92.285 45.547
 92.191 45.57 92.07 45.57 c 91.953 45.57 91.863 45.551 91.801 45.512 c 91.734
 45.477 91.695 45.414 91.676 45.332 c 91.816 45.305 l 91.828 45.355 91.855
 45.395 91.898 45.418 c 91.941 45.441 91.996 45.449 92.07 45.449 c 92.152
 45.449 92.211 45.438 92.246 45.414 c 92.285 45.391 92.305 45.355 92.305
 45.305 c 92.305 45.27 92.293 45.238 92.266 45.215 c 92.242 45.191 92.199
 45.172 92.141 45.156 c 92.027 45.125 l 91.938 45.102 91.875 45.082 91.836
 45.059 c 91.797 45.035 91.766 45.008 91.746 44.977 c 91.723 44.941 91.711
 44.902 91.711 44.855 c 91.711 44.77 91.742 44.707 91.805 44.66 c 91.867
 44.613 91.957 44.59 92.074 44.59 c 92.18 44.59 92.262 44.609 92.324 44.648
 c 92.383 44.684 92.422 44.742 92.441 44.824 c 92.301 44.844 l 92.293 44.801
 92.266 44.766 92.23 44.742 c 92.191 44.723 92.141 44.711 92.074 44.711 
c 92.004 44.711 91.949 44.723 91.914 44.742 c 91.883 44.766 91.867 44.801
 91.867 44.844 c 91.867 44.867 91.871 44.891 91.887 44.91 c 91.898 44.926
 91.922 44.941 91.949 44.953 c 91.977 44.965 92.031 44.984 92.121 45.004
 c 92.207 45.023 92.266 45.043 92.305 45.062 c 92.34 45.078 92.367 45.098
 92.391 45.121 c 92.41 45.145 92.43 45.168 92.441 45.195 c 92.449 45.223
 92.457 45.254 92.457 45.293 c h
92.457 45.293 m f
95.289 44.77 m 95.324 44.707 95.363 44.66 95.41 44.633 c 95.461 44.602 
95.52 44.586 95.59 44.586 c 95.695 44.586 95.77 44.613 95.82 44.664 c 95.867
 44.719 95.895 44.805 95.895 44.922 c 95.895 45.555 l 95.734 45.555 l 95.734
 44.953 l 95.734 44.887 95.73 44.836 95.715 44.805 c 95.703 44.773 95.684
 44.75 95.656 44.734 c 95.629 44.719 95.59 44.711 95.543 44.711 c 95.469
 44.711 95.406 44.738 95.359 44.789 c 95.316 44.84 95.293 44.91 95.293 44.996
 c 95.293 45.555 l 95.137 45.555 l 95.137 44.258 l 95.293 44.258 l 95.293
 44.59 l 95.293 44.629 95.293 44.664 95.289 44.703 c 95.289 44.742 95.289
 44.762 95.289 44.77 c h
95.289 44.77 m f
99.699 45.078 m 99.699 45.246 99.664 45.367 99.59 45.449 c 99.516 45.531
 99.414 45.57 99.273 45.57 c 99.137 45.57 99.031 45.531 98.961 45.445 c 
98.887 45.363 98.852 45.238 98.852 45.078 c 98.852 44.75 98.996 44.586 99.281
 44.586 c 99.426 44.586 99.531 44.629 99.598 44.707 c 99.664 44.789 99.699
 44.91 99.699 45.078 c h
99.535 45.078 m 99.535 44.949 99.516 44.855 99.477 44.797 c 99.438 44.738
 99.375 44.707 99.285 44.707 c 99.188 44.707 99.121 44.738 99.082 44.797
 c 99.039 44.859 99.02 44.953 99.02 45.078 c 99.02 45.203 99.039 45.297 
99.082 45.359 c 99.121 45.426 99.184 45.457 99.27 45.457 c 99.367 45.457
 99.434 45.426 99.473 45.363 c 99.516 45.305 99.535 45.211 99.535 45.078
 c h
99.535 45.078 m f
103.469 45.078 m 103.469 45.246 103.43 45.367 103.355 45.449 c 103.285 
45.531 103.18 45.57 103.043 45.57 c 102.902 45.57 102.797 45.531 102.727
 45.445 c 102.656 45.363 102.621 45.238 102.621 45.078 c 102.621 44.75 102.762
 44.586 103.047 44.586 c 103.191 44.586 103.297 44.629 103.363 44.707 c 
103.434 44.789 103.469 44.91 103.469 45.078 c h
103.301 45.078 m 103.301 44.949 103.281 44.855 103.246 44.797 c 103.203
 44.738 103.141 44.707 103.051 44.707 c 102.957 44.707 102.887 44.738 102.848
 44.797 c 102.805 44.859 102.785 44.953 102.785 45.078 c 102.785 45.203 
102.805 45.297 102.848 45.359 c 102.887 45.426 102.953 45.457 103.039 45.457
 c 103.133 45.457 103.199 45.426 103.238 45.363 c 103.281 45.305 103.301
 45.211 103.301 45.078 c h
103.301 45.078 m f
106.797 45.547 m 106.746 45.559 106.691 45.566 106.637 45.566 c 106.512
 45.566 106.449 45.496 106.449 45.352 c 106.449 44.719 l 106.34 44.719 l
 106.34 44.609 l 106.457 44.609 l 106.504 44.395 l 106.605 44.395 l 106.605
 44.609 l 106.785 44.609 l 106.785 44.719 l 106.605 44.719 l 106.605 45.32
 l 106.605 45.367 106.613 45.398 106.625 45.418 c 106.645 45.434 106.668
 45.441 106.703 45.441 c 106.727 45.441 106.758 45.438 106.797 45.43 c h
106.797 45.547 m f
226.418 83.434 m 226.418 83.547 226.371 83.633 226.281 83.699 c 226.191
 83.758 226.066 83.789 225.906 83.789 c 225.605 83.789 225.43 83.684 225.383
 83.473 c 225.543 83.445 l 225.562 83.52 225.605 83.57 225.664 83.605 c 
225.727 83.645 225.809 83.66 225.914 83.66 c 226.02 83.66 226.102 83.645
 226.16 83.605 c 226.223 83.566 226.25 83.512 226.25 83.441 c 226.25 83.398
 226.242 83.367 226.223 83.344 c 226.203 83.316 226.176 83.297 226.145 83.281
 c 226.109 83.262 226.07 83.25 226.023 83.238 c 225.98 83.227 225.93 83.215
 225.871 83.203 c 225.773 83.18 225.699 83.16 225.648 83.141 c 225.598 83.117
 225.559 83.094 225.527 83.066 c 225.5 83.039 225.48 83.008 225.461 82.973
 c 225.449 82.938 225.441 82.898 225.441 82.852 c 225.441 82.742 225.48 
82.66 225.562 82.605 c 225.641 82.547 225.758 82.52 225.91 82.52 c 226.051
 82.52 226.156 82.543 226.23 82.586 c 226.305 82.625 226.355 82.699 226.387
 82.805 c 226.223 82.832 l 226.203 82.766 226.168 82.719 226.117 82.688 
c 226.066 82.66 225.996 82.645 225.91 82.645 c 225.809 82.645 225.734 82.66
 225.68 82.691 c 225.629 82.727 225.602 82.777 225.602 82.84 c 225.602 82.883
 225.613 82.91 225.633 82.938 c 225.652 82.961 225.684 82.98 225.719 83 
c 225.758 83.016 225.832 83.035 225.945 83.062 c 225.984 83.07 226.023 83.078
 226.062 83.09 c 226.102 83.098 226.137 83.109 226.168 83.121 c 226.203 
83.133 226.234 83.148 226.266 83.164 c 226.293 83.18 226.32 83.203 226.344
 83.227 c 226.363 83.25 226.383 83.281 226.395 83.312 c 226.41 83.348 226.418
 83.387 226.418 83.434 c h
226.418 83.434 m f
230.305 83.762 m 230.254 83.777 230.199 83.785 230.145 83.785 c 230.02 
83.785 229.957 83.715 229.957 83.57 c 229.957 82.938 l 229.848 82.938 l 
229.848 82.824 l 229.965 82.824 l 230.008 82.609 l 230.113 82.609 l 230.113
 82.824 l 230.289 82.824 l 230.289 82.938 l 230.113 82.938 l 230.113 83.535
 l 230.113 83.582 230.117 83.617 230.133 83.637 c 230.148 83.652 230.176
 83.66 230.211 83.66 c 230.234 83.66 230.266 83.656 230.305 83.648 c h
230.305 83.762 m f
231.941 83.328 m 231.941 83.441 231.965 83.527 232.008 83.586 c 232.055
 83.645 232.121 83.672 232.207 83.672 c 232.273 83.672 232.332 83.66 232.371
 83.633 c 232.414 83.605 232.441 83.566 232.453 83.523 c 232.594 83.566 
l 232.539 83.715 232.406 83.789 232.207 83.789 c 232.066 83.789 231.965 
83.746 231.887 83.664 c 231.812 83.582 231.777 83.457 231.777 83.293 c 231.777
 83.137 231.812 83.016 231.887 82.934 c 231.965 82.848 232.066 82.805 232.203
 82.805 c 232.48 82.805 232.621 82.973 232.621 83.309 c 232.621 83.328 l
 h
232.461 83.211 m 232.449 83.109 232.422 83.039 232.379 82.996 c 232.34 
82.949 232.277 82.926 232.199 82.926 c 232.125 82.926 232.062 82.953 232.016
 83.004 c 231.973 83.051 231.949 83.121 231.945 83.211 c h
232.461 83.211 m f
235.832 83.789 m 235.734 83.789 235.664 83.762 235.613 83.715 c 235.566
 83.664 235.543 83.598 235.543 83.508 c 235.543 83.406 235.574 83.332 235.637
 83.281 c 235.703 83.227 235.809 83.199 235.953 83.199 c 236.168 83.191 
l 236.168 83.145 l 236.168 83.066 236.152 83.012 236.117 82.977 c 236.086
 82.945 236.035 82.93 235.965 82.93 c 235.895 82.93 235.84 82.941 235.809
 82.965 c 235.777 82.988 235.758 83.027 235.75 83.078 c 235.59 83.062 l 
235.613 82.891 235.738 82.805 235.969 82.805 c 236.086 82.805 236.176 82.832
 236.234 82.887 c 236.293 82.941 236.324 83.023 236.324 83.129 c 236.324
 83.531 l 236.324 83.578 236.328 83.613 236.34 83.641 c 236.355 83.664 236.379
 83.672 236.414 83.672 c 236.43 83.672 236.445 83.672 236.465 83.668 c 236.465
 83.77 l 236.426 83.777 236.387 83.781 236.344 83.781 c 236.289 83.781 236.242
 83.766 236.219 83.734 c 236.188 83.703 236.172 83.656 236.172 83.59 c 236.168
 83.59 l 236.125 83.664 236.078 83.715 236.023 83.742 c 235.969 83.773 235.906
 83.789 235.832 83.789 c h
235.867 83.672 m 235.922 83.672 235.973 83.66 236.02 83.637 c 236.066 83.609
 236.102 83.57 236.125 83.523 c 236.152 83.477 236.168 83.43 236.168 83.383
 c 236.168 83.305 l 235.992 83.309 l 235.918 83.309 235.863 83.316 235.824
 83.328 c 235.785 83.344 235.758 83.367 235.738 83.395 c 235.719 83.422 
235.707 83.461 235.707 83.512 c 235.707 83.562 235.723 83.602 235.75 83.633
 c 235.777 83.66 235.816 83.672 235.867 83.672 c h
235.867 83.672 m f
239.953 83.617 m 239.922 83.68 239.883 83.723 239.836 83.75 c 239.789 83.777
 239.73 83.789 239.66 83.789 c 239.539 83.789 239.449 83.75 239.391 83.668
 c 239.336 83.59 239.309 83.465 239.309 83.301 c 239.309 82.969 239.426 
82.805 239.66 82.805 c 239.734 82.805 239.793 82.82 239.84 82.848 c 239.887
 82.875 239.922 82.914 239.953 82.969 c 239.953 82.473 l 240.113 82.473 
l 240.113 83.578 l 240.113 83.676 240.113 83.742 240.117 83.773 c 239.969
 83.773 l 239.965 83.762 239.961 83.742 239.957 83.711 c 239.957 83.676 
239.957 83.645 239.957 83.617 c h
239.477 83.297 m 239.477 83.43 239.492 83.523 239.527 83.582 c 239.562 
83.641 239.621 83.668 239.699 83.668 c 239.789 83.668 239.852 83.637 239.895
 83.578 c 239.934 83.516 239.953 83.418 239.953 83.289 c 239.953 83.164 
239.934 83.07 239.895 83.012 c 239.852 82.953 239.789 82.926 239.703 82.926
 c 239.621 82.926 239.562 82.953 239.527 83.012 c 239.492 83.07 239.477 
83.164 239.477 83.297 c h
239.477 83.297 m f
243.168 84.145 m 243.125 84.145 243.09 84.141 243.059 84.137 c 243.059 
84.016 l 243.082 84.02 243.105 84.02 243.133 84.02 c 243.234 84.02 243.309
 83.949 243.367 83.805 c 243.383 83.77 l 243.008 82.824 l 243.176 82.824
 l 243.375 83.348 l 243.375 83.355 243.379 83.367 243.383 83.379 c 243.387
 83.391 243.402 83.43 243.422 83.496 c 243.445 83.559 243.457 83.594 243.461
 83.598 c 243.523 83.43 l 243.73 82.824 l 243.895 82.824 l 243.531 83.773
 l 243.492 83.875 243.453 83.949 243.418 83.996 c 243.387 84.043 243.348
 84.082 243.309 84.105 c 243.266 84.133 243.219 84.145 243.168 84.145 c 
h
243.168 84.145 m f
249.102 83.512 m 249.102 83.602 249.066 83.668 249 83.719 c 248.934 83.766
 248.84 83.789 248.719 83.789 c 248.602 83.789 248.508 83.77 248.445 83.73
 c 248.383 83.691 248.34 83.633 248.32 83.547 c 248.461 83.523 l 248.477
 83.574 248.504 83.609 248.547 83.637 c 248.586 83.66 248.645 83.668 248.719
 83.668 c 248.797 83.668 248.855 83.656 248.891 83.633 c 248.93 83.605 248.949
 83.57 248.949 83.523 c 248.949 83.484 248.938 83.457 248.914 83.434 c 248.887
 83.406 248.848 83.391 248.789 83.375 c 248.672 83.344 l 248.586 83.32 248.52
 83.297 248.484 83.277 c 248.445 83.254 248.414 83.227 248.391 83.191 c 
248.371 83.16 248.359 83.121 248.359 83.074 c 248.359 82.988 248.391 82.922
 248.449 82.879 c 248.512 82.832 248.605 82.809 248.723 82.809 c 248.828
 82.809 248.91 82.828 248.973 82.867 c 249.031 82.902 249.07 82.961 249.086
 83.039 c 248.945 83.062 l 248.938 83.016 248.914 82.984 248.875 82.961 
c 248.836 82.941 248.785 82.93 248.723 82.93 c 248.652 82.93 248.598 82.941
 248.562 82.961 c 248.527 82.984 248.512 83.016 248.512 83.062 c 248.512
 83.086 248.52 83.109 248.531 83.129 c 248.547 83.145 248.566 83.16 248.594
 83.172 c 248.621 83.184 248.68 83.199 248.77 83.223 c 248.852 83.242 248.914
 83.262 248.949 83.281 c 248.984 83.297 249.016 83.316 249.035 83.336 c 
249.059 83.359 249.074 83.387 249.086 83.414 c 249.098 83.441 249.102 83.473
 249.102 83.512 c h
249.102 83.512 m f
252.145 83.762 m 252.094 83.777 252.039 83.785 251.984 83.785 c 251.859
 83.785 251.797 83.715 251.797 83.57 c 251.797 82.938 l 251.688 82.938 l
 251.688 82.824 l 251.805 82.824 l 251.848 82.609 l 251.953 82.609 l 251.953
 82.824 l 252.129 82.824 l 252.129 82.938 l 251.953 82.938 l 251.953 83.535
 l 251.953 83.582 251.957 83.617 251.973 83.637 c 251.988 83.652 252.016
 83.66 252.051 83.66 c 252.074 83.66 252.105 83.656 252.145 83.648 c h
252.145 83.762 m f
253.906 83.789 m 253.809 83.789 253.738 83.762 253.688 83.715 c 253.641
 83.664 253.617 83.598 253.617 83.508 c 253.617 83.406 253.648 83.332 253.711
 83.281 c 253.777 83.227 253.883 83.199 254.027 83.199 c 254.242 83.191 
l 254.242 83.145 l 254.242 83.066 254.223 83.012 254.191 82.977 c 254.16
 82.945 254.105 82.93 254.039 82.93 c 253.965 82.93 253.914 82.941 253.883
 82.965 c 253.852 82.988 253.832 83.027 253.824 83.078 c 253.664 83.062 
l 253.688 82.891 253.812 82.805 254.043 82.805 c 254.16 82.805 254.25 82.832
 254.309 82.887 c 254.367 82.941 254.398 83.023 254.398 83.129 c 254.398
 83.531 l 254.398 83.578 254.402 83.613 254.414 83.641 c 254.43 83.664 254.453
 83.672 254.488 83.672 c 254.504 83.672 254.52 83.672 254.539 83.668 c 254.539
 83.77 l 254.5 83.777 254.461 83.781 254.418 83.781 c 254.359 83.781 254.316
 83.766 254.289 83.734 c 254.262 83.703 254.246 83.656 254.246 83.59 c 254.242
 83.59 l 254.199 83.664 254.152 83.715 254.098 83.742 c 254.043 83.773 253.98
 83.789 253.906 83.789 c h
253.938 83.672 m 253.996 83.672 254.047 83.66 254.094 83.637 c 254.141 
83.609 254.176 83.57 254.199 83.523 c 254.227 83.477 254.242 83.43 254.242
 83.383 c 254.242 83.305 l 254.066 83.309 l 253.992 83.309 253.938 83.316
 253.898 83.328 c 253.859 83.344 253.828 83.367 253.812 83.395 c 253.793
 83.422 253.781 83.461 253.781 83.512 c 253.781 83.562 253.797 83.602 253.824
 83.633 c 253.852 83.66 253.891 83.672 253.938 83.672 c h
253.938 83.672 m f
257.793 83.762 m 257.742 83.777 257.691 83.785 257.637 83.785 c 257.508
 83.785 257.445 83.715 257.445 83.57 c 257.445 82.938 l 257.336 82.938 l
 257.336 82.824 l 257.453 82.824 l 257.5 82.609 l 257.602 82.609 l 257.602
 82.824 l 257.781 82.824 l 257.781 82.938 l 257.602 82.938 l 257.602 83.535
 l 257.602 83.582 257.609 83.617 257.625 83.637 c 257.641 83.652 257.664
 83.66 257.703 83.66 c 257.723 83.66 257.754 83.656 257.793 83.648 c h
257.793 83.762 m f
259.434 83.328 m 259.434 83.441 259.453 83.527 259.5 83.586 c 259.543 83.645
 259.609 83.672 259.695 83.672 c 259.766 83.672 259.82 83.66 259.863 83.633
 c 259.902 83.605 259.93 83.566 259.945 83.523 c 260.086 83.566 l 260.027
 83.715 259.898 83.789 259.695 83.789 c 259.559 83.789 259.453 83.746 259.379
 83.664 c 259.305 83.582 259.266 83.457 259.266 83.293 c 259.266 83.137 
259.305 83.016 259.379 82.934 c 259.453 82.848 259.559 82.805 259.691 82.805
 c 259.969 82.805 260.109 82.973 260.109 83.309 c 260.109 83.328 l h
259.949 83.211 m 259.938 83.109 259.91 83.039 259.871 82.996 c 259.828 
82.949 259.77 82.926 259.688 82.926 c 259.613 82.926 259.555 82.953 259.508
 83.004 c 259.461 83.051 259.438 83.121 259.438 83.211 c h
259.949 83.211 m f
265.379 83.773 m 265.191 83.773 l 264.848 82.824 l 265.016 82.824 l 265.227
 83.441 l 265.23 83.465 265.25 83.531 265.285 83.648 c 265.352 83.441 l 
265.566 82.824 l 265.734 82.824 l h
265.379 83.773 m f
268.594 83.789 m 268.496 83.789 268.422 83.762 268.375 83.715 c 268.324
 83.664 268.305 83.598 268.305 83.508 c 268.305 83.406 268.336 83.332 268.398
 83.281 c 268.465 83.227 268.57 83.199 268.711 83.199 c 268.926 83.191 l
 268.926 83.145 l 268.926 83.066 268.91 83.012 268.879 82.977 c 268.844 
82.945 268.793 82.93 268.727 82.93 c 268.652 82.93 268.602 82.941 268.566
 82.965 c 268.535 82.988 268.52 83.027 268.512 83.078 c 268.348 83.062 l
 268.375 82.891 268.5 82.805 268.73 82.805 c 268.848 82.805 268.938 82.832
 268.992 82.887 c 269.055 82.941 269.086 83.023 269.086 83.129 c 269.086
 83.531 l 269.086 83.578 269.09 83.613 269.102 83.641 c 269.113 83.664 269.141
 83.672 269.176 83.672 c 269.188 83.672 269.207 83.672 269.227 83.668 c 
269.227 83.77 l 269.188 83.777 269.148 83.781 269.105 83.781 c 269.047 83.781
 269.004 83.766 268.977 83.734 c 268.949 83.703 268.934 83.656 268.934 83.59
 c 268.926 83.59 l 268.887 83.664 268.836 83.715 268.781 83.742 c 268.73
 83.773 268.668 83.789 268.594 83.789 c h
268.625 83.672 m 268.684 83.672 268.734 83.66 268.777 83.637 c 268.824 
83.609 268.863 83.57 268.887 83.523 c 268.914 83.477 268.926 83.43 268.926
 83.383 c 268.926 83.305 l 268.754 83.309 l 268.68 83.309 268.621 83.316
 268.586 83.328 c 268.547 83.344 268.516 83.367 268.496 83.395 c 268.477
 83.422 268.469 83.461 268.469 83.512 c 268.469 83.562 268.48 83.602 268.512
 83.633 c 268.535 83.66 268.578 83.672 268.625 83.672 c h
268.625 83.672 m f
272.117 82.473 0.156 1.301 re f
273.777 82.824 m 273.777 83.426 l 273.777 83.488 273.781 83.539 273.793
 83.574 c 273.805 83.605 273.824 83.633 273.852 83.648 c 273.879 83.664 
273.918 83.668 273.969 83.668 c 274.047 83.668 274.105 83.645 274.148 83.59
 c 274.191 83.539 274.215 83.465 274.215 83.375 c 274.215 82.824 l 274.371
 82.824 l 274.371 83.57 l 274.371 83.68 274.375 83.746 274.379 83.773 c 
274.23 83.773 l 274.227 83.77 274.227 83.762 274.227 83.75 c 274.227 83.738
 274.227 83.723 274.223 83.707 c 274.223 83.688 274.223 83.66 274.223 83.609
 c 274.219 83.609 l 274.184 83.676 274.141 83.723 274.094 83.75 c 274.047
 83.777 273.988 83.789 273.918 83.789 c 273.812 83.789 273.734 83.762 273.684
 83.715 c 273.637 83.664 273.613 83.574 273.613 83.453 c 273.613 82.824 
l h
273.777 82.824 m f
277.504 83.328 m 277.504 83.441 277.527 83.527 277.57 83.586 c 277.617 
83.645 277.684 83.672 277.77 83.672 c 277.84 83.672 277.895 83.66 277.934
 83.633 c 277.977 83.605 278.004 83.566 278.02 83.523 c 278.16 83.566 l 
278.102 83.715 277.969 83.789 277.77 83.789 c 277.633 83.789 277.527 83.746
 277.453 83.664 c 277.379 83.582 277.34 83.457 277.34 83.293 c 277.34 83.137
 277.379 83.016 277.453 82.934 c 277.527 82.848 277.629 82.805 277.766 82.805
 c 278.043 82.805 278.184 82.973 278.184 83.309 c 278.184 83.328 l h
278.023 83.211 m 278.012 83.109 277.984 83.039 277.945 82.996 c 277.902
 82.949 277.84 82.926 277.762 82.926 c 277.688 82.926 277.625 82.953 277.578
 83.004 c 277.535 83.051 277.512 83.121 277.508 83.211 c h
278.023 83.211 m f
Q q
220.672 55.445 105.562 3 re W n
q
220 55 107 4 re W n
[ 1 0 0 1 0 0 ] concat
  q
0 0 1 rg
0.33871 w
0 J
1 j
[] 0.0 d
10 M q 1 0 0 -1 0 0 cm
221.293 -57.352 m 222.363 -57.297 l 223.438 -57.184 l 224.512 -57.129 l
 225.582 -57.016 l 226.656 -56.957 l 227.727 -56.844 l 228.801 -56.73 l 
229.871 -56.676 l 232.02 -56.449 l 233.09 -56.395 l 234.164 -56.281 l 235.18
 -56.223 l 236.25 -56.168 l 237.324 -56.055 l 238.398 -56 l 239.469 -55.941
 l 240.543 -55.941 l 241.613 -55.887 l 242.688 -55.828 l 250.141 -55.828
 l 251.211 -55.887 l 252.285 -55.887 l 253.355 -55.941 l 254.43 -56 l 255.5
 -56 l 257.648 -56.109 l 258.719 -56.168 l 259.793 -56.223 l 260.863 -56.281
 l 261.938 -56.336 l 263.012 -56.395 l 264.082 -56.395 l 265.098 -56.449
 l 266.172 -56.508 l 267.242 -56.562 l 268.316 -56.562 l 269.391 -56.621
 l 270.461 -56.621 l 271.535 -56.676 l 272.605 -56.676 l 273.68 -56.73 l
 283.277 -56.73 l 284.348 -56.676 l 286.492 -56.676 l 287.566 -56.621 l 
288.641 -56.621 l 289.711 -56.562 l 290.785 -56.562 l 291.855 -56.508 l 
292.93 -56.508 l 294 -56.449 l 295.02 -56.449 l 296.09 -56.395 l 298.234
 -56.395 l 299.309 -56.336 l 301.453 -56.336 l 302.527 -56.281 l 306.816
 -56.281 l 307.891 -56.223 l 311.051 -56.223 l 312.125 -56.281 l 318.559
 -56.281 l 319.633 -56.336 l 322.848 -56.336 l 323.922 -56.395 l 326.234
 -56.395 l S Q
  Q
Q
Q q
0 0 1 rg
0.33871 w
0 J
1 j
[] 0.0 d
10 M q 1 0 0 1 0 0 cm
115.5 49.562 m 116.574 49.281 l 117.648 49.055 l 118.719 48.887 l 119.793
 48.887 l 120.863 48.941 l 121.938 49.055 l 123.012 49.281 l 124.082 49.562
 l 125.156 49.902 l 126.227 50.352 l 127.301 50.805 l 128.371 51.312 l 129.391
 51.879 l 130.461 52.441 l 131.535 53.008 l 132.605 53.629 l 133.68 54.25
 l 134.75 54.871 l 135.824 55.492 l 136.898 56.055 l 137.969 56.676 l 139.043
 57.184 l 140.113 57.691 l 141.188 58.199 l 142.262 58.652 l 143.332 59.047
 l 144.348 59.387 l 145.422 59.668 l 146.492 59.949 l 147.566 60.121 l 148.641
 60.289 l 149.711 60.402 l 150.785 60.457 l 151.855 60.457 l 152.93 60.402
 l 154 60.289 l 155.074 60.176 l 156.148 60.008 l 157.219 59.836 l 158.293
 59.609 l 159.309 59.328 l 160.383 59.047 l 161.453 58.766 l 162.527 58.426
 l 163.598 58.145 l 164.672 57.805 l 165.742 57.465 l 166.816 57.129 l 167.891
 56.789 l 168.961 56.508 l 170.035 56.168 l 171.105 55.887 l 172.18 55.66
 l 173.25 55.379 l 174.324 55.152 l 175.34 54.98 l 176.414 54.758 l 177.484
 54.645 l 179.633 54.418 l 180.703 54.359 l 181.777 54.305 l 182.848 54.25
 l 183.922 54.305 l 184.992 54.305 l 186.066 54.359 l 187.141 54.418 l 188.211
 54.531 l 189.285 54.645 l 190.301 54.758 l 191.371 54.926 l 192.445 55.094
 l 193.52 55.266 l 194.59 55.379 l 195.664 55.602 l 196.734 55.773 l 198.883
 56.109 l 199.953 56.281 l 201.027 56.449 l 202.098 56.621 l 203.172 56.73
 l 204.242 56.902 l 205.262 57.016 l 206.332 57.129 l 207.406 57.242 l 208.477
 57.352 l 209.551 57.41 l 210.621 57.465 l 211.695 57.523 l 212.77 57.523
 l 213.84 57.578 l 215.984 57.578 l 217.059 57.523 l 218.133 57.523 l 219.203
 57.465 l 220.219 57.41 l 221.293 57.352 l S Q
Q q
23.656 29.445 92.016 77.02 re W n
q
23 29 93 78 re W n
[ 1 0 0 1 0 0 ] concat
  q
0 0 1 rg
0.33871 w
0 J
1 j
[] 0.0 d
10 M q 1 0 0 -1 0 0 cm
23.656 -106.41 m 24.672 -106.297 l 25.742 -105.844 l 26.816 -104.941 l 
27.891 -103.586 l 28.961 -101.723 l 30.035 -99.41 l 31.105 -96.699 l 32.18
 -93.652 l 33.25 -90.32 l 34.324 -86.707 l 35.398 -82.926 l 36.469 -79.031
 l 37.543 -74.965 l 38.613 -70.902 l 39.633 -66.836 l 40.703 -62.828 l 41.777
 -58.879 l 42.848 -55.094 l 43.922 -51.48 l 44.992 -48.039 l 46.066 -44.879
 l 47.141 -42 l 48.211 -39.344 l 49.285 -37.031 l 50.355 -35 l 51.43 -33.359
 l 52.5 -32.008 l 53.574 -30.992 l 54.59 -30.312 l 55.664 -29.973 l 56.734
 -29.918 l 57.809 -30.199 l 58.883 -30.766 l 59.953 -31.609 l 61.027 -32.684
 l 62.098 -33.98 l 63.172 -35.508 l 64.242 -37.145 l 65.316 -39.008 l 66.391
 -40.926 l 67.461 -43.016 l 68.535 -45.102 l 69.551 -47.305 l 70.621 -49.449
 l 71.695 -51.652 l 72.77 -53.742 l 73.84 -55.828 l 74.914 -57.805 l 75.984
 -59.723 l 77.059 -61.473 l 78.133 -63.109 l 79.203 -64.637 l 80.277 -65.992
 l 81.348 -67.176 l 82.422 -68.191 l 83.492 -68.98 l 84.512 -69.66 l 85.582
 -70.109 l 86.656 -70.449 l 87.727 -70.562 l 88.801 -70.508 l 89.871 -70.336
 l 90.945 -70 l 92.02 -69.492 l 93.09 -68.871 l 94.164 -68.137 l 95.234 
-67.289 l 96.309 -66.387 l 97.383 -65.371 l 98.453 -64.297 l 99.469 -63.168
 l 100.543 -62.039 l 101.613 -60.91 l 102.688 -59.723 l 103.762 -58.594 
l 104.832 -57.465 l 105.906 -56.336 l 106.977 -55.32 l 108.051 -54.305 l
 109.121 -53.402 l 110.195 -52.555 l 111.27 -51.766 l 112.34 -51.086 l 113.414
 -50.465 l 114.43 -49.957 l 115.5 -49.562 l S Q
  Q
Q
Q q
0 g
0.33871 w
0 J
1 j
[] 0.0 d
10 M q 1 0 0 1 0 0 cm
21.68 72.371 m 25.066 72.371 l S Q
22.695 69.828 m 29.469 72.371 l 22.695 74.91 l 25.066 72.371 l 22.695 69.828
 l f*
q 1 0 0 1 0 0 cm
49 72.371 m 45.613 72.371 l S Q
47.984 74.91 m 41.211 72.371 l 47.984 69.828 l 45.613 72.371 l 47.984 74.91
 l f*
q 1 0 0 1 0 0 cm
33.871 89.98 m 155.863 89.98 l S Q
36.242 87.441 m 29.469 89.98 l 36.242 92.523 l 33.871 89.98 l 36.242 87.441
 l f*
153.492 87.441 m 160.27 89.98 l 153.492 92.523 l 155.863 89.98 l 153.492
 87.441 l f*
q 1 0 0 1 0 0 cm
66.559 52.723 m 66.559 35.789 l S Q
64.02 50.352 m 66.559 57.129 l 69.098 50.352 l 66.559 52.723 l 64.02 50.352
 l f*
64.02 38.16 m 66.559 31.387 l 69.098 38.16 l 66.559 35.789 l 64.02 38.16
 l f*
q 1 0 0 1 0 0 cm
285.195 75.305 m 320.195 59.555 l S Q
316.977 58.199 m 324.203 57.75 l 319.066 62.828 l 320.195 59.555 l 316.977
 58.199 l f*
Q Q
showpage
%%Trailer
end
%%EOF
