%!PS-Adobe-3.0 EPSF-3.0
%%Title: Figure1.eps
%%Creator: matplotlib version 3.1.1, http://matplotlib.org/
%%CreationDate: Wed Aug  7 12:17:47 2019
%%Orientation: portrait
%%BoundingBox: 75.6 223.20000000000002 536.4 568.8
%%EndComments
%%BeginProlog
/mpldict 8 dict def
mpldict begin
/m { moveto } bind def
/l { lineto } bind def
/r { rlineto } bind def
/c { curveto } bind def
/cl { closepath } bind def
/box {
m
1 index 0 r
0 exch r
neg 0 r
cl
} bind def
/clipbox {
box
clip
newpath
} bind def
%!PS-Adobe-3.0 Resource-Font
%%Title: DejaVu Sans
%%Copyright: Copyright (c) 2003 by Bitstream, Inc. All Rights Reserved. Copyright (c) 2006 by Tavmjong Bah. All Rights Reserved. DejaVu changes are in public domain 
%%Creator: Converted from TrueType to type 3 by PPR
25 dict begin
/_d{bind def}bind def
/_m{moveto}_d
/_l{lineto}_d
/_cl{closepath eofill}_d
/_c{curveto}_d
/_sc{7 -1 roll{setcachedevice}{pop pop pop pop pop pop}ifelse}_d
/_e{exec}_d
/FontName /DejaVuSans def
/PaintType 0 def
/FontMatrix[.001 0 0 .001 0 0]def
/FontBBox[-1021 -463 1793 1232]def
/FontType 3 def
/Encoding [ /space /hyphen /period /zero /one /two /five /six /eight /A /C /D /I /N /O /P /T /U /V /bracketleft /bracketright /underscore /b /x /minus ] def
/FontInfo 10 dict dup begin
/FamilyName (DejaVu Sans) def
/FullName (DejaVu Sans) def
/Notice (Copyright (c) 2003 by Bitstream, Inc. All Rights Reserved. Copyright (c) 2006 by Tavmjong Bah. All Rights Reserved. DejaVu changes are in public domain ) def
/Weight (Book) def
/Version (Version 2.35) def
/ItalicAngle 0.0 def
/isFixedPitch false def
/UnderlinePosition -130 def
/UnderlineThickness 90 def
end readonly def
/CharStrings 26 dict dup begin
/.notdef 0 def
/space{318 0 0 0 0 0 _sc
}_d
/hyphen{361 0 49 234 312 314 _sc
49 314 _m
312 314 _l
312 234 _l
49 234 _l
49 314 _l
_cl}_d
/period{318 0 107 0 210 124 _sc
107 124 _m
210 124 _l
210 0 _l
107 0 _l
107 124 _l
_cl}_d
/zero{636 0 66 -13 570 742 _sc
318 664 _m
267 664 229 639 203 589 _c
177 539 165 464 165 364 _c
165 264 177 189 203 139 _c
229 89 267 64 318 64 _c
369 64 407 89 433 139 _c
458 189 471 264 471 364 _c
471 464 458 539 433 589 _c
407 639 369 664 318 664 _c
318 742 _m
399 742 461 709 505 645 _c
548 580 570 486 570 364 _c
570 241 548 147 505 83 _c
461 19 399 -13 318 -13 _c
236 -13 173 19 130 83 _c
87 147 66 241 66 364 _c
66 486 87 580 130 645 _c
173 709 236 742 318 742 _c
_cl}_d
/one{636 0 110 0 544 729 _sc
124 83 _m
285 83 _l
285 639 _l
110 604 _l
110 694 _l
284 729 _l
383 729 _l
383 83 _l
544 83 _l
544 0 _l
124 0 _l
124 83 _l
_cl}_d
/two{{636 0 73 0 536 742 _sc
192 83 _m
536 83 _l
536 0 _l
73 0 _l
73 83 _l
110 121 161 173 226 239 _c
290 304 331 346 348 365 _c
380 400 402 430 414 455 _c
426 479 433 504 433 528 _c
433 566 419 598 392 622 _c
365 646 330 659 286 659 _c
255 659 222 653 188 643 _c
154 632 117 616 78 594 _c
78 694 _l
118 710 155 722 189 730 _c
223 738 255 742 284 742 _c
}_e{359 742 419 723 464 685 _c
509 647 532 597 532 534 _c
532 504 526 475 515 449 _c
504 422 484 390 454 354 _c
446 344 420 317 376 272 _c
332 227 271 164 192 83 _c
_cl}_e}_d
/five{{636 0 77 -13 549 729 _sc
108 729 _m
495 729 _l
495 646 _l
198 646 _l
198 467 _l
212 472 227 476 241 478 _c
255 480 270 482 284 482 _c
365 482 429 459 477 415 _c
525 370 549 310 549 234 _c
549 155 524 94 475 51 _c
426 8 357 -13 269 -13 _c
238 -13 207 -10 175 -6 _c
143 -1 111 6 77 17 _c
77 116 _l
106 100 136 88 168 80 _c
199 72 232 69 267 69 _c
}_e{323 69 368 83 401 113 _c
433 143 450 183 450 234 _c
450 284 433 324 401 354 _c
368 384 323 399 267 399 _c
241 399 214 396 188 390 _c
162 384 135 375 108 363 _c
108 729 _l
_cl}_e}_d
/six{{636 0 70 -13 573 742 _sc
330 404 _m
286 404 251 388 225 358 _c
199 328 186 286 186 234 _c
186 181 199 139 225 109 _c
251 79 286 64 330 64 _c
374 64 409 79 435 109 _c
461 139 474 181 474 234 _c
474 286 461 328 435 358 _c
409 388 374 404 330 404 _c
526 713 _m
526 623 _l
501 635 476 644 451 650 _c
425 656 400 659 376 659 _c
310 659 260 637 226 593 _c
}_e{192 549 172 482 168 394 _c
187 422 211 444 240 459 _c
269 474 301 482 336 482 _c
409 482 467 459 509 415 _c
551 371 573 310 573 234 _c
573 159 550 99 506 54 _c
462 9 403 -13 330 -13 _c
246 -13 181 19 137 83 _c
92 147 70 241 70 364 _c
70 479 97 571 152 639 _c
206 707 280 742 372 742 _c
396 742 421 739 447 735 _c
472 730 498 723 526 713 _c
_cl}_e}_d
/eight{{636 0 68 -13 568 742 _sc
318 346 _m
271 346 234 333 207 308 _c
180 283 167 249 167 205 _c
167 161 180 126 207 101 _c
234 76 271 64 318 64 _c
364 64 401 76 428 102 _c
455 127 469 161 469 205 _c
469 249 455 283 429 308 _c
402 333 365 346 318 346 _c
219 388 _m
177 398 144 418 120 447 _c
96 476 85 511 85 553 _c
85 611 105 657 147 691 _c
188 725 245 742 318 742 _c
}_e{390 742 447 725 489 691 _c
530 657 551 611 551 553 _c
551 511 539 476 515 447 _c
491 418 459 398 417 388 _c
464 377 501 355 528 323 _c
554 291 568 251 568 205 _c
568 134 546 80 503 43 _c
459 5 398 -13 318 -13 _c
237 -13 175 5 132 43 _c
89 80 68 134 68 205 _c
68 251 81 291 108 323 _c
134 355 171 377 219 388 _c
183 544 _m
183 506 194 476 218 455 _c
}_e{242 434 275 424 318 424 _c
360 424 393 434 417 455 _c
441 476 453 506 453 544 _c
453 582 441 611 417 632 _c
393 653 360 664 318 664 _c
275 664 242 653 218 632 _c
194 611 183 582 183 544 _c
_cl}_e}_d
/A{684 0 8 0 676 729 _sc
342 632 _m
208 269 _l
476 269 _l
342 632 _l
286 729 _m
398 729 _l
676 0 _l
573 0 _l
507 187 _l
178 187 _l
112 0 _l
8 0 _l
286 729 _l
_cl}_d
/C{{698 0 56 -13 644 742 _sc
644 673 _m
644 569 _l
610 599 575 622 537 638 _c
499 653 460 661 418 661 _c
334 661 270 635 226 584 _c
182 533 160 460 160 364 _c
160 268 182 194 226 143 _c
270 92 334 67 418 67 _c
460 67 499 74 537 90 _c
575 105 610 128 644 159 _c
644 56 _l
609 32 572 15 534 4 _c
496 -7 455 -13 412 -13 _c
302 -13 215 20 151 87 _c
}_e{87 154 56 246 56 364 _c
56 481 87 573 151 641 _c
215 708 302 742 412 742 _c
456 742 497 736 535 725 _c
573 713 610 696 644 673 _c
_cl}_e}_d
/D{770 0 98 0 711 729 _sc
197 648 _m
197 81 _l
316 81 _l
416 81 490 103 537 149 _c
583 195 607 267 607 365 _c
607 463 583 534 537 580 _c
490 625 416 648 316 648 _c
197 648 _l
98 729 _m
301 729 _l
442 729 546 699 612 641 _c
678 582 711 490 711 365 _c
711 239 677 147 611 88 _c
545 29 441 0 301 0 _c
98 0 _l
98 729 _l
_cl}_d
/I{295 0 98 0 197 729 _sc
98 729 _m
197 729 _l
197 0 _l
98 0 _l
98 729 _l
_cl}_d
/N{748 0 98 0 650 729 _sc
98 729 _m
231 729 _l
554 119 _l
554 729 _l
650 729 _l
650 0 _l
517 0 _l
194 610 _l
194 0 _l
98 0 _l
98 729 _l
_cl}_d
/O{787 0 56 -13 731 742 _sc
394 662 _m
322 662 265 635 223 582 _c
181 528 160 456 160 364 _c
160 272 181 199 223 146 _c
265 92 322 66 394 66 _c
465 66 522 92 564 146 _c
606 199 627 272 627 364 _c
627 456 606 528 564 582 _c
522 635 465 662 394 662 _c
394 742 _m
496 742 577 707 639 639 _c
700 571 731 479 731 364 _c
731 248 700 157 639 89 _c
577 21 496 -13 394 -13 _c
291 -13 209 21 148 89 _c
86 157 56 248 56 364 _c
56 479 86 571 148 639 _c
209 707 291 742 394 742 _c
_cl}_d
/P{603 0 98 0 569 729 _sc
197 648 _m
197 374 _l
321 374 _l
367 374 402 385 427 409 _c
452 433 465 467 465 511 _c
465 555 452 588 427 612 _c
402 636 367 648 321 648 _c
197 648 _l
98 729 _m
321 729 _l
402 729 464 710 506 673 _c
548 636 569 582 569 511 _c
569 439 548 384 506 348 _c
464 311 402 293 321 293 _c
197 293 _l
197 0 _l
98 0 _l
98 729 _l
_cl}_d
/T{611 0 -2 0 614 729 _sc
-2 729 _m
614 729 _l
614 646 _l
355 646 _l
355 0 _l
256 0 _l
256 646 _l
-2 646 _l
-2 729 _l
_cl}_d
/U{732 0 87 -13 645 729 _sc
87 729 _m
186 729 _l
186 286 _l
186 208 200 151 228 117 _c
256 83 302 66 366 66 _c
429 66 475 83 503 117 _c
531 151 546 208 546 286 _c
546 729 _l
645 729 _l
645 274 _l
645 178 621 107 574 59 _c
527 11 458 -13 366 -13 _c
274 -13 204 11 157 59 _c
110 107 87 178 87 274 _c
87 729 _l
_cl}_d
/V{684 0 8 0 676 729 _sc
286 0 _m
8 729 _l
111 729 _l
342 115 _l
573 729 _l
676 729 _l
398 0 _l
286 0 _l
_cl}_d
/bracketleft{390 0 86 -131 293 760 _sc
86 760 _m
293 760 _l
293 690 _l
176 690 _l
176 -61 _l
293 -61 _l
293 -131 _l
86 -131 _l
86 760 _l
_cl}_d
/bracketright{390 0 97 -131 304 760 _sc
304 760 _m
304 -131 _l
97 -131 _l
97 -61 _l
214 -61 _l
214 690 _l
97 690 _l
97 760 _l
304 760 _l
_cl}_d
/underscore{500 0 -9 -235 510 -165 _sc
510 -165 _m
510 -235 _l
-9 -235 _l
-9 -165 _l
510 -165 _l
_cl}_d
/b{{635 0 91 -13 580 760 _sc
487 273 _m
487 339 473 390 446 428 _c
418 466 381 485 334 485 _c
286 485 249 466 222 428 _c
194 390 181 339 181 273 _c
181 207 194 155 222 117 _c
249 79 286 61 334 61 _c
381 61 418 79 446 117 _c
473 155 487 207 487 273 _c
181 464 _m
199 496 223 520 252 536 _c
281 552 316 560 356 560 _c
422 560 476 533 518 481 _c
559 428 580 359 580 273 _c
}_e{580 187 559 117 518 65 _c
476 13 422 -13 356 -13 _c
316 -13 281 -5 252 10 _c
223 25 199 49 181 82 _c
181 0 _l
91 0 _l
91 760 _l
181 760 _l
181 464 _l
_cl}_e}_d
/x{592 0 29 0 559 547 _sc
549 547 _m
351 281 _l
559 0 _l
453 0 _l
294 215 _l
135 0 _l
29 0 _l
241 286 _l
47 547 _l
153 547 _l
298 352 _l
443 547 _l
549 547 _l
_cl}_d
/minus{838 0 106 272 732 355 _sc
106 355 _m
732 355 _l
732 272 _l
106 272 _l
106 355 _l
_cl}_d
end readonly def

/BuildGlyph
 {exch begin
 CharStrings exch
 2 copy known not{pop /.notdef}if
 true 3 1 roll get exec
 end}_d

/BuildChar {
 1 index /Encoding get exch get
 1 index /BuildGlyph get exec
}_d

FontName currentdict end definefont pop
end
%%EndProlog
mpldict begin
75.6 223.2 translate
460.8 345.6 0 0 clipbox
gsave
0 0 m
460.8 0 l
460.8 345.6 l
0 345.6 l
cl
1.000 setgray
fill
grestore
gsave
57.6 38.016 m
414.72 38.016 l
414.72 304.128 l
57.6 304.128 l
cl
1.000 setgray
fill
grestore
0.800 setlinewidth
1 setlinejoin
0 setlinecap
[2.96 1.28] 0 setdash
0.690 setgray
gsave
357.1 266.1 57.6 38.02 clipbox
73.832727 38.016 m
73.832727 304.128 l
stroke
grestore
[] 0 setdash
0.000 setgray
gsave
/o {
gsave
newpath
translate
0.8 setlinewidth
1 setlinejoin
0 setlinecap
0 0 m
0 -3.5 l

gsave
0.000 setgray
fill
grestore
stroke
grestore
} bind def
73.8327 38.016 o
grestore
/DejaVuSans findfont
10.000 scalefont
setfont
gsave
55.332727 23.422250 translate
0.000000 rotate
0.000000 0.000000 m /minus glyphshow
8.378906 0.000000 m /two glyphshow
14.741211 0.000000 m /period glyphshow
17.919922 0.000000 m /two glyphshow
24.282227 0.000000 m /five glyphshow
30.644531 0.000000 m /zero glyphshow
grestore
[2.96 1.28] 0 setdash
0.690 setgray
gsave
357.1 266.1 57.6 38.02 clipbox
120.211948 38.016 m
120.211948 304.128 l
stroke
grestore
[] 0 setdash
0.000 setgray
gsave
/o {
gsave
newpath
translate
0.8 setlinewidth
1 setlinejoin
0 setlinecap
0 0 m
0 -3.5 l

gsave
0.000 setgray
fill
grestore
stroke
grestore
} bind def
120.212 38.016 o
grestore
gsave
101.711948 23.422250 translate
0.000000 rotate
0.000000 0.000000 m /minus glyphshow
8.378906 0.000000 m /one glyphshow
14.741211 0.000000 m /period glyphshow
17.919922 0.000000 m /six glyphshow
24.282227 0.000000 m /eight glyphshow
30.644531 0.000000 m /eight glyphshow
grestore
[2.96 1.28] 0 setdash
0.690 setgray
gsave
357.1 266.1 57.6 38.02 clipbox
166.591169 38.016 m
166.591169 304.128 l
stroke
grestore
[] 0 setdash
0.000 setgray
gsave
/o {
gsave
newpath
translate
0.8 setlinewidth
1 setlinejoin
0 setlinecap
0 0 m
0 -3.5 l

gsave
0.000 setgray
fill
grestore
stroke
grestore
} bind def
166.591 38.016 o
grestore
gsave
148.091169 23.422250 translate
0.000000 rotate
0.000000 0.000000 m /minus glyphshow
8.378906 0.000000 m /one glyphshow
14.741211 0.000000 m /period glyphshow
17.919922 0.000000 m /one glyphshow
24.282227 0.000000 m /two glyphshow
30.644531 0.000000 m /five glyphshow
grestore
[2.96 1.28] 0 setdash
0.690 setgray
gsave
357.1 266.1 57.6 38.02 clipbox
212.97039 38.016 m
212.97039 304.128 l
stroke
grestore
[] 0 setdash
0.000 setgray
gsave
/o {
gsave
newpath
translate
0.8 setlinewidth
1 setlinejoin
0 setlinecap
0 0 m
0 -3.5 l

gsave
0.000 setgray
fill
grestore
stroke
grestore
} bind def
212.97 38.016 o
grestore
gsave
194.470390 23.422250 translate
0.000000 rotate
0.000000 0.000000 m /minus glyphshow
8.378906 0.000000 m /zero glyphshow
14.741211 0.000000 m /period glyphshow
17.919922 0.000000 m /five glyphshow
24.282227 0.000000 m /six glyphshow
30.644531 0.000000 m /two glyphshow
grestore
[2.96 1.28] 0 setdash
0.690 setgray
gsave
357.1 266.1 57.6 38.02 clipbox
259.34961 38.016 m
259.34961 304.128 l
stroke
grestore
[] 0 setdash
0.000 setgray
gsave
/o {
gsave
newpath
translate
0.8 setlinewidth
1 setlinejoin
0 setlinecap
0 0 m
0 -3.5 l

gsave
0.000 setgray
fill
grestore
stroke
grestore
} bind def
259.35 38.016 o
grestore
gsave
245.037110 23.422250 translate
0.000000 rotate
0.000000 0.000000 m /zero glyphshow
6.362305 0.000000 m /period glyphshow
9.541016 0.000000 m /zero glyphshow
15.903320 0.000000 m /zero glyphshow
22.265625 0.000000 m /zero glyphshow
grestore
[2.96 1.28] 0 setdash
0.690 setgray
gsave
357.1 266.1 57.6 38.02 clipbox
305.728831 38.016 m
305.728831 304.128 l
stroke
grestore
[] 0 setdash
0.000 setgray
gsave
/o {
gsave
newpath
translate
0.8 setlinewidth
1 setlinejoin
0 setlinecap
0 0 m
0 -3.5 l

gsave
0.000 setgray
fill
grestore
stroke
grestore
} bind def
305.729 38.016 o
grestore
gsave
291.416331 23.422250 translate
0.000000 rotate
0.000000 0.000000 m /zero glyphshow
6.362305 0.000000 m /period glyphshow
9.541016 0.000000 m /five glyphshow
15.903320 0.000000 m /six glyphshow
22.265625 0.000000 m /two glyphshow
grestore
[2.96 1.28] 0 setdash
0.690 setgray
gsave
357.1 266.1 57.6 38.02 clipbox
352.108052 38.016 m
352.108052 304.128 l
stroke
grestore
[] 0 setdash
0.000 setgray
gsave
/o {
gsave
newpath
translate
0.8 setlinewidth
1 setlinejoin
0 setlinecap
0 0 m
0 -3.5 l

gsave
0.000 setgray
fill
grestore
stroke
grestore
} bind def
352.108 38.016 o
grestore
gsave
337.795552 23.422250 translate
0.000000 rotate
0.000000 0.000000 m /one glyphshow
6.362305 0.000000 m /period glyphshow
9.541016 0.000000 m /one glyphshow
15.903320 0.000000 m /two glyphshow
22.265625 0.000000 m /five glyphshow
grestore
[2.96 1.28] 0 setdash
0.690 setgray
gsave
357.1 266.1 57.6 38.02 clipbox
398.487273 38.016 m
398.487273 304.128 l
stroke
grestore
[] 0 setdash
0.000 setgray
gsave
/o {
gsave
newpath
translate
0.8 setlinewidth
1 setlinejoin
0 setlinecap
0 0 m
0 -3.5 l

gsave
0.000 setgray
fill
grestore
stroke
grestore
} bind def
398.487 38.016 o
grestore
gsave
384.174773 23.422250 translate
0.000000 rotate
0.000000 0.000000 m /one glyphshow
6.362305 0.000000 m /period glyphshow
9.541016 0.000000 m /six glyphshow
15.903320 0.000000 m /eight glyphshow
22.265625 0.000000 m /eight glyphshow
grestore
gsave
195.472500 9.750375 translate
0.000000 rotate
0.000000 0.000000 m /V glyphshow
6.840820 0.000000 m /I glyphshow
9.790039 0.000000 m /N glyphshow
17.270508 0.000000 m /x glyphshow
23.188477 0.000000 m /P glyphshow
29.218750 0.000000 m /hyphen glyphshow
32.827148 0.000000 m /V glyphshow
39.667969 0.000000 m /I glyphshow
42.617188 0.000000 m /N glyphshow
50.097656 0.000000 m /x glyphshow
56.015625 0.000000 m /N glyphshow
63.496094 0.000000 m /space glyphshow
66.674805 0.000000 m /bracketleft glyphshow
70.576172 0.000000 m /V glyphshow
77.416992 0.000000 m /bracketright glyphshow
grestore
[2.96 1.28] 0 setdash
0.690 setgray
gsave
357.1 266.1 57.6 38.02 clipbox
57.6 50.112 m
414.72 50.112 l
stroke
grestore
[] 0 setdash
0.000 setgray
gsave
/o {
gsave
newpath
translate
0.8 setlinewidth
1 setlinejoin
0 setlinecap
0 0 m
-3.5 0 l

gsave
0.000 setgray
fill
grestore
stroke
grestore
} bind def
57.6 50.112 o
grestore
gsave
18.818750 46.315125 translate
0.000000 rotate
0.000000 0.000000 m /zero glyphshow
6.362305 0.000000 m /b glyphshow
12.709961 0.000000 m /one glyphshow
19.072266 0.000000 m /zero glyphshow
25.434570 0.000000 m /zero glyphshow
grestore
[2.96 1.28] 0 setdash
0.690 setgray
gsave
357.1 266.1 57.6 38.02 clipbox
57.6 84.672 m
414.72 84.672 l
stroke
grestore
[] 0 setdash
0.000 setgray
gsave
/o {
gsave
newpath
translate
0.8 setlinewidth
1 setlinejoin
0 setlinecap
0 0 m
-3.5 0 l

gsave
0.000 setgray
fill
grestore
stroke
grestore
} bind def
57.6 84.672 o
grestore
gsave
18.818750 80.875125 translate
0.000000 rotate
0.000000 0.000000 m /zero glyphshow
6.362305 0.000000 m /b glyphshow
12.709961 0.000000 m /one glyphshow
19.072266 0.000000 m /zero glyphshow
25.434570 0.000000 m /one glyphshow
grestore
[2.96 1.28] 0 setdash
0.690 setgray
gsave
357.1 266.1 57.6 38.02 clipbox
57.6 119.232 m
414.72 119.232 l
stroke
grestore
[] 0 setdash
0.000 setgray
gsave
/o {
gsave
newpath
translate
0.8 setlinewidth
1 setlinejoin
0 setlinecap
0 0 m
-3.5 0 l

gsave
0.000 setgray
fill
grestore
stroke
grestore
} bind def
57.6 119.232 o
grestore
gsave
18.818750 115.435125 translate
0.000000 rotate
0.000000 0.000000 m /zero glyphshow
6.362305 0.000000 m /b glyphshow
12.709961 0.000000 m /one glyphshow
19.072266 0.000000 m /one glyphshow
25.434570 0.000000 m /zero glyphshow
grestore
[2.96 1.28] 0 setdash
0.690 setgray
gsave
357.1 266.1 57.6 38.02 clipbox
57.6 153.792 m
414.72 153.792 l
stroke
grestore
[] 0 setdash
0.000 setgray
gsave
/o {
gsave
newpath
translate
0.8 setlinewidth
1 setlinejoin
0 setlinecap
0 0 m
-3.5 0 l

gsave
0.000 setgray
fill
grestore
stroke
grestore
} bind def
57.6 153.792 o
grestore
gsave
18.818750 149.995125 translate
0.000000 rotate
0.000000 0.000000 m /zero glyphshow
6.362305 0.000000 m /b glyphshow
12.709961 0.000000 m /one glyphshow
19.072266 0.000000 m /one glyphshow
25.434570 0.000000 m /one glyphshow
grestore
[2.96 1.28] 0 setdash
0.690 setgray
gsave
357.1 266.1 57.6 38.02 clipbox
57.6 188.352 m
414.72 188.352 l
stroke
grestore
[] 0 setdash
0.000 setgray
gsave
/o {
gsave
newpath
translate
0.8 setlinewidth
1 setlinejoin
0 setlinecap
0 0 m
-3.5 0 l

gsave
0.000 setgray
fill
grestore
stroke
grestore
} bind def
57.6 188.352 o
grestore
gsave
18.818750 184.555125 translate
0.000000 rotate
0.000000 0.000000 m /zero glyphshow
6.362305 0.000000 m /b glyphshow
12.709961 0.000000 m /zero glyphshow
19.072266 0.000000 m /zero glyphshow
25.434570 0.000000 m /zero glyphshow
grestore
[2.96 1.28] 0 setdash
0.690 setgray
gsave
357.1 266.1 57.6 38.02 clipbox
57.6 222.912 m
414.72 222.912 l
stroke
grestore
[] 0 setdash
0.000 setgray
gsave
/o {
gsave
newpath
translate
0.8 setlinewidth
1 setlinejoin
0 setlinecap
0 0 m
-3.5 0 l

gsave
0.000 setgray
fill
grestore
stroke
grestore
} bind def
57.6 222.912 o
grestore
gsave
18.818750 219.115125 translate
0.000000 rotate
0.000000 0.000000 m /zero glyphshow
6.362305 0.000000 m /b glyphshow
12.709961 0.000000 m /zero glyphshow
19.072266 0.000000 m /zero glyphshow
25.434570 0.000000 m /one glyphshow
grestore
[2.96 1.28] 0 setdash
0.690 setgray
gsave
357.1 266.1 57.6 38.02 clipbox
57.6 257.472 m
414.72 257.472 l
stroke
grestore
[] 0 setdash
0.000 setgray
gsave
/o {
gsave
newpath
translate
0.8 setlinewidth
1 setlinejoin
0 setlinecap
0 0 m
-3.5 0 l

gsave
0.000 setgray
fill
grestore
stroke
grestore
} bind def
57.6 257.472 o
grestore
gsave
18.818750 253.675125 translate
0.000000 rotate
0.000000 0.000000 m /zero glyphshow
6.362305 0.000000 m /b glyphshow
12.709961 0.000000 m /zero glyphshow
19.072266 0.000000 m /one glyphshow
25.434570 0.000000 m /zero glyphshow
grestore
[2.96 1.28] 0 setdash
0.690 setgray
gsave
357.1 266.1 57.6 38.02 clipbox
57.6 292.032 m
414.72 292.032 l
stroke
grestore
[] 0 setdash
0.000 setgray
gsave
/o {
gsave
newpath
translate
0.8 setlinewidth
1 setlinejoin
0 setlinecap
0 0 m
-3.5 0 l

gsave
0.000 setgray
fill
grestore
stroke
grestore
} bind def
57.6 292.032 o
grestore
gsave
18.818750 288.235125 translate
0.000000 rotate
0.000000 0.000000 m /zero glyphshow
6.362305 0.000000 m /b glyphshow
12.709961 0.000000 m /zero glyphshow
19.072266 0.000000 m /one glyphshow
25.434570 0.000000 m /one glyphshow
grestore
gsave
12.459375 147.150125 translate
90.000000 rotate
0.000000 0.000000 m /A glyphshow
6.840820 0.000000 m /D glyphshow
14.541016 0.000000 m /C glyphshow
21.523438 0.000000 m /underscore glyphshow
26.523438 0.000000 m /O glyphshow
34.394531 0.000000 m /U glyphshow
41.713867 0.000000 m /T glyphshow
grestore
1.500 setlinewidth
2 setlinecap
0.102 setgray
gsave
357.1 266.1 57.6 38.02 clipbox
73.832727 50.112 m
97.022338 50.112 l
97.022338 84.672 l
143.401558 84.672 l
143.401558 119.232 l
189.780779 119.232 l
189.780779 153.792 l
236.16 153.792 l
236.16 188.352 l
282.539221 188.352 l
282.539221 222.912 l
328.918442 222.912 l
328.918442 257.472 l
375.297662 257.472 l
375.297662 292.032 l
398.487273 292.032 l
stroke
grestore
0.800 setlinewidth
0 setlinejoin
[] 0 setdash
0.000 setgray
gsave
57.6 38.016 m
57.6 304.128 l
stroke
grestore
gsave
414.72 38.016 m
414.72 304.128 l
stroke
grestore
gsave
57.6 38.016 m
414.72 38.016 l
stroke
grestore
gsave
57.6 304.128 m
414.72 304.128 l
stroke
grestore

end
showpage
