%!PS-Adobe-3.0 EPSF-3.0
%%Title: /run/media/usuario/Data1/documents/201819-2010068-trabajo-fin-de-grado/trabajo-fin-de-grado/resources/Figure3.eps
%%Creator: matplotlib version 3.1.1, http://matplotlib.org/
%%CreationDate: Wed Aug  7 18:47:43 2019
%%Orientation: portrait
%%BoundingBox: -150.48 182.88 762.48 609.12
%%EndComments
%%BeginProlog
/mpldict 8 dict def
mpldict begin
/m { moveto } bind def
/l { lineto } bind def
/r { rlineto } bind def
/c { curveto } bind def
/cl { closepath } bind def
/box {
m
1 index 0 r
0 exch r
neg 0 r
cl
} bind def
/clipbox {
box
clip
newpath
} bind def
%!PS-Adobe-3.0 Resource-Font
%%Title: DejaVu Sans
%%Copyright: Copyright (c) 2003 by Bitstream, Inc. All Rights Reserved. Copyright (c) 2006 by Tavmjong Bah. All Rights Reserved. DejaVu changes are in public domain 
%%Creator: Converted from TrueType to type 3 by PPR
25 dict begin
/_d{bind def}bind def
/_m{moveto}_d
/_l{lineto}_d
/_cl{closepath eofill}_d
/_c{curveto}_d
/_sc{7 -1 roll{setcachedevice}{pop pop pop pop pop pop}ifelse}_d
/_e{exec}_d
/FontName /DejaVuSans def
/PaintType 0 def
/FontMatrix[.001 0 0 .001 0 0]def
/FontBBox[-1021 -463 1793 1232]def
/FontType 3 def
/Encoding [ /space /period /zero /one /two /four /six /eight /O /bracketleft /bracketright /p /s /t /u ] def
/FontInfo 10 dict dup begin
/FamilyName (DejaVu Sans) def
/FullName (DejaVu Sans) def
/Notice (Copyright (c) 2003 by Bitstream, Inc. All Rights Reserved. Copyright (c) 2006 by Tavmjong Bah. All Rights Reserved. DejaVu changes are in public domain ) def
/Weight (Book) def
/Version (Version 2.35) def
/ItalicAngle 0.0 def
/isFixedPitch false def
/UnderlinePosition -130 def
/UnderlineThickness 90 def
end readonly def
/CharStrings 16 dict dup begin
/.notdef 0 def
/space{318 0 0 0 0 0 _sc
}_d
/period{318 0 107 0 210 124 _sc
107 124 _m
210 124 _l
210 0 _l
107 0 _l
107 124 _l
_cl}_d
/zero{636 0 66 -13 570 742 _sc
318 664 _m
267 664 229 639 203 589 _c
177 539 165 464 165 364 _c
165 264 177 189 203 139 _c
229 89 267 64 318 64 _c
369 64 407 89 433 139 _c
458 189 471 264 471 364 _c
471 464 458 539 433 589 _c
407 639 369 664 318 664 _c
318 742 _m
399 742 461 709 505 645 _c
548 580 570 486 570 364 _c
570 241 548 147 505 83 _c
461 19 399 -13 318 -13 _c
236 -13 173 19 130 83 _c
87 147 66 241 66 364 _c
66 486 87 580 130 645 _c
173 709 236 742 318 742 _c
_cl}_d
/one{636 0 110 0 544 729 _sc
124 83 _m
285 83 _l
285 639 _l
110 604 _l
110 694 _l
284 729 _l
383 729 _l
383 83 _l
544 83 _l
544 0 _l
124 0 _l
124 83 _l
_cl}_d
/two{{636 0 73 0 536 742 _sc
192 83 _m
536 83 _l
536 0 _l
73 0 _l
73 83 _l
110 121 161 173 226 239 _c
290 304 331 346 348 365 _c
380 400 402 430 414 455 _c
426 479 433 504 433 528 _c
433 566 419 598 392 622 _c
365 646 330 659 286 659 _c
255 659 222 653 188 643 _c
154 632 117 616 78 594 _c
78 694 _l
118 710 155 722 189 730 _c
223 738 255 742 284 742 _c
}_e{359 742 419 723 464 685 _c
509 647 532 597 532 534 _c
532 504 526 475 515 449 _c
504 422 484 390 454 354 _c
446 344 420 317 376 272 _c
332 227 271 164 192 83 _c
_cl}_e}_d
/four{636 0 49 0 580 729 _sc
378 643 _m
129 254 _l
378 254 _l
378 643 _l
352 729 _m
476 729 _l
476 254 _l
580 254 _l
580 172 _l
476 172 _l
476 0 _l
378 0 _l
378 172 _l
49 172 _l
49 267 _l
352 729 _l
_cl}_d
/six{{636 0 70 -13 573 742 _sc
330 404 _m
286 404 251 388 225 358 _c
199 328 186 286 186 234 _c
186 181 199 139 225 109 _c
251 79 286 64 330 64 _c
374 64 409 79 435 109 _c
461 139 474 181 474 234 _c
474 286 461 328 435 358 _c
409 388 374 404 330 404 _c
526 713 _m
526 623 _l
501 635 476 644 451 650 _c
425 656 400 659 376 659 _c
310 659 260 637 226 593 _c
}_e{192 549 172 482 168 394 _c
187 422 211 444 240 459 _c
269 474 301 482 336 482 _c
409 482 467 459 509 415 _c
551 371 573 310 573 234 _c
573 159 550 99 506 54 _c
462 9 403 -13 330 -13 _c
246 -13 181 19 137 83 _c
92 147 70 241 70 364 _c
70 479 97 571 152 639 _c
206 707 280 742 372 742 _c
396 742 421 739 447 735 _c
472 730 498 723 526 713 _c
_cl}_e}_d
/eight{{636 0 68 -13 568 742 _sc
318 346 _m
271 346 234 333 207 308 _c
180 283 167 249 167 205 _c
167 161 180 126 207 101 _c
234 76 271 64 318 64 _c
364 64 401 76 428 102 _c
455 127 469 161 469 205 _c
469 249 455 283 429 308 _c
402 333 365 346 318 346 _c
219 388 _m
177 398 144 418 120 447 _c
96 476 85 511 85 553 _c
85 611 105 657 147 691 _c
188 725 245 742 318 742 _c
}_e{390 742 447 725 489 691 _c
530 657 551 611 551 553 _c
551 511 539 476 515 447 _c
491 418 459 398 417 388 _c
464 377 501 355 528 323 _c
554 291 568 251 568 205 _c
568 134 546 80 503 43 _c
459 5 398 -13 318 -13 _c
237 -13 175 5 132 43 _c
89 80 68 134 68 205 _c
68 251 81 291 108 323 _c
134 355 171 377 219 388 _c
183 544 _m
183 506 194 476 218 455 _c
}_e{242 434 275 424 318 424 _c
360 424 393 434 417 455 _c
441 476 453 506 453 544 _c
453 582 441 611 417 632 _c
393 653 360 664 318 664 _c
275 664 242 653 218 632 _c
194 611 183 582 183 544 _c
_cl}_e}_d
/O{787 0 56 -13 731 742 _sc
394 662 _m
322 662 265 635 223 582 _c
181 528 160 456 160 364 _c
160 272 181 199 223 146 _c
265 92 322 66 394 66 _c
465 66 522 92 564 146 _c
606 199 627 272 627 364 _c
627 456 606 528 564 582 _c
522 635 465 662 394 662 _c
394 742 _m
496 742 577 707 639 639 _c
700 571 731 479 731 364 _c
731 248 700 157 639 89 _c
577 21 496 -13 394 -13 _c
291 -13 209 21 148 89 _c
86 157 56 248 56 364 _c
56 479 86 571 148 639 _c
209 707 291 742 394 742 _c
_cl}_d
/bracketleft{390 0 86 -131 293 760 _sc
86 760 _m
293 760 _l
293 690 _l
176 690 _l
176 -61 _l
293 -61 _l
293 -131 _l
86 -131 _l
86 760 _l
_cl}_d
/bracketright{390 0 97 -131 304 760 _sc
304 760 _m
304 -131 _l
97 -131 _l
97 -61 _l
214 -61 _l
214 690 _l
97 690 _l
97 760 _l
304 760 _l
_cl}_d
/p{{635 0 91 -207 580 560 _sc
181 82 _m
181 -207 _l
91 -207 _l
91 547 _l
181 547 _l
181 464 _l
199 496 223 520 252 536 _c
281 552 316 560 356 560 _c
422 560 476 533 518 481 _c
559 428 580 359 580 273 _c
580 187 559 117 518 65 _c
476 13 422 -13 356 -13 _c
316 -13 281 -5 252 10 _c
223 25 199 49 181 82 _c
487 273 _m
487 339 473 390 446 428 _c
418 466 381 485 334 485 _c
}_e{286 485 249 466 222 428 _c
194 390 181 339 181 273 _c
181 207 194 155 222 117 _c
249 79 286 61 334 61 _c
381 61 418 79 446 117 _c
473 155 487 207 487 273 _c
_cl}_e}_d
/s{{521 0 54 -13 472 560 _sc
443 531 _m
443 446 _l
417 458 391 468 364 475 _c
336 481 308 485 279 485 _c
234 485 200 478 178 464 _c
156 450 145 430 145 403 _c
145 382 153 366 169 354 _c
185 342 217 330 265 320 _c
296 313 _l
360 299 405 279 432 255 _c
458 230 472 195 472 151 _c
472 100 452 60 412 31 _c
372 1 316 -13 246 -13 _c
216 -13 186 -10 154 -5 _c
}_e{122 0 89 8 54 20 _c
54 113 _l
87 95 120 82 152 74 _c
184 65 216 61 248 61 _c
290 61 323 68 346 82 _c
368 96 380 117 380 144 _c
380 168 371 187 355 200 _c
339 213 303 226 247 238 _c
216 245 _l
160 257 119 275 95 299 _c
70 323 58 356 58 399 _c
58 450 76 490 112 518 _c
148 546 200 560 268 560 _c
301 560 332 557 362 552 _c
391 547 418 540 443 531 _c
}_e{_cl}_e}_d
/t{392 0 27 0 368 702 _sc
183 702 _m
183 547 _l
368 547 _l
368 477 _l
183 477 _l
183 180 _l
183 135 189 106 201 94 _c
213 81 238 75 276 75 _c
368 75 _l
368 0 _l
276 0 _l
206 0 158 13 132 39 _c
106 65 93 112 93 180 _c
93 477 _l
27 477 _l
27 547 _l
93 547 _l
93 702 _l
183 702 _l
_cl}_d
/u{634 0 85 -13 543 560 _sc
85 216 _m
85 547 _l
175 547 _l
175 219 _l
175 167 185 129 205 103 _c
225 77 255 64 296 64 _c
344 64 383 79 411 110 _c
439 141 453 183 453 237 _c
453 547 _l
543 547 _l
543 0 _l
453 0 _l
453 84 _l
431 50 405 26 377 10 _c
348 -5 315 -13 277 -13 _c
214 -13 166 6 134 45 _c
101 83 85 140 85 216 _c
311 560 _m
311 560 _l
_cl}_d
end readonly def

/BuildGlyph
 {exch begin
 CharStrings exch
 2 copy known not{pop /.notdef}if
 true 3 1 roll get exec
 end}_d

/BuildChar {
 1 index /Encoding get exch get
 1 index /BuildGlyph get exec
}_d

FontName currentdict end definefont pop
end
%%EndProlog
mpldict begin
-150.48 182.88 translate
912.96 426.24 0 0 clipbox
gsave
0 0 m
912.96 0 l
912.96 426.24 l
0 426.24 l
cl
1.000 setgray
fill
grestore
gsave
114.12 46.8864 m
821.664 46.8864 l
821.664 375.0912 l
114.12 375.0912 l
cl
1.000 setgray
fill
grestore
0.800 setlinewidth
1 setlinejoin
0 setlinecap
[2.96 1.28] 0 setdash
0.690 setgray
gsave
707.5 328.2 114.1 46.89 clipbox
146.281091 46.8864 m
146.281091 375.0912 l
stroke
grestore
[] 0 setdash
0.000 setgray
gsave
/o {
gsave
newpath
translate
0.8 setlinewidth
1 setlinejoin
0 setlinecap
0 0 m
0 -3.5 l

gsave
0.000 setgray
fill
grestore
stroke
grestore
} bind def
146.281 46.8864 o
grestore
/DejaVuSans findfont
10.000 scalefont
setfont
gsave
138.327966 32.292650 translate
0.000000 rotate
0.000000 0.000000 m /zero glyphshow
6.362305 0.000000 m /period glyphshow
9.541016 0.000000 m /zero glyphshow
grestore
[2.96 1.28] 0 setdash
0.690 setgray
gsave
707.5 328.2 114.1 46.89 clipbox
250.870004 46.8864 m
250.870004 375.0912 l
stroke
grestore
[] 0 setdash
0.000 setgray
gsave
/o {
gsave
newpath
translate
0.8 setlinewidth
1 setlinejoin
0 setlinecap
0 0 m
0 -3.5 l

gsave
0.000 setgray
fill
grestore
stroke
grestore
} bind def
250.87 46.8864 o
grestore
gsave
242.916879 32.292650 translate
0.000000 rotate
0.000000 0.000000 m /zero glyphshow
6.362305 0.000000 m /period glyphshow
9.541016 0.000000 m /two glyphshow
grestore
[2.96 1.28] 0 setdash
0.690 setgray
gsave
707.5 328.2 114.1 46.89 clipbox
355.458918 46.8864 m
355.458918 375.0912 l
stroke
grestore
[] 0 setdash
0.000 setgray
gsave
/o {
gsave
newpath
translate
0.8 setlinewidth
1 setlinejoin
0 setlinecap
0 0 m
0 -3.5 l

gsave
0.000 setgray
fill
grestore
stroke
grestore
} bind def
355.459 46.8864 o
grestore
gsave
347.505793 32.292650 translate
0.000000 rotate
0.000000 0.000000 m /zero glyphshow
6.362305 0.000000 m /period glyphshow
9.541016 0.000000 m /four glyphshow
grestore
[2.96 1.28] 0 setdash
0.690 setgray
gsave
707.5 328.2 114.1 46.89 clipbox
460.047831 46.8864 m
460.047831 375.0912 l
stroke
grestore
[] 0 setdash
0.000 setgray
gsave
/o {
gsave
newpath
translate
0.8 setlinewidth
1 setlinejoin
0 setlinecap
0 0 m
0 -3.5 l

gsave
0.000 setgray
fill
grestore
stroke
grestore
} bind def
460.048 46.8864 o
grestore
gsave
452.094706 32.292650 translate
0.000000 rotate
0.000000 0.000000 m /zero glyphshow
6.362305 0.000000 m /period glyphshow
9.541016 0.000000 m /six glyphshow
grestore
[2.96 1.28] 0 setdash
0.690 setgray
gsave
707.5 328.2 114.1 46.89 clipbox
564.636745 46.8864 m
564.636745 375.0912 l
stroke
grestore
[] 0 setdash
0.000 setgray
gsave
/o {
gsave
newpath
translate
0.8 setlinewidth
1 setlinejoin
0 setlinecap
0 0 m
0 -3.5 l

gsave
0.000 setgray
fill
grestore
stroke
grestore
} bind def
564.637 46.8864 o
grestore
gsave
556.683620 32.292650 translate
0.000000 rotate
0.000000 0.000000 m /zero glyphshow
6.362305 0.000000 m /period glyphshow
9.541016 0.000000 m /eight glyphshow
grestore
[2.96 1.28] 0 setdash
0.690 setgray
gsave
707.5 328.2 114.1 46.89 clipbox
669.225659 46.8864 m
669.225659 375.0912 l
stroke
grestore
[] 0 setdash
0.000 setgray
gsave
/o {
gsave
newpath
translate
0.8 setlinewidth
1 setlinejoin
0 setlinecap
0 0 m
0 -3.5 l

gsave
0.000 setgray
fill
grestore
stroke
grestore
} bind def
669.226 46.8864 o
grestore
gsave
661.272534 32.292650 translate
0.000000 rotate
0.000000 0.000000 m /one glyphshow
6.362305 0.000000 m /period glyphshow
9.541016 0.000000 m /zero glyphshow
grestore
[2.96 1.28] 0 setdash
0.690 setgray
gsave
707.5 328.2 114.1 46.89 clipbox
773.814572 46.8864 m
773.814572 375.0912 l
stroke
grestore
[] 0 setdash
0.000 setgray
gsave
/o {
gsave
newpath
translate
0.8 setlinewidth
1 setlinejoin
0 setlinecap
0 0 m
0 -3.5 l

gsave
0.000 setgray
fill
grestore
stroke
grestore
} bind def
773.815 46.8864 o
grestore
gsave
765.861447 32.292650 translate
0.000000 rotate
0.000000 0.000000 m /one glyphshow
6.362305 0.000000 m /period glyphshow
9.541016 0.000000 m /two glyphshow
grestore
gsave
457.821688 18.620775 translate
0.000000 rotate
0.000000 0.000000 m /t glyphshow
3.920898 0.000000 m /space glyphshow
7.099609 0.000000 m /bracketleft glyphshow
11.000977 0.000000 m /s glyphshow
16.210938 0.000000 m /bracketright glyphshow
grestore
[2.96 1.28] 0 setdash
0.690 setgray
gsave
707.5 328.2 114.1 46.89 clipbox
114.12 61.8048 m
821.664 61.8048 l
stroke
grestore
[] 0 setdash
0.000 setgray
gsave
/o {
gsave
newpath
translate
0.8 setlinewidth
1 setlinejoin
0 setlinecap
0 0 m
-3.5 0 l

gsave
0.000 setgray
fill
grestore
stroke
grestore
} bind def
114.12 61.8048 o
grestore
gsave
91.213750 58.007925 translate
0.000000 rotate
0.000000 0.000000 m /zero glyphshow
6.362305 0.000000 m /period glyphshow
9.541016 0.000000 m /zero glyphshow
grestore
[2.96 1.28] 0 setdash
0.690 setgray
gsave
707.5 328.2 114.1 46.89 clipbox
114.12 117.535186 m
821.664 117.535186 l
stroke
grestore
[] 0 setdash
0.000 setgray
gsave
/o {
gsave
newpath
translate
0.8 setlinewidth
1 setlinejoin
0 setlinecap
0 0 m
-3.5 0 l

gsave
0.000 setgray
fill
grestore
stroke
grestore
} bind def
114.12 117.535 o
grestore
gsave
91.213750 113.738311 translate
0.000000 rotate
0.000000 0.000000 m /zero glyphshow
6.362305 0.000000 m /period glyphshow
9.541016 0.000000 m /two glyphshow
grestore
[2.96 1.28] 0 setdash
0.690 setgray
gsave
707.5 328.2 114.1 46.89 clipbox
114.12 173.265571 m
821.664 173.265571 l
stroke
grestore
[] 0 setdash
0.000 setgray
gsave
/o {
gsave
newpath
translate
0.8 setlinewidth
1 setlinejoin
0 setlinecap
0 0 m
-3.5 0 l

gsave
0.000 setgray
fill
grestore
stroke
grestore
} bind def
114.12 173.266 o
grestore
gsave
91.213750 169.468696 translate
0.000000 rotate
0.000000 0.000000 m /zero glyphshow
6.362305 0.000000 m /period glyphshow
9.541016 0.000000 m /four glyphshow
grestore
[2.96 1.28] 0 setdash
0.690 setgray
gsave
707.5 328.2 114.1 46.89 clipbox
114.12 228.995957 m
821.664 228.995957 l
stroke
grestore
[] 0 setdash
0.000 setgray
gsave
/o {
gsave
newpath
translate
0.8 setlinewidth
1 setlinejoin
0 setlinecap
0 0 m
-3.5 0 l

gsave
0.000 setgray
fill
grestore
stroke
grestore
} bind def
114.12 228.996 o
grestore
gsave
91.213750 225.199082 translate
0.000000 rotate
0.000000 0.000000 m /zero glyphshow
6.362305 0.000000 m /period glyphshow
9.541016 0.000000 m /six glyphshow
grestore
[2.96 1.28] 0 setdash
0.690 setgray
gsave
707.5 328.2 114.1 46.89 clipbox
114.12 284.726342 m
821.664 284.726342 l
stroke
grestore
[] 0 setdash
0.000 setgray
gsave
/o {
gsave
newpath
translate
0.8 setlinewidth
1 setlinejoin
0 setlinecap
0 0 m
-3.5 0 l

gsave
0.000 setgray
fill
grestore
stroke
grestore
} bind def
114.12 284.726 o
grestore
gsave
91.213750 280.929467 translate
0.000000 rotate
0.000000 0.000000 m /zero glyphshow
6.362305 0.000000 m /period glyphshow
9.541016 0.000000 m /eight glyphshow
grestore
[2.96 1.28] 0 setdash
0.690 setgray
gsave
707.5 328.2 114.1 46.89 clipbox
114.12 340.456728 m
821.664 340.456728 l
stroke
grestore
[] 0 setdash
0.000 setgray
gsave
/o {
gsave
newpath
translate
0.8 setlinewidth
1 setlinejoin
0 setlinecap
0 0 m
-3.5 0 l

gsave
0.000 setgray
fill
grestore
stroke
grestore
} bind def
114.12 340.457 o
grestore
gsave
91.213750 336.659853 translate
0.000000 rotate
0.000000 0.000000 m /one glyphshow
6.362305 0.000000 m /period glyphshow
9.541016 0.000000 m /zero glyphshow
grestore
gsave
85.135625 193.613800 translate
90.000000 rotate
0.000000 0.000000 m /O glyphshow
7.871094 0.000000 m /u glyphshow
14.208984 0.000000 m /t glyphshow
18.129883 0.000000 m /p glyphshow
24.477539 0.000000 m /u glyphshow
30.815430 0.000000 m /t glyphshow
grestore
1.500 setlinewidth
0.102 setgray
gsave
707.5 328.2 114.1 46.89 clipbox
146.281091 61.8048 m
146.281091 61.8048 l
stroke
grestore
gsave
707.5 328.2 114.1 46.89 clipbox
152.556426 61.8048 m
152.556426 61.962491 l
stroke
grestore
gsave
707.5 328.2 114.1 46.89 clipbox
159.354705 61.8048 m
159.354705 62.873698 l
stroke
grestore
gsave
707.5 328.2 114.1 46.89 clipbox
165.63004 61.8048 m
165.63004 78.288683 l
stroke
grestore
gsave
707.5 328.2 114.1 46.89 clipbox
172.428319 61.8048 m
172.428319 144.78038 l
stroke
grestore
gsave
707.5 328.2 114.1 46.89 clipbox
179.226599 61.8048 m
179.226599 246.698685 l
stroke
grestore
gsave
707.5 328.2 114.1 46.89 clipbox
185.501933 61.8048 m
185.501933 326.751792 l
stroke
grestore
gsave
707.5 328.2 114.1 46.89 clipbox
192.300213 61.8048 m
192.300213 358.166255 l
stroke
grestore
gsave
707.5 328.2 114.1 46.89 clipbox
198.575548 61.8048 m
198.575548 360.1728 l
stroke
grestore
gsave
707.5 328.2 114.1 46.89 clipbox
205.373827 61.8048 m
205.373827 358.120931 l
stroke
grestore
gsave
707.5 328.2 114.1 46.89 clipbox
211.649162 61.8048 m
211.649162 356.335342 l
stroke
grestore
gsave
707.5 328.2 114.1 46.89 clipbox
218.447441 61.8048 m
218.447441 355.127638 l
stroke
grestore
gsave
707.5 328.2 114.1 46.89 clipbox
224.722776 61.8048 m
224.722776 354.295749 l
stroke
grestore
gsave
707.5 328.2 114.1 46.89 clipbox
231.521055 61.8048 m
231.521055 353.310889 l
stroke
grestore
gsave
707.5 328.2 114.1 46.89 clipbox
238.319335 61.8048 m
238.319335 352.766053 l
stroke
grestore
gsave
707.5 328.2 114.1 46.89 clipbox
244.59467 61.8048 m
244.59467 352.00215 l
stroke
grestore
gsave
707.5 328.2 114.1 46.89 clipbox
251.392949 61.8048 m
251.392949 351.107939 l
stroke
grestore
gsave
707.5 328.2 114.1 46.89 clipbox
257.668284 61.8048 m
257.668284 350.5801 l
stroke
grestore
gsave
707.5 328.2 114.1 46.89 clipbox
264.466563 61.8048 m
264.466563 350.511169 l
stroke
grestore
gsave
707.5 328.2 114.1 46.89 clipbox
270.741898 61.8048 m
270.741898 350.257164 l
stroke
grestore
gsave
707.5 328.2 114.1 46.89 clipbox
277.540177 61.8048 m
277.540177 349.685889 l
stroke
grestore
gsave
707.5 328.2 114.1 46.89 clipbox
283.815512 61.8048 m
283.815512 349.429996 l
stroke
grestore
gsave
707.5 328.2 114.1 46.89 clipbox
290.613792 61.8048 m
290.613792 349.177879 l
stroke
grestore
gsave
707.5 328.2 114.1 46.89 clipbox
297.412071 61.8048 m
297.412071 348.70103 l
stroke
grestore
gsave
707.5 328.2 114.1 46.89 clipbox
303.687406 61.8048 m
303.687406 348.443248 l
stroke
grestore
gsave
707.5 328.2 114.1 46.89 clipbox
310.485685 61.8048 m
310.485685 348.508402 l
stroke
grestore
gsave
707.5 328.2 114.1 46.89 clipbox
316.76102 61.8048 m
316.76102 348.023998 l
stroke
grestore
gsave
707.5 328.2 114.1 46.89 clipbox
323.559299 61.8048 m
323.559299 347.543372 l
stroke
grestore
gsave
707.5 328.2 114.1 46.89 clipbox
329.834634 61.8048 m
329.834634 347.414009 l
stroke
grestore
gsave
707.5 328.2 114.1 46.89 clipbox
336.632914 61.8048 m
336.632914 347.193997 l
stroke
grestore
gsave
707.5 328.2 114.1 46.89 clipbox
342.908248 61.8048 m
342.908248 346.872005 l
stroke
grestore
gsave
707.5 328.2 114.1 46.89 clipbox
349.706528 61.8048 m
349.706528 346.742642 l
stroke
grestore
gsave
707.5 328.2 114.1 46.89 clipbox
356.504807 61.8048 m
356.504807 346.467864 l
stroke
grestore
gsave
707.5 328.2 114.1 46.89 clipbox
362.780142 61.8048 m
362.780142 346.393268 l
stroke
grestore
gsave
707.5 328.2 114.1 46.89 clipbox
369.578421 61.8048 m
369.578421 345.820104 l
stroke
grestore
gsave
707.5 328.2 114.1 46.89 clipbox
375.853756 61.8048 m
375.853756 345.309261 l
stroke
grestore
gsave
707.5 328.2 114.1 46.89 clipbox
382.652035 61.8048 m
382.652035 345.368749 l
stroke
grestore
gsave
707.5 328.2 114.1 46.89 clipbox
388.92737 61.8048 m
388.92737 345.318704 l
stroke
grestore
gsave
707.5 328.2 114.1 46.89 clipbox
395.72565 61.8048 m
395.72565 345.166679 l
stroke
grestore
gsave
707.5 328.2 114.1 46.89 clipbox
402.000984 61.8048 m
402.000984 344.682275 l
stroke
grestore
gsave
707.5 328.2 114.1 46.89 clipbox
408.799264 61.8048 m
408.799264 344.641672 l
stroke
grestore
gsave
707.5 328.2 114.1 46.89 clipbox
415.597543 61.8048 m
415.597543 344.742708 l
stroke
grestore
gsave
707.5 328.2 114.1 46.89 clipbox
421.872878 61.8048 m
421.872878 344.365949 l
stroke
grestore
gsave
707.5 328.2 114.1 46.89 clipbox
428.671157 61.8048 m
428.671157 344.246029 l
stroke
grestore
gsave
707.5 328.2 114.1 46.89 clipbox
434.946492 61.8048 m
434.946492 343.948588 l
stroke
grestore
gsave
707.5 328.2 114.1 46.89 clipbox
441.744772 61.8048 m
441.744772 344.130829 l
stroke
grestore
gsave
707.5 328.2 114.1 46.89 clipbox
448.020106 61.8048 m
448.020106 344.265858 l
stroke
grestore
gsave
707.5 328.2 114.1 46.89 clipbox
454.818386 61.8048 m
454.818386 344.227144 l
stroke
grestore
gsave
707.5 328.2 114.1 46.89 clipbox
461.093721 61.8048 m
461.093721 343.910818 l
stroke
grestore
gsave
707.5 328.2 114.1 46.89 clipbox
467.892 61.8048 m
467.892 343.654924 l
stroke
grestore
gsave
707.5 328.2 114.1 46.89 clipbox
474.690279 61.8048 m
474.690279 343.580328 l
stroke
grestore
gsave
707.5 328.2 114.1 46.89 clipbox
480.965614 61.8048 m
480.965614 343.534059 l
stroke
grestore
gsave
707.5 328.2 114.1 46.89 clipbox
487.763894 61.8048 m
487.763894 343.714412 l
stroke
grestore
gsave
707.5 328.2 114.1 46.89 clipbox
494.039228 61.8048 m
494.039228 343.673809 l
stroke
grestore
gsave
707.5 328.2 114.1 46.89 clipbox
500.837508 61.8048 m
500.837508 343.612433 l
stroke
grestore
gsave
707.5 328.2 114.1 46.89 clipbox
507.112843 61.8048 m
507.112843 343.396198 l
stroke
grestore
gsave
707.5 328.2 114.1 46.89 clipbox
513.911122 61.8048 m
513.911122 343.24795 l
stroke
grestore
gsave
707.5 328.2 114.1 46.89 clipbox
520.186457 61.8048 m
520.186457 343.039269 l
stroke
grestore
gsave
707.5 328.2 114.1 46.89 clipbox
526.984736 61.8048 m
526.984736 342.945788 l
stroke
grestore
gsave
707.5 328.2 114.1 46.89 clipbox
533.260071 61.8048 m
533.260071 342.808871 l
stroke
grestore
gsave
707.5 328.2 114.1 46.89 clipbox
540.05835 61.8048 m
540.05835 342.617187 l
stroke
grestore
gsave
707.5 328.2 114.1 46.89 clipbox
546.85663 61.8048 m
546.85663 342.538813 l
stroke
grestore
gsave
707.5 328.2 114.1 46.89 clipbox
553.131965 61.8048 m
553.131965 342.505764 l
stroke
grestore
gsave
707.5 328.2 114.1 46.89 clipbox
559.930244 61.8048 m
559.930244 342.591692 l
stroke
grestore
gsave
707.5 328.2 114.1 46.89 clipbox
566.205579 61.8048 m
566.205579 342.21871 l
stroke
grestore
gsave
707.5 328.2 114.1 46.89 clipbox
573.003858 61.8048 m
573.003858 342.151668 l
stroke
grestore
gsave
707.5 328.2 114.1 46.89 clipbox
579.279193 61.8048 m
579.279193 342.420781 l
stroke
grestore
gsave
707.5 328.2 114.1 46.89 clipbox
586.077472 61.8048 m
586.077472 342.217766 l
stroke
grestore
gsave
707.5 328.2 114.1 46.89 clipbox
592.352807 61.8048 m
592.352807 341.931656 l
stroke
grestore
gsave
707.5 328.2 114.1 46.89 clipbox
599.151086 61.8048 m
599.151086 342.045911 l
stroke
grestore
gsave
707.5 328.2 114.1 46.89 clipbox
605.949366 61.8048 m
605.949366 341.941099 l
stroke
grestore
gsave
707.5 328.2 114.1 46.89 clipbox
612.224701 61.8048 m
612.224701 341.611554 l
stroke
grestore
gsave
707.5 328.2 114.1 46.89 clipbox
619.02298 61.8048 m
619.02298 341.733363 l
stroke
grestore
gsave
707.5 328.2 114.1 46.89 clipbox
625.298315 61.8048 m
625.298315 341.78152 l
stroke
grestore
gsave
707.5 328.2 114.1 46.89 clipbox
632.096594 61.8048 m
632.096594 341.786241 l
stroke
grestore
gsave
707.5 328.2 114.1 46.89 clipbox
638.371929 61.8048 m
638.371929 341.620996 l
stroke
grestore
gsave
707.5 328.2 114.1 46.89 clipbox
645.170208 61.8048 m
645.170208 341.637048 l
stroke
grestore
gsave
707.5 328.2 114.1 46.89 clipbox
651.445543 61.8048 m
651.445543 341.320723 l
stroke
grestore
gsave
707.5 328.2 114.1 46.89 clipbox
658.243823 61.8048 m
658.243823 341.098822 l
stroke
grestore
gsave
707.5 328.2 114.1 46.89 clipbox
665.042102 61.8048 m
665.042102 341.043111 l
stroke
grestore
gsave
707.5 328.2 114.1 46.89 clipbox
671.317437 61.8048 m
671.317437 340.807991 l
stroke
grestore
gsave
707.5 328.2 114.1 46.89 clipbox
678.115716 61.8048 m
678.115716 340.801382 l
stroke
grestore
gsave
707.5 328.2 114.1 46.89 clipbox
684.391051 61.8048 m
684.391051 341.019505 l
stroke
grestore
gsave
707.5 328.2 114.1 46.89 clipbox
691.18933 61.8048 m
691.18933 340.80327 l
stroke
grestore
gsave
707.5 328.2 114.1 46.89 clipbox
697.464665 61.8048 m
697.464665 340.804214 l
stroke
grestore
gsave
707.5 328.2 114.1 46.89 clipbox
704.262945 61.8048 m
704.262945 340.578537 l
stroke
grestore
gsave
707.5 328.2 114.1 46.89 clipbox
710.538279 61.8048 m
710.538279 340.498275 l
stroke
grestore
gsave
707.5 328.2 114.1 46.89 clipbox
717.336559 61.8048 m
717.336559 340.812713 l
stroke
grestore
gsave
707.5 328.2 114.1 46.89 clipbox
724.134838 61.8048 m
724.134838 340.687127 l
stroke
grestore
gsave
707.5 328.2 114.1 46.89 clipbox
730.410173 61.8048 m
730.410173 340.425568 l
stroke
grestore
gsave
707.5 328.2 114.1 46.89 clipbox
737.208452 61.8048 m
737.208452 340.299982 l
stroke
grestore
gsave
707.5 328.2 114.1 46.89 clipbox
743.483787 61.8048 m
743.483787 340.321699 l
stroke
grestore
gsave
707.5 328.2 114.1 46.89 clipbox
750.282067 61.8048 m
750.282067 340.488833 l
stroke
grestore
gsave
707.5 328.2 114.1 46.89 clipbox
756.557401 61.8048 m
756.557401 339.993098 l
stroke
grestore
gsave
707.5 328.2 114.1 46.89 clipbox
763.355681 61.8048 m
763.355681 339.941164 l
stroke
grestore
gsave
707.5 328.2 114.1 46.89 clipbox
769.631016 61.8048 m
769.631016 339.906227 l
stroke
grestore
gsave
707.5 328.2 114.1 46.89 clipbox
776.429295 61.8048 m
776.429295 339.808968 l
stroke
grestore
gsave
707.5 328.2 114.1 46.89 clipbox
782.70463 61.8048 m
782.70463 339.641835 l
stroke
grestore
gsave
707.5 328.2 114.1 46.89 clipbox
789.502909 61.8048 m
789.502909 339.442597 l
stroke
grestore
1.000 setlinewidth
0.000 setgray
gsave
707.5 328.2 114.1 46.89 clipbox
/o {
gsave
newpath
translate
1.0 setlinewidth
1 setlinejoin
0 setlinecap
0 -3 m
0.795609 -3 1.55874 -2.683901 2.12132 -2.12132 c
2.683901 -1.55874 3 -0.795609 3 0 c
3 0.795609 2.683901 1.55874 2.12132 2.12132 c
1.55874 2.683901 0.795609 3 0 3 c
-0.795609 3 -1.55874 2.683901 -2.12132 2.12132 c
-2.683901 1.55874 -3 0.795609 -3 0 c
-3 -0.795609 -2.683901 -1.55874 -2.12132 -2.12132 c
-1.55874 -2.683901 -0.795609 -3 0 -3 c
cl

gsave
0.000 setgray
fill
grestore
stroke
grestore
} bind def
146.281 61.8048 o
152.556 61.9625 o
159.355 62.8737 o
165.63 78.2887 o
172.428 144.78 o
179.227 246.699 o
185.502 326.752 o
192.3 358.166 o
198.576 360.173 o
205.374 358.121 o
211.649 356.335 o
218.447 355.128 o
224.723 354.296 o
231.521 353.311 o
238.319 352.766 o
244.595 352.002 o
251.393 351.108 o
257.668 350.58 o
264.467 350.511 o
270.742 350.257 o
277.54 349.686 o
283.816 349.43 o
290.614 349.178 o
297.412 348.701 o
303.687 348.443 o
310.486 348.508 o
316.761 348.024 o
323.559 347.543 o
329.835 347.414 o
336.633 347.194 o
342.908 346.872 o
349.707 346.743 o
356.505 346.468 o
362.78 346.393 o
369.578 345.82 o
375.854 345.309 o
382.652 345.369 o
388.927 345.319 o
395.726 345.167 o
402.001 344.682 o
408.799 344.642 o
415.598 344.743 o
421.873 344.366 o
428.671 344.246 o
434.946 343.949 o
441.745 344.131 o
448.02 344.266 o
454.818 344.227 o
461.094 343.911 o
467.892 343.655 o
474.69 343.58 o
480.966 343.534 o
487.764 343.714 o
494.039 343.674 o
500.838 343.612 o
507.113 343.396 o
513.911 343.248 o
520.186 343.039 o
526.985 342.946 o
533.26 342.809 o
540.058 342.617 o
546.857 342.539 o
553.132 342.506 o
559.93 342.592 o
566.206 342.219 o
573.004 342.152 o
579.279 342.421 o
586.077 342.218 o
592.353 341.932 o
599.151 342.046 o
605.949 341.941 o
612.225 341.612 o
619.023 341.733 o
625.298 341.782 o
632.097 341.786 o
638.372 341.621 o
645.17 341.637 o
651.446 341.321 o
658.244 341.099 o
665.042 341.043 o
671.317 340.808 o
678.116 340.801 o
684.391 341.02 o
691.189 340.803 o
697.465 340.804 o
704.263 340.579 o
710.538 340.498 o
717.337 340.813 o
724.135 340.687 o
730.41 340.426 o
737.208 340.3 o
743.484 340.322 o
750.282 340.489 o
756.557 339.993 o
763.356 339.941 o
769.631 339.906 o
776.429 339.809 o
782.705 339.642 o
789.503 339.443 o
grestore
1.500 setlinewidth
[5.55 2.4] 0 setdash
gsave
707.5 328.2 114.1 46.89 clipbox
146.281091 61.8048 m
789.502909 61.8048 l
stroke
grestore
0.800 setlinewidth
0 setlinejoin
2 setlinecap
[] 0 setdash
gsave
114.12 46.8864 m
114.12 375.0912 l
stroke
grestore
gsave
821.664 46.8864 m
821.664 375.0912 l
stroke
grestore
gsave
114.12 46.8864 m
821.664 46.8864 l
stroke
grestore
gsave
114.12 375.0912 m
821.664 375.0912 l
stroke
grestore

end
showpage
