%!PS-Adobe-3.0 EPSF-3.0
%%Title: /run/media/usuario/Data1/documents/201819-2010068-trabajo-fin-de-grado/trabajo-fin-de-grado/resources/Figure4.eps
%%Creator: matplotlib version 3.1.1, http://matplotlib.org/
%%CreationDate: Wed Aug  7 19:22:40 2019
%%Orientation: portrait
%%BoundingBox: -150.48 182.88 762.48 609.12
%%EndComments
%%BeginProlog
/mpldict 9 dict def
mpldict begin
/m { moveto } bind def
/l { lineto } bind def
/r { rlineto } bind def
/c { curveto } bind def
/cl { closepath } bind def
/box {
m
1 index 0 r
0 exch r
neg 0 r
cl
} bind def
/clipbox {
box
clip
newpath
} bind def
%!PS-Adobe-3.0 Resource-Font
%%Title: DejaVu Sans
%%Copyright: Copyright (c) 2003 by Bitstream, Inc. All Rights Reserved. Copyright (c) 2006 by Tavmjong Bah. All Rights Reserved. DejaVu changes are in public domain 
%%Creator: Converted from TrueType to type 3 by PPR
25 dict begin
/_d{bind def}bind def
/_m{moveto}_d
/_l{lineto}_d
/_cl{closepath eofill}_d
/_c{curveto}_d
/_sc{7 -1 roll{setcachedevice}{pop pop pop pop pop pop}ifelse}_d
/_e{exec}_d
/FontName /DejaVuSans def
/PaintType 0 def
/FontMatrix[.001 0 0 .001 0 0]def
/FontBBox[-1021 -463 1793 1232]def
/FontType 3 def
/Encoding [ /space /period /zero /one /two /three /four /five /six /eight /bracketleft /bracketright /e /i /m /s /t ] def
/FontInfo 10 dict dup begin
/FamilyName (DejaVu Sans) def
/FullName (DejaVu Sans) def
/Notice (Copyright (c) 2003 by Bitstream, Inc. All Rights Reserved. Copyright (c) 2006 by Tavmjong Bah. All Rights Reserved. DejaVu changes are in public domain ) def
/Weight (Book) def
/Version (Version 2.35) def
/ItalicAngle 0.0 def
/isFixedPitch false def
/UnderlinePosition -130 def
/UnderlineThickness 90 def
end readonly def
/CharStrings 18 dict dup begin
/.notdef 0 def
/space{318 0 0 0 0 0 _sc
}_d
/period{318 0 107 0 210 124 _sc
107 124 _m
210 124 _l
210 0 _l
107 0 _l
107 124 _l
_cl}_d
/zero{636 0 66 -13 570 742 _sc
318 664 _m
267 664 229 639 203 589 _c
177 539 165 464 165 364 _c
165 264 177 189 203 139 _c
229 89 267 64 318 64 _c
369 64 407 89 433 139 _c
458 189 471 264 471 364 _c
471 464 458 539 433 589 _c
407 639 369 664 318 664 _c
318 742 _m
399 742 461 709 505 645 _c
548 580 570 486 570 364 _c
570 241 548 147 505 83 _c
461 19 399 -13 318 -13 _c
236 -13 173 19 130 83 _c
87 147 66 241 66 364 _c
66 486 87 580 130 645 _c
173 709 236 742 318 742 _c
_cl}_d
/one{636 0 110 0 544 729 _sc
124 83 _m
285 83 _l
285 639 _l
110 604 _l
110 694 _l
284 729 _l
383 729 _l
383 83 _l
544 83 _l
544 0 _l
124 0 _l
124 83 _l
_cl}_d
/two{{636 0 73 0 536 742 _sc
192 83 _m
536 83 _l
536 0 _l
73 0 _l
73 83 _l
110 121 161 173 226 239 _c
290 304 331 346 348 365 _c
380 400 402 430 414 455 _c
426 479 433 504 433 528 _c
433 566 419 598 392 622 _c
365 646 330 659 286 659 _c
255 659 222 653 188 643 _c
154 632 117 616 78 594 _c
78 694 _l
118 710 155 722 189 730 _c
223 738 255 742 284 742 _c
}_e{359 742 419 723 464 685 _c
509 647 532 597 532 534 _c
532 504 526 475 515 449 _c
504 422 484 390 454 354 _c
446 344 420 317 376 272 _c
332 227 271 164 192 83 _c
_cl}_e}_d
/three{{636 0 76 -13 556 742 _sc
406 393 _m
453 383 490 362 516 330 _c
542 298 556 258 556 212 _c
556 140 531 84 482 45 _c
432 6 362 -13 271 -13 _c
240 -13 208 -10 176 -4 _c
144 1 110 10 76 22 _c
76 117 _l
103 101 133 89 166 81 _c
198 73 232 69 268 69 _c
330 69 377 81 409 105 _c
441 129 458 165 458 212 _c
458 254 443 288 413 312 _c
383 336 341 349 287 349 _c
}_e{202 349 _l
202 430 _l
291 430 _l
339 430 376 439 402 459 _c
428 478 441 506 441 543 _c
441 580 427 609 401 629 _c
374 649 336 659 287 659 _c
260 659 231 656 200 650 _c
169 644 135 635 98 623 _c
98 711 _l
135 721 170 729 203 734 _c
235 739 266 742 296 742 _c
370 742 429 725 473 691 _c
517 657 539 611 539 553 _c
539 513 527 479 504 451 _c
481 423 448 403 406 393 _c
_cl}_e}_d
/four{636 0 49 0 580 729 _sc
378 643 _m
129 254 _l
378 254 _l
378 643 _l
352 729 _m
476 729 _l
476 254 _l
580 254 _l
580 172 _l
476 172 _l
476 0 _l
378 0 _l
378 172 _l
49 172 _l
49 267 _l
352 729 _l
_cl}_d
/five{{636 0 77 -13 549 729 _sc
108 729 _m
495 729 _l
495 646 _l
198 646 _l
198 467 _l
212 472 227 476 241 478 _c
255 480 270 482 284 482 _c
365 482 429 459 477 415 _c
525 370 549 310 549 234 _c
549 155 524 94 475 51 _c
426 8 357 -13 269 -13 _c
238 -13 207 -10 175 -6 _c
143 -1 111 6 77 17 _c
77 116 _l
106 100 136 88 168 80 _c
199 72 232 69 267 69 _c
}_e{323 69 368 83 401 113 _c
433 143 450 183 450 234 _c
450 284 433 324 401 354 _c
368 384 323 399 267 399 _c
241 399 214 396 188 390 _c
162 384 135 375 108 363 _c
108 729 _l
_cl}_e}_d
/six{{636 0 70 -13 573 742 _sc
330 404 _m
286 404 251 388 225 358 _c
199 328 186 286 186 234 _c
186 181 199 139 225 109 _c
251 79 286 64 330 64 _c
374 64 409 79 435 109 _c
461 139 474 181 474 234 _c
474 286 461 328 435 358 _c
409 388 374 404 330 404 _c
526 713 _m
526 623 _l
501 635 476 644 451 650 _c
425 656 400 659 376 659 _c
310 659 260 637 226 593 _c
}_e{192 549 172 482 168 394 _c
187 422 211 444 240 459 _c
269 474 301 482 336 482 _c
409 482 467 459 509 415 _c
551 371 573 310 573 234 _c
573 159 550 99 506 54 _c
462 9 403 -13 330 -13 _c
246 -13 181 19 137 83 _c
92 147 70 241 70 364 _c
70 479 97 571 152 639 _c
206 707 280 742 372 742 _c
396 742 421 739 447 735 _c
472 730 498 723 526 713 _c
_cl}_e}_d
/eight{{636 0 68 -13 568 742 _sc
318 346 _m
271 346 234 333 207 308 _c
180 283 167 249 167 205 _c
167 161 180 126 207 101 _c
234 76 271 64 318 64 _c
364 64 401 76 428 102 _c
455 127 469 161 469 205 _c
469 249 455 283 429 308 _c
402 333 365 346 318 346 _c
219 388 _m
177 398 144 418 120 447 _c
96 476 85 511 85 553 _c
85 611 105 657 147 691 _c
188 725 245 742 318 742 _c
}_e{390 742 447 725 489 691 _c
530 657 551 611 551 553 _c
551 511 539 476 515 447 _c
491 418 459 398 417 388 _c
464 377 501 355 528 323 _c
554 291 568 251 568 205 _c
568 134 546 80 503 43 _c
459 5 398 -13 318 -13 _c
237 -13 175 5 132 43 _c
89 80 68 134 68 205 _c
68 251 81 291 108 323 _c
134 355 171 377 219 388 _c
183 544 _m
183 506 194 476 218 455 _c
}_e{242 434 275 424 318 424 _c
360 424 393 434 417 455 _c
441 476 453 506 453 544 _c
453 582 441 611 417 632 _c
393 653 360 664 318 664 _c
275 664 242 653 218 632 _c
194 611 183 582 183 544 _c
_cl}_e}_d
/bracketleft{390 0 86 -131 293 760 _sc
86 760 _m
293 760 _l
293 690 _l
176 690 _l
176 -61 _l
293 -61 _l
293 -131 _l
86 -131 _l
86 760 _l
_cl}_d
/bracketright{390 0 97 -131 304 760 _sc
304 760 _m
304 -131 _l
97 -131 _l
97 -61 _l
214 -61 _l
214 690 _l
97 690 _l
97 760 _l
304 760 _l
_cl}_d
/e{{615 0 55 -13 562 560 _sc
562 296 _m
562 252 _l
149 252 _l
153 190 171 142 205 110 _c
238 78 284 62 344 62 _c
378 62 412 66 444 74 _c
476 82 509 95 541 113 _c
541 28 _l
509 14 476 3 442 -3 _c
408 -9 373 -13 339 -13 _c
251 -13 182 12 131 62 _c
80 112 55 181 55 268 _c
55 357 79 428 127 481 _c
175 533 241 560 323 560 _c
397 560 455 536 498 489 _c
}_e{540 441 562 377 562 296 _c
472 322 _m
471 371 457 410 431 440 _c
404 469 368 484 324 484 _c
274 484 234 469 204 441 _c
174 413 156 373 152 322 _c
472 322 _l
_cl}_e}_d
/i{278 0 94 0 184 760 _sc
94 547 _m
184 547 _l
184 0 _l
94 0 _l
94 547 _l
94 760 _m
184 760 _l
184 646 _l
94 646 _l
94 760 _l
_cl}_d
/m{{974 0 91 0 889 560 _sc
520 442 _m
542 482 569 511 600 531 _c
631 550 668 560 711 560 _c
767 560 811 540 842 500 _c
873 460 889 403 889 330 _c
889 0 _l
799 0 _l
799 327 _l
799 379 789 418 771 444 _c
752 469 724 482 686 482 _c
639 482 602 466 575 435 _c
548 404 535 362 535 309 _c
535 0 _l
445 0 _l
445 327 _l
445 379 435 418 417 444 _c
398 469 369 482 331 482 _c
}_e{285 482 248 466 221 435 _c
194 404 181 362 181 309 _c
181 0 _l
91 0 _l
91 547 _l
181 547 _l
181 462 _l
201 495 226 520 255 536 _c
283 552 317 560 357 560 _c
397 560 430 550 458 530 _c
486 510 506 480 520 442 _c
_cl}_e}_d
/s{{521 0 54 -13 472 560 _sc
443 531 _m
443 446 _l
417 458 391 468 364 475 _c
336 481 308 485 279 485 _c
234 485 200 478 178 464 _c
156 450 145 430 145 403 _c
145 382 153 366 169 354 _c
185 342 217 330 265 320 _c
296 313 _l
360 299 405 279 432 255 _c
458 230 472 195 472 151 _c
472 100 452 60 412 31 _c
372 1 316 -13 246 -13 _c
216 -13 186 -10 154 -5 _c
}_e{122 0 89 8 54 20 _c
54 113 _l
87 95 120 82 152 74 _c
184 65 216 61 248 61 _c
290 61 323 68 346 82 _c
368 96 380 117 380 144 _c
380 168 371 187 355 200 _c
339 213 303 226 247 238 _c
216 245 _l
160 257 119 275 95 299 _c
70 323 58 356 58 399 _c
58 450 76 490 112 518 _c
148 546 200 560 268 560 _c
301 560 332 557 362 552 _c
391 547 418 540 443 531 _c
}_e{_cl}_e}_d
/t{392 0 27 0 368 702 _sc
183 702 _m
183 547 _l
368 547 _l
368 477 _l
183 477 _l
183 180 _l
183 135 189 106 201 94 _c
213 81 238 75 276 75 _c
368 75 _l
368 0 _l
276 0 _l
206 0 158 13 132 39 _c
106 65 93 112 93 180 _c
93 477 _l
27 477 _l
27 547 _l
93 547 _l
93 702 _l
183 702 _l
_cl}_d
end readonly def

/BuildGlyph
 {exch begin
 CharStrings exch
 2 copy known not{pop /.notdef}if
 true 3 1 roll get exec
 end}_d

/BuildChar {
 1 index /Encoding get exch get
 1 index /BuildGlyph get exec
}_d

FontName currentdict end definefont pop
%!PS-Adobe-3.0 Resource-Font
%%Title: DejaVu Sans Oblique
%%Copyright: Copyright (c) 2003 by Bitstream, Inc. All Rights Reserved. Copyright (c) 2006 by Tavmjong Bah. All Rights Reserved. DejaVu changes are in public domain 
%%Creator: Converted from TrueType to type 3 by PPR
25 dict begin
/_d{bind def}bind def
/_m{moveto}_d
/_l{lineto}_d
/_cl{closepath eofill}_d
/_c{curveto}_d
/_sc{7 -1 roll{setcachedevice}{pop pop pop pop pop pop}ifelse}_d
/_e{exec}_d
/FontName /DejaVuSans-Oblique def
/PaintType 0 def
/FontMatrix[.001 0 0 .001 0 0]def
/FontBBox[-1016 -350 1659 1068]def
/FontType 3 def
/Encoding [ /mu /uni03BC ] def
/FontInfo 10 dict dup begin
/FamilyName (DejaVu Sans) def
/FullName (DejaVu Sans Oblique) def
/Notice (Copyright (c) 2003 by Bitstream, Inc. All Rights Reserved. Copyright (c) 2006 by Tavmjong Bah. All Rights Reserved. DejaVu changes are in public domain ) def
/Weight (Oblique) def
/Version (Version 2.35) def
/ItalicAngle -11.0 def
/isFixedPitch false def
/UnderlinePosition -130 def
/UnderlineThickness 90 def
end readonly def
/CharStrings 3 dict dup begin
/.notdef 0 def
/mu{{636 0 -12 -207 592 547 _sc
-12 -207 _m
134 547 _l
224 547 _l
158 207 _l
156 199 155 191 154 183 _c
153 175 153 166 153 158 _c
153 128 162 104 181 88 _c
200 72 227 64 263 64 _c
311 64 349 77 379 105 _c
409 132 429 173 440 228 _c
502 547 _l
592 547 _l
510 126 _l
508 120 507 114 507 110 _c
507 106 507 102 507 98 _c
507 88 509 80 513 76 _c
517 71 523 69 532 69 _c
}_e{535 69 539 69 545 71 _c
551 73 559 76 570 80 _c
556 8 _l
542 1 528 -3 515 -7 _c
502 -11 489 -13 477 -13 _c
455 -13 438 -6 426 7 _c
414 20 408 39 408 63 _c
390 37 368 17 343 5 _c
317 -7 288 -13 254 -13 _c
223 -13 196 -6 174 7 _c
152 21 137 39 130 62 _c
77 -207 _l
-12 -207 _l
_cl}_e}_d
/uni03BC{636 0 -12 -207 592 547 _sc
false CharStrings /mu get exec
}_d
end readonly def

/BuildGlyph
 {exch begin
 CharStrings exch
 2 copy known not{pop /.notdef}if
 true 3 1 roll get exec
 end}_d

/BuildChar {
 1 index /Encoding get exch get
 1 index /BuildGlyph get exec
}_d

FontName currentdict end definefont pop
end
%%EndProlog
mpldict begin
-150.48 182.88 translate
912.96 426.24 0 0 clipbox
gsave
0 0 m
912.96 0 l
912.96 426.24 l
0 426.24 l
cl
1.000 setgray
fill
grestore
gsave
114.12 46.8864 m
821.664 46.8864 l
821.664 375.0912 l
114.12 375.0912 l
cl
1.000 setgray
fill
grestore
0.800 setlinewidth
1 setlinejoin
0 setlinecap
[2.96 1.28] 0 setdash
0.690 setgray
gsave
707.5 328.2 114.1 46.89 clipbox
153.428 46.8864 m
153.428 375.0912 l
stroke
grestore
[] 0 setdash
0.000 setgray
gsave
/o {
gsave
newpath
translate
0.8 setlinewidth
1 setlinejoin
0 setlinecap
0 0 m
0 -3.5 l

gsave
0.000 setgray
fill
grestore
stroke
grestore
} bind def
153.428 46.8864 o
grestore
/DejaVuSans findfont
10.000 scalefont
setfont
gsave
142.295188 32.292650 translate
0.000000 rotate
0.000000 0.000000 m /three glyphshow
6.362305 0.000000 m /period glyphshow
9.541016 0.000000 m /four glyphshow
15.903320 0.000000 m /zero glyphshow
grestore
[2.96 1.28] 0 setdash
0.690 setgray
gsave
707.5 328.2 114.1 46.89 clipbox
232.044 46.8864 m
232.044 375.0912 l
stroke
grestore
[] 0 setdash
0.000 setgray
gsave
/o {
gsave
newpath
translate
0.8 setlinewidth
1 setlinejoin
0 setlinecap
0 0 m
0 -3.5 l

gsave
0.000 setgray
fill
grestore
stroke
grestore
} bind def
232.044 46.8864 o
grestore
gsave
220.911188 32.292650 translate
0.000000 rotate
0.000000 0.000000 m /three glyphshow
6.362305 0.000000 m /period glyphshow
9.541016 0.000000 m /four glyphshow
15.903320 0.000000 m /two glyphshow
grestore
[2.96 1.28] 0 setdash
0.690 setgray
gsave
707.5 328.2 114.1 46.89 clipbox
310.66 46.8864 m
310.66 375.0912 l
stroke
grestore
[] 0 setdash
0.000 setgray
gsave
/o {
gsave
newpath
translate
0.8 setlinewidth
1 setlinejoin
0 setlinecap
0 0 m
0 -3.5 l

gsave
0.000 setgray
fill
grestore
stroke
grestore
} bind def
310.66 46.8864 o
grestore
gsave
299.527188 32.292650 translate
0.000000 rotate
0.000000 0.000000 m /three glyphshow
6.362305 0.000000 m /period glyphshow
9.541016 0.000000 m /four glyphshow
15.903320 0.000000 m /four glyphshow
grestore
[2.96 1.28] 0 setdash
0.690 setgray
gsave
707.5 328.2 114.1 46.89 clipbox
389.276 46.8864 m
389.276 375.0912 l
stroke
grestore
[] 0 setdash
0.000 setgray
gsave
/o {
gsave
newpath
translate
0.8 setlinewidth
1 setlinejoin
0 setlinecap
0 0 m
0 -3.5 l

gsave
0.000 setgray
fill
grestore
stroke
grestore
} bind def
389.276 46.8864 o
grestore
gsave
378.143188 32.292650 translate
0.000000 rotate
0.000000 0.000000 m /three glyphshow
6.362305 0.000000 m /period glyphshow
9.541016 0.000000 m /four glyphshow
15.903320 0.000000 m /six glyphshow
grestore
[2.96 1.28] 0 setdash
0.690 setgray
gsave
707.5 328.2 114.1 46.89 clipbox
467.892 46.8864 m
467.892 375.0912 l
stroke
grestore
[] 0 setdash
0.000 setgray
gsave
/o {
gsave
newpath
translate
0.8 setlinewidth
1 setlinejoin
0 setlinecap
0 0 m
0 -3.5 l

gsave
0.000 setgray
fill
grestore
stroke
grestore
} bind def
467.892 46.8864 o
grestore
gsave
456.759188 32.292650 translate
0.000000 rotate
0.000000 0.000000 m /three glyphshow
6.362305 0.000000 m /period glyphshow
9.541016 0.000000 m /four glyphshow
15.903320 0.000000 m /eight glyphshow
grestore
[2.96 1.28] 0 setdash
0.690 setgray
gsave
707.5 328.2 114.1 46.89 clipbox
546.508 46.8864 m
546.508 375.0912 l
stroke
grestore
[] 0 setdash
0.000 setgray
gsave
/o {
gsave
newpath
translate
0.8 setlinewidth
1 setlinejoin
0 setlinecap
0 0 m
0 -3.5 l

gsave
0.000 setgray
fill
grestore
stroke
grestore
} bind def
546.508 46.8864 o
grestore
gsave
535.375188 32.292650 translate
0.000000 rotate
0.000000 0.000000 m /three glyphshow
6.362305 0.000000 m /period glyphshow
9.541016 0.000000 m /five glyphshow
15.903320 0.000000 m /zero glyphshow
grestore
[2.96 1.28] 0 setdash
0.690 setgray
gsave
707.5 328.2 114.1 46.89 clipbox
625.124 46.8864 m
625.124 375.0912 l
stroke
grestore
[] 0 setdash
0.000 setgray
gsave
/o {
gsave
newpath
translate
0.8 setlinewidth
1 setlinejoin
0 setlinecap
0 0 m
0 -3.5 l

gsave
0.000 setgray
fill
grestore
stroke
grestore
} bind def
625.124 46.8864 o
grestore
gsave
613.991188 32.292650 translate
0.000000 rotate
0.000000 0.000000 m /three glyphshow
6.362305 0.000000 m /period glyphshow
9.541016 0.000000 m /five glyphshow
15.903320 0.000000 m /two glyphshow
grestore
[2.96 1.28] 0 setdash
0.690 setgray
gsave
707.5 328.2 114.1 46.89 clipbox
703.74 46.8864 m
703.74 375.0912 l
stroke
grestore
[] 0 setdash
0.000 setgray
gsave
/o {
gsave
newpath
translate
0.8 setlinewidth
1 setlinejoin
0 setlinecap
0 0 m
0 -3.5 l

gsave
0.000 setgray
fill
grestore
stroke
grestore
} bind def
703.74 46.8864 o
grestore
gsave
692.607188 32.292650 translate
0.000000 rotate
0.000000 0.000000 m /three glyphshow
6.362305 0.000000 m /period glyphshow
9.541016 0.000000 m /five glyphshow
15.903320 0.000000 m /four glyphshow
grestore
[2.96 1.28] 0 setdash
0.690 setgray
gsave
707.5 328.2 114.1 46.89 clipbox
782.356 46.8864 m
782.356 375.0912 l
stroke
grestore
[] 0 setdash
0.000 setgray
gsave
/o {
gsave
newpath
translate
0.8 setlinewidth
1 setlinejoin
0 setlinecap
0 0 m
0 -3.5 l

gsave
0.000 setgray
fill
grestore
stroke
grestore
} bind def
782.356 46.8864 o
grestore
gsave
771.223188 32.292650 translate
0.000000 rotate
0.000000 0.000000 m /three glyphshow
6.362305 0.000000 m /period glyphshow
9.541016 0.000000 m /five glyphshow
15.903320 0.000000 m /six glyphshow
grestore
gsave
444.892000 18.214525 translate
0.000000 rotate
/DejaVuSans findfont
10.0 scalefont
setfont
0.000000 0.406250 moveto
/t glyphshow

3.920898 0.406250 moveto
/i glyphshow

6.699219 0.406250 moveto
/m glyphshow

16.440430 0.406250 moveto
/e glyphshow

22.592773 0.406250 moveto
/space glyphshow

25.771484 0.406250 moveto
/bracketleft glyphshow

/DejaVuSans-Oblique findfont
10.0 scalefont
setfont
29.672852 0.406250 moveto
/uni03BC glyphshow

/DejaVuSans findfont
10.0 scalefont
setfont
36.035156 0.406250 moveto
/s glyphshow

41.245117 0.406250 moveto
/bracketright glyphshow


grestore
gsave
802.789000 19.620775 translate
0.000000 rotate
0.000000 0.000000 m /one glyphshow
6.362305 0.000000 m /e glyphshow
12.514648 0.000000 m /eight glyphshow
grestore
[2.96 1.28] 0 setdash
0.690 setgray
gsave
707.5 328.2 114.1 46.89 clipbox
114.12 46.8864 m
821.664 46.8864 l
stroke
grestore
[] 0 setdash
0.000 setgray
gsave
/o {
gsave
newpath
translate
0.8 setlinewidth
1 setlinejoin
0 setlinecap
0 0 m
-3.5 0 l

gsave
0.000 setgray
fill
grestore
stroke
grestore
} bind def
114.12 46.8864 o
grestore
gsave
68.963750 43.089525 translate
0.000000 rotate
0.000000 0.000000 m /one glyphshow
6.362305 0.000000 m /zero glyphshow
12.724609 0.000000 m /zero glyphshow
19.086914 0.000000 m /zero glyphshow
25.449219 0.000000 m /zero glyphshow
31.811523 0.000000 m /zero glyphshow
grestore
[2.96 1.28] 0 setdash
0.690 setgray
gsave
707.5 328.2 114.1 46.89 clipbox
114.12 101.5872 m
821.664 101.5872 l
stroke
grestore
[] 0 setdash
0.000 setgray
gsave
/o {
gsave
newpath
translate
0.8 setlinewidth
1 setlinejoin
0 setlinecap
0 0 m
-3.5 0 l

gsave
0.000 setgray
fill
grestore
stroke
grestore
} bind def
114.12 101.587 o
grestore
gsave
68.963750 97.790325 translate
0.000000 rotate
0.000000 0.000000 m /one glyphshow
6.362305 0.000000 m /five glyphshow
12.724609 0.000000 m /zero glyphshow
19.086914 0.000000 m /zero glyphshow
25.449219 0.000000 m /zero glyphshow
31.811523 0.000000 m /zero glyphshow
grestore
[2.96 1.28] 0 setdash
0.690 setgray
gsave
707.5 328.2 114.1 46.89 clipbox
114.12 156.288 m
821.664 156.288 l
stroke
grestore
[] 0 setdash
0.000 setgray
gsave
/o {
gsave
newpath
translate
0.8 setlinewidth
1 setlinejoin
0 setlinecap
0 0 m
-3.5 0 l

gsave
0.000 setgray
fill
grestore
stroke
grestore
} bind def
114.12 156.288 o
grestore
gsave
68.963750 152.491125 translate
0.000000 rotate
0.000000 0.000000 m /two glyphshow
6.362305 0.000000 m /zero glyphshow
12.724609 0.000000 m /zero glyphshow
19.086914 0.000000 m /zero glyphshow
25.449219 0.000000 m /zero glyphshow
31.811523 0.000000 m /zero glyphshow
grestore
[2.96 1.28] 0 setdash
0.690 setgray
gsave
707.5 328.2 114.1 46.89 clipbox
114.12 210.9888 m
821.664 210.9888 l
stroke
grestore
[] 0 setdash
0.000 setgray
gsave
/o {
gsave
newpath
translate
0.8 setlinewidth
1 setlinejoin
0 setlinecap
0 0 m
-3.5 0 l

gsave
0.000 setgray
fill
grestore
stroke
grestore
} bind def
114.12 210.989 o
grestore
gsave
68.963750 207.191925 translate
0.000000 rotate
0.000000 0.000000 m /two glyphshow
6.362305 0.000000 m /five glyphshow
12.724609 0.000000 m /zero glyphshow
19.086914 0.000000 m /zero glyphshow
25.449219 0.000000 m /zero glyphshow
31.811523 0.000000 m /zero glyphshow
grestore
[2.96 1.28] 0 setdash
0.690 setgray
gsave
707.5 328.2 114.1 46.89 clipbox
114.12 265.6896 m
821.664 265.6896 l
stroke
grestore
[] 0 setdash
0.000 setgray
gsave
/o {
gsave
newpath
translate
0.8 setlinewidth
1 setlinejoin
0 setlinecap
0 0 m
-3.5 0 l

gsave
0.000 setgray
fill
grestore
stroke
grestore
} bind def
114.12 265.69 o
grestore
gsave
68.963750 261.892725 translate
0.000000 rotate
0.000000 0.000000 m /three glyphshow
6.362305 0.000000 m /zero glyphshow
12.724609 0.000000 m /zero glyphshow
19.086914 0.000000 m /zero glyphshow
25.449219 0.000000 m /zero glyphshow
31.811523 0.000000 m /zero glyphshow
grestore
[2.96 1.28] 0 setdash
0.690 setgray
gsave
707.5 328.2 114.1 46.89 clipbox
114.12 320.3904 m
821.664 320.3904 l
stroke
grestore
[] 0 setdash
0.000 setgray
gsave
/o {
gsave
newpath
translate
0.8 setlinewidth
1 setlinejoin
0 setlinecap
0 0 m
-3.5 0 l

gsave
0.000 setgray
fill
grestore
stroke
grestore
} bind def
114.12 320.39 o
grestore
gsave
68.963750 316.593525 translate
0.000000 rotate
0.000000 0.000000 m /three glyphshow
6.362305 0.000000 m /five glyphshow
12.724609 0.000000 m /zero glyphshow
19.086914 0.000000 m /zero glyphshow
25.449219 0.000000 m /zero glyphshow
31.811523 0.000000 m /zero glyphshow
grestore
[2.96 1.28] 0 setdash
0.690 setgray
gsave
707.5 328.2 114.1 46.89 clipbox
114.12 375.0912 m
821.664 375.0912 l
stroke
grestore
[] 0 setdash
0.000 setgray
gsave
/o {
gsave
newpath
translate
0.8 setlinewidth
1 setlinejoin
0 setlinecap
0 0 m
-3.5 0 l

gsave
0.000 setgray
fill
grestore
stroke
grestore
} bind def
114.12 375.091 o
grestore
gsave
68.963750 371.294325 translate
0.000000 rotate
0.000000 0.000000 m /four glyphshow
6.362305 0.000000 m /zero glyphshow
12.724609 0.000000 m /zero glyphshow
19.086914 0.000000 m /zero glyphshow
25.449219 0.000000 m /zero glyphshow
31.811523 0.000000 m /zero glyphshow
grestore
1.500 setlinewidth
2 setlinecap
0.122 0.467 0.706 setrgbcolor
gsave
707.5 328.2 114.1 46.89 clipbox
113.918075 77.112968 m
115.394994 77.429139 l
116.37962 77.617309 l
116.871953 77.705925 l
117.364246 77.680762 l
118.348873 77.868933 l
119.333459 77.851429 l
119.825831 78.062574 l
121.302829 78.245275 l
122.779828 78.412659 l
123.764414 78.430163 l
125.241334 78.685069 l
125.733667 78.87871 l
127.210743 78.776966 l
128.687781 79.029684 l
129.180074 78.989206 l
132.626364 79.493547 l
133.118696 79.424624 l
133.611029 79.602948 l
135.580399 79.740794 l
137.549691 79.784555 l
138.534317 79.786743 l
139.518982 79.94647 l
141.488234 79.904897 l
142.4729 80.106196 l
143.457604 80.174025 l
143.949937 80.286708 l
144.442309 80.193717 l
145.427053 80.281238 l
145.92029 80.253888 l
146.413684 82.924381 l
146.907078 107.052904 l
147.400511 175.565656 l
148.387889 333.421225 l
148.881637 363.251759 l
149.375424 366.270149 l
149.869172 363.879724 l
150.856746 360.744274 l
151.350533 359.390976 l
152.338107 357.754328 l
152.831855 356.716107 l
153.325642 356.723765 l
153.81935 356.228176 l
154.313098 355.485339 l
154.806846 355.129784 l
155.300594 355.030229 l
156.288129 354.052178 l
156.781916 353.460316 l
158.263198 352.542436 l
159.250773 352.008556 l
159.744481 351.830232 l
160.732055 351.070985 l
161.719669 350.948455 l
162.213456 350.463806 l
163.200952 350.638848 l
164.188526 350.35878 l
164.682352 350.235156 l
165.176139 349.627978 l
166.657383 349.283363 l
170.607679 348.344697 l
171.595254 348.169654 l
173.076497 347.761586 l
174.064032 347.796595 l
175.051488 347.57998 l
176.038984 347.365553 l
176.532692 347.176288 l
177.02644 347.47933 l
179.001549 346.516596 l
179.495297 346.349212 l
180.482871 346.845895 l
181.964311 346.319673 l
182.951924 346.560357 l
183.445711 346.487058 l
183.939577 346.026477 l
184.433443 345.804392 l
184.927309 346.243092 l
185.91504 345.518854 l
186.902771 345.752973 l
187.396598 345.609657 l
188.384251 345.769383 l
188.878077 345.431332 l
189.371864 345.616221 l
189.865651 345.634819 l
190.853265 345.328495 l
191.347013 344.631607 l
191.840839 344.707094 l
192.334587 345.034204 l
192.828374 345.030922 l
193.322161 344.780393 l
195.297231 344.929179 l
195.790978 344.503607 l
196.284766 344.331846 l
196.778513 344.785863 l
197.2723 344.773829 l
197.766048 344.521111 l
199.247252 344.117419 l
199.741039 343.919402 l
200.728535 344.017864 l
202.209857 343.874547 l
202.703644 343.886582 l
203.197431 343.570411 l
203.691218 343.512428 l
204.185005 343.828599 l
204.678242 343.906274 l
205.170575 342.493899 l
205.663772 330.725569 l
206.156341 272.402482 l
206.649027 187.59108 l
207.141753 134.191065 l
207.634046 105.699606 l
208.126576 92.021124 l
208.619105 85.928549 l
209.603967 80.583187 l
211.080886 66.869696 l
211.57314 67.026141 l
212.557767 68.32802 l
214.034686 69.795095 l
215.019351 70.560906 l
216.004056 71.280769 l
216.496389 71.465657 l
217.973505 72.453554 l
218.958288 72.8474 l
220.435404 73.454579 l
221.420148 73.614305 l
223.389558 74.26415 l
224.374262 74.39762 l
224.866634 74.635022 l
225.851339 74.810064 l
226.343672 74.981825 l
227.328416 75.115295 l
229.79004 75.63714 l
231.267077 75.881106 l
231.759449 76.046302 l
233.236526 76.163362 l
234.221231 76.441242 l
235.205975 76.471875 l
235.698308 76.665516 l
236.683052 76.663327 l
238.652382 77.052797 l
239.144715 76.997002 l
240.621792 77.256284 l
241.114124 77.213618 l
242.59124 77.475087 l
243.083534 77.408352 l
248.499508 78.033036 l
248.991919 77.988181 l
249.976742 78.182916 l
251.453937 78.256215 l
252.931131 78.406095 l
263.763984 79.165342 l
264.257417 81.076588 l
264.750811 99.387134 l
265.244205 160.893807 l
266.231622 322.637509 l
266.72537 359.110908 l
267.219157 364.490185 l
268.206692 360.446702 l
268.700557 359.117472 l
270.675784 355.277476 l
271.663398 354.229409 l
272.651011 353.400145 l
274.132373 352.079667 l
274.62616 351.518437 l
275.613773 351.363087 l
276.601387 350.638848 l
277.095174 350.21984 l
277.58904 349.949618 l
278.082866 349.839123 l
279.564306 348.851226 l
281.045785 349.084252 l
281.539651 348.95844 l
283.021051 347.854578 l
283.514878 347.741894 l
284.008665 347.815193 l
287.465214 346.969519 l
287.959001 346.39516 l
288.452788 346.238716 l
289.440323 346.542852 l
289.934228 346.408289 l
290.428015 345.895195 l
291.415589 345.958648 l
291.909376 345.762819 l
292.403164 345.761725 l
292.89699 345.911605 l
293.390738 345.720152 l
293.884564 345.655606 l
294.378351 345.781417 l
295.365925 345.472905 l
295.859673 344.848222 l
296.3535 344.969657 l
296.847287 345.355845 l
297.834782 345.29458 l
298.328491 344.731162 l
298.822278 344.723504 l
299.316026 344.906205 l
300.797426 344.723504 l
301.785 344.121795 l
302.278748 344.400769 l
302.772575 344.040838 l
303.76007 344.154616 l
304.747644 343.566035 l
305.241432 343.676531 l
305.735258 343.570411 l
306.228966 343.840633 l
306.722714 343.50477 l
307.710288 343.583539 l
309.19165 343.468668 l
310.179224 343.462103 l
310.672972 343.334104 l
311.660624 343.279403 l
312.15449 342.871335 l
313.142104 343.081386 l
315.117449 342.674412 l
315.611275 343.148121 l
316.105141 343.085762 l
317.586581 342.338549 l
319.561729 342.721455 l
320.055555 342.306823 l
320.549342 342.194139 l
321.043169 342.473113 l
322.030822 342.383404 l
323.017728 341.821079 l
323.510768 339.789492 l
324.00314 327.811111 l
324.496259 281.156798 l
325.481474 155.675351 l
325.9742 122.995999 l
326.46669 104.324428 l
327.451552 80.938742 l
327.943885 72.800357 l
328.436218 67.248226 l
328.92859 66.47038 l
330.898078 69.323574 l
332.867487 71.003983 l
334.344564 72.026888 l
335.329268 72.484186 l
338.775912 73.920629 l
340.253146 74.372458 l
344.684337 75.60979 l
346.653864 76.069277 l
348.131019 76.376695 l
349.115803 76.57143 l
349.608175 76.557208 l
350.100547 76.7049 l
351.085173 76.833994 l
352.069759 77.019977 l
353.546758 77.080148 l
356.992929 77.757343 l
359.454514 77.791258 l
360.931473 78.129309 l
361.423806 78.091018 l
361.916099 78.201514 l
362.900764 78.175258 l
365.362389 78.462984 l
366.347054 78.594266 l
368.316503 78.850265 l
370.285873 78.953103 l
370.778245 79.059223 l
371.762871 79.063599 l
372.255164 79.147838 l
372.747458 79.008898 l
373.239751 79.198163 l
374.716749 79.30647 l
375.701415 79.389615 l
377.670667 79.494641 l
378.655254 79.59529 l
379.147547 79.519803 l
380.132134 79.629205 l
381.609446 79.733136 l
382.102919 80.959528 l
382.596234 93.985977 l
383.08955 146.460454 l
384.076731 311.422751 l
384.5704 354.889101 l
385.064187 364.182766 l
385.557896 362.308717 l
386.051643 359.948925 l
387.0391 357.443628 l
387.532847 356.302569 l
389.014051 354.301614 l
389.507799 353.834469 l
390.001586 353.07194 l
390.495295 352.631052 l
390.989003 352.81594 l
391.97646 352.043565 l
392.470168 351.219771 l
392.963916 350.875156 l
393.457624 351.011908 l
393.951411 350.855464 l
394.44512 350.561173 l
394.938828 349.79208 l
395.432576 349.77567 l
397.901276 348.873107 l
398.395024 348.589756 l
398.888771 348.15762 l
399.876267 348.610543 l
400.370015 347.806441 l
400.863802 347.62374 l
401.35755 347.583262 l
401.851297 347.317416 l
402.345124 347.268185 l
402.838911 347.46839 l
403.332737 347.276937 l
403.826524 346.925758 l
404.320312 347.018749 l
405.307925 346.546135 l
405.801673 346.825109 l
406.295539 346.441109 l
406.789326 346.236528 l
407.283152 346.397348 l
408.270687 346.305451 l
408.764513 345.984904 l
409.25834 345.902853 l
409.752127 346.048357 l
412.221141 345.095469 l
412.714928 345.116256 l
413.208676 344.968563 l
413.702463 345.081247 l
414.196289 345.362409 l
414.690076 345.41164 l
415.183903 345.021076 l
416.171477 344.502513 l
416.665303 344.680837 l
417.159051 344.369043 l
417.652799 344.405145 l
418.640373 344.665521 l
419.1342 344.443436 l
419.627987 344.348256 l
420.121774 343.896428 l
420.615561 343.770616 l
423.578283 343.831881 l
424.565897 343.431471 l
425.059645 343.454445 l
425.553432 343.890958 l
427.528502 343.175471 l
428.02221 342.738959 l
428.515958 343.223608 l
429.009745 343.174377 l
429.503493 342.753181 l
429.99728 342.909625 l
430.491067 342.945728 l
430.984775 342.708326 l
431.478563 342.602207 l
431.97231 342.82648 l
433.453593 342.764121 l
433.947341 342.603301 l
434.441089 342.597831 l
434.934797 342.447951 l
435.922332 342.439198 l
436.41608 342.256498 l
437.403536 342.628463 l
437.897323 342.498275 l
438.391032 342.571574 l
438.88474 342.02566 l
439.378527 342.118652 l
439.872275 342.356053 l
440.859417 341.99284 l
441.352339 340.492944 l
441.844632 332.53179 l
442.337712 296.843894 l
443.32281 166.623169 l
443.815457 126.834901 l
444.307829 103.117728 l
444.80028 90.030015 l
445.292809 83.302911 l
446.277592 76.846028 l
447.262179 67.647542 l
447.754512 66.103885 l
448.246805 66.367543 l
449.723803 68.256909 l
451.200841 69.46142 l
453.170329 70.719539 l
454.155033 71.104632 l
455.139699 71.634136 l
456.616815 72.274135 l
457.60148 72.729246 l
458.093813 72.802545 l
459.078517 73.093553 l
460.063301 73.281724 l
460.555673 73.390032 l
461.540495 73.766373 l
465.479393 74.521244 l
465.971726 74.697381 l
466.464058 74.729107 l
466.95643 74.874611 l
468.433625 75.028868 l
471.388054 75.545243 l
471.880426 75.548525 l
472.86517 75.776081 l
475.81948 76.075841 l
476.804264 76.362473 l
478.281537 76.435772 l
481.236083 76.619567 l
481.728495 76.81102 l
482.220867 76.820866 l
482.713278 76.948866 l
483.698061 76.852592 l
484.682845 77.010131 l
485.175217 77.026541 l
486.159961 77.328489 l
487.637195 77.248626 l
496.992066 78.06148 l
497.484399 78.075702 l
497.976771 78.201514 l
498.961436 78.0943 l
499.454123 78.294505 l
499.947635 78.811975 l
500.441029 88.269743 l
500.934423 134.24139 l
501.9218 299.470626 l
502.415587 349.601721 l
502.909375 363.000135 l
503.403201 361.353641 l
503.897027 359.087934 l
504.884602 356.374774 l
505.378428 355.375938 l
505.872215 354.819084 l
506.366041 353.866196 l
507.847521 352.066539 l
508.341268 351.997616 l
508.835056 351.42107 l
509.822669 350.622438 l
511.30403 350.019635 l
512.291722 349.367602 l
512.78551 348.659773 l
513.279297 348.584286 l
513.773084 348.703534 l
514.266871 348.455192 l
514.760737 348.075569 l
515.254563 347.391809 l
515.748389 347.627022 l
517.229829 347.011091 l
519.205135 346.411571 l
520.686575 346.034135 l
521.67411 345.511195 l
522.167779 345.595435 l
522.661645 345.39523 l
523.155432 344.982786 l
523.649258 344.786957 l
524.143045 344.895264 l
524.636872 345.134854 l
525.130698 344.853692 l
525.624524 344.734444 l
526.118311 344.788051 l
527.105964 344.656769 l
527.599791 344.45 l
528.093617 344.637077 l
529.081231 344.131641 l
530.068805 344.291368 l
531.056418 344.269487 l
531.550245 344.012393 l
532.044032 343.976291 l
532.537858 343.570411 l
533.525472 343.732325 l
534.019259 343.479608 l
534.513085 343.434753 l
535.006833 343.06607 l
535.994407 343.039813 l
536.488194 343.167813 l
536.982021 342.996053 l
539.944979 342.645967 l
540.438805 342.791472 l
541.42638 342.191951 l
542.413993 342.349489 l
543.401567 342.290412 l
543.895433 342.363711 l
544.883125 341.867028 l
545.376912 342.065045 l
545.870699 342.138344 l
546.364565 341.809045 l
546.858313 341.628533 l
547.845926 341.737934 l
548.833579 342.046447 l
549.821153 341.044328 l
550.808806 341.770755 l
551.302554 341.430516 l
551.79642 341.538823 l
552.290207 341.222653 l
552.784033 341.363781 l
553.277899 341.356123 l
553.771686 341.074961 l
554.265512 341.198584 l
555.253165 341.161388 l
556.240897 341.334242 l
556.734684 341.14279 l
557.228628 341.154824 l
558.708928 340.593593 l
559.201772 336.312709 l
559.694615 304.283202 l
560.680146 144.758165 l
561.172832 101.567508 l
561.66544 82.274536 l
562.157891 74.663466 l
563.14291 64.226554 l
563.635282 62.6457 l
564.619947 65.100672 l
566.097024 67.158516 l
567.574061 68.354276 l
568.558727 69.111335 l
569.543431 69.592702 l
571.512802 70.649522 l
572.989878 71.230444 l
574.466876 71.726033 l
574.959209 71.854033 l
575.943992 72.320084 l
576.436325 72.504973 l
577.42099 72.594682 l
578.405695 72.911947 l
582.344435 73.774031 l
582.836807 73.783877 l
584.806217 74.24774 l
591.699189 75.21485 l
592.191522 75.334098 l
593.176226 75.404115 l
595.145557 75.60979 l
597.114849 75.789209 l
598.591886 75.952217 l
599.08418 76.141482 l
600.068884 75.955499 l
601.05351 76.285892 l
601.545843 76.291362 l
602.530508 76.459841 l
603.02288 76.312148 l
604.499918 76.669892 l
605.976955 76.600969 l
606.469327 76.766165 l
607.946404 76.778199 l
608.931109 76.920421 l
609.423481 77.041857 l
610.900479 77.047327 l
612.377516 77.243156 l
617.30104 77.402882 l
617.794591 77.692797 l
618.288024 84.715285 l
618.781458 123.394221 l
620.262583 345.996938 l
620.75637 363.519793 l
621.250197 362.48376 l
622.237889 359.09231 l
623.225581 356.545441 l
625.201044 353.364042 l
627.176389 352.112488 l
627.670176 351.623463 l
629.151655 350.600558 l
630.139347 350.670575 l
631.127039 350.073242 l
631.620866 349.610473 l
633.59625 348.538338 l
634.090076 348.583192 l
634.583863 348.483637 l
635.077768 348.182782 l
635.571555 347.571228 l
636.06546 347.795501 l
636.559287 347.831603 l
638.040963 347.064698 l
638.534828 347.157689 l
639.028694 346.889656 l
639.52256 346.481588 l
640.016425 346.659912 l
640.510252 346.711331 l
641.004118 346.39516 l
642.485675 346.181827 l
642.97958 345.96193 l
643.473446 346.070238 l
644.461217 345.704836 l
644.955083 345.366785 l
645.449027 345.584494 l
645.942775 345.576836 l
646.436562 345.13376 l
647.91812 345.5834 l
648.90593 344.920427 l
649.893661 344.835094 l
650.881392 344.222445 l
651.869085 343.688565 l
652.856895 344.290274 l
653.844626 343.679813 l
654.832318 343.953317 l
655.326145 344.181966 l
656.807781 343.887676 l
657.301686 343.518992 l
658.289339 343.630582 l
658.783244 343.439129 l
659.770936 343.651368 l
660.264762 343.431471 l
660.758589 343.535402 l
662.734052 343.342856 l
663.227917 342.897591 l
663.721822 342.905249 l
664.709711 342.596737 l
665.203655 342.766309 l
666.191426 342.53219 l
666.685331 342.791472 l
668.660912 342.697386 l
669.648722 342.544224 l
670.142588 342.168977 l
670.636493 342.086925 l
671.130398 342.344019 l
671.624224 342.097865 l
672.611916 342.432634 l
673.599569 342.045353 l
674.093395 341.871404 l
674.587261 341.82655 l
675.081127 341.993934 l
675.574953 341.583678 l
676.562724 341.332054 l
677.055214 340.733628 l
677.548058 335.584094 l
678.041216 306.046756 l
679.02651 170.786994 l
679.519157 128.434353 l
680.011569 108.172082 l
680.504294 100.127783 l
680.996981 88.786119 l
681.489314 80.177307 l
681.981921 77.966301 l
682.474293 74.328697 l
682.966901 68.695609 l
683.459273 65.438723 l
683.951685 65.083168 l
684.444057 65.136775 l
685.42884 65.992295 l
686.906113 67.5272 l
687.890896 68.286447 l
691.82999 70.137522 l
693.307185 70.703128 l
693.799557 70.94053 l
694.784301 71.069624 l
696.261496 71.661486 l
697.246279 71.832153 l
698.23118 71.998443 l
700.200826 72.442614 l
701.677981 72.802545 l
702.170392 73.02463 l
704.139998 73.162476 l
704.63241 73.40863 l
707.094348 73.737929 l
709.063993 73.932664 l
710.541267 74.174441 l
711.033639 74.254304 l
711.52605 74.207262 l
712.018501 74.387774 l
712.510912 74.406372 l
713.495695 74.594543 l
713.988067 74.523432 l
714.972969 74.683159 l
715.465419 74.640492 l
717.927436 75.04856 l
723.83594 75.462098 l
724.328312 75.666679 l
726.297996 75.690747 l
726.790368 75.718098 l
727.775191 75.925961 l
730.237169 75.942371 l
731.221834 76.174302 l
732.206578 76.25526 l
735.16085 76.434678 l
735.654401 76.604251 l
736.147874 81.408075 l
736.641386 113.531667 l
738.122393 334.62683 l
738.616102 355.595835 l
739.109849 355.520348 l
739.603637 353.086162 l
740.097424 351.288694 l
740.59125 349.961652 l
741.578706 348.064629 l
743.05995 345.899571 l
744.541232 344.154616 l
747.503837 342.745523 l
748.491372 342.139438 l
750.466363 341.749968 l
750.960071 341.449114 l
751.453859 340.951337 l
751.947528 340.285081 l
752.441276 340.332124 l
752.934945 340.07503 l
753.428614 339.640706 l
753.922283 339.39674 l
754.415992 339.319065 l
754.9097 339.495201 l
755.403487 339.472227 l
755.897038 339.628671 l
756.390708 339.375954 l
756.884298 338.738142 l
757.377928 337.798383 l
757.871636 337.353118 l
758.365266 337.417665 l
758.858935 337.046794 l
759.846274 337.600366 l
760.339943 337.001939 l
760.833573 336.663888 l
761.327203 336.866281 l
761.820833 336.464777 l
762.314462 336.268948 l
763.301801 336.308333 l
763.79547 336.574179 l
764.289061 336.568709 l
764.782769 336.305051 l
765.276399 336.352093 l
765.770068 335.766795 l
766.263737 335.402488 l
767.251036 335.776641 l
767.744705 335.434214 l
768.238335 335.304026 l
768.731965 335.298556 l
769.225595 335.452812 l
769.719303 334.808437 l
770.706642 335.151958 l
771.20035 334.708881 l
771.694019 334.714351 l
772.187649 334.953941 l
773.174988 334.757018 l
773.668657 334.534933 l
774.655956 334.397087 l
775.643255 334.373018 l
776.136885 333.870865 l
776.630554 333.832575 l
777.124223 333.38731 l
777.617892 333.830387 l
778.111522 334.074352 l
779.098782 333.717703 l
780.086081 333.339173 l
781.07338 333.619241 l
781.567049 333.644404 l
782.06064 333.481395 l
782.554309 332.942046 l
783.048057 333.168507 l
785.022773 333.328233 l
786.010111 332.818422 l
786.50378 332.587584 l
786.99741 332.884063 l
787.49104 332.935481 l
787.984709 332.422388 l
788.478339 332.484747 l
788.972008 332.811858 l
789.959268 332.490217 l
790.452898 332.723242 l
791.933787 332.422388 l
792.427417 332.517567 l
792.921047 332.761533 l
793.908346 332.113875 l
794.401268 332.084337 l
794.893601 330.803244 l
795.386838 313.672048 l
796.372132 171.946651 l
796.864819 128.261498 l
797.357387 104.909727 l
797.849877 90.616408 l
798.342406 80.331563 l
798.834818 76.709276 l
799.327347 74.649244 l
800.804384 63.27476 l
801.296717 63.448708 l
802.281422 64.919066 l
802.773833 65.515304 l
803.266205 65.833663 l
804.25091 66.833594 l
806.712809 68.230652 l
808.682219 69.129933 l
809.667002 69.560976 l
810.159335 69.579574 l
811.144079 69.927471 l
811.636411 70.188941 l
812.621116 70.392428 l
813.605781 70.650616 l
814.098114 70.686718 l
815.082819 71.102444 l
816.067484 71.537863 l
816.559856 71.440495 l
817.052189 71.467846 l
817.544561 71.615538 l
818.036894 71.62976 l
819.021598 71.951401 l
819.51397 72.160358 l
821.483419 72.256631 l
821.975752 72.382443 l
821.975752 72.382443 l
stroke
grestore
0.800 setlinewidth
0 setlinejoin
[] 0 setdash
0.000 setgray
gsave
114.12 46.8864 m
114.12 375.0912 l
stroke
grestore
gsave
821.664 46.8864 m
821.664 375.0912 l
stroke
grestore
gsave
114.12 46.8864 m
821.664 46.8864 l
stroke
grestore
gsave
114.12 375.0912 m
821.664 375.0912 l
stroke
grestore

end
showpage
