%!PS-Adobe-3.0 EPSF-3.0
%%Title: /run/media/usuario/Data1/documents/201819-2010068-trabajo-fin-de-grado/trabajo-fin-de-grado/resources/Figure_12.eps
%%Creator: matplotlib version 3.1.1, http://matplotlib.org/
%%CreationDate: Wed Aug 28 10:57:53 2019
%%Orientation: portrait
%%BoundingBox: -150.48 182.88 762.48 609.12
%%EndComments
%%BeginProlog
/mpldict 9 dict def
mpldict begin
/m { moveto } bind def
/l { lineto } bind def
/r { rlineto } bind def
/c { curveto } bind def
/cl { closepath } bind def
/box {
m
1 index 0 r
0 exch r
neg 0 r
cl
} bind def
/clipbox {
box
clip
newpath
} bind def
%!PS-Adobe-3.0 Resource-Font
%%Title: DejaVu Sans
%%Copyright: Copyright (c) 2003 by Bitstream, Inc. All Rights Reserved. Copyright (c) 2006 by Tavmjong Bah. All Rights Reserved. DejaVu changes are in public domain 
%%Creator: Converted from TrueType to type 3 by PPR
25 dict begin
/_d{bind def}bind def
/_m{moveto}_d
/_l{lineto}_d
/_cl{closepath eofill}_d
/_c{curveto}_d
/_sc{7 -1 roll{setcachedevice}{pop pop pop pop pop pop}ifelse}_d
/_e{exec}_d
/FontName /DejaVuSans def
/PaintType 0 def
/FontMatrix[.001 0 0 .001 0 0]def
/FontBBox[-1021 -463 1793 1232]def
/FontType 3 def
/Encoding [ /space /period /zero /one /two /four /five /six /seven /eight /A /R /S /T /bracketleft /bracketright /d /e /i /l /m /n /o /p /s /t /u ] def
/FontInfo 10 dict dup begin
/FamilyName (DejaVu Sans) def
/FullName (DejaVu Sans) def
/Notice (Copyright (c) 2003 by Bitstream, Inc. All Rights Reserved. Copyright (c) 2006 by Tavmjong Bah. All Rights Reserved. DejaVu changes are in public domain ) def
/Weight (Book) def
/Version (Version 2.35) def
/ItalicAngle 0.0 def
/isFixedPitch false def
/UnderlinePosition -130 def
/UnderlineThickness 90 def
end readonly def
/CharStrings 28 dict dup begin
/.notdef 0 def
/space{318 0 0 0 0 0 _sc
}_d
/period{318 0 107 0 210 124 _sc
107 124 _m
210 124 _l
210 0 _l
107 0 _l
107 124 _l
_cl}_d
/zero{636 0 66 -13 570 742 _sc
318 664 _m
267 664 229 639 203 589 _c
177 539 165 464 165 364 _c
165 264 177 189 203 139 _c
229 89 267 64 318 64 _c
369 64 407 89 433 139 _c
458 189 471 264 471 364 _c
471 464 458 539 433 589 _c
407 639 369 664 318 664 _c
318 742 _m
399 742 461 709 505 645 _c
548 580 570 486 570 364 _c
570 241 548 147 505 83 _c
461 19 399 -13 318 -13 _c
236 -13 173 19 130 83 _c
87 147 66 241 66 364 _c
66 486 87 580 130 645 _c
173 709 236 742 318 742 _c
_cl}_d
/one{636 0 110 0 544 729 _sc
124 83 _m
285 83 _l
285 639 _l
110 604 _l
110 694 _l
284 729 _l
383 729 _l
383 83 _l
544 83 _l
544 0 _l
124 0 _l
124 83 _l
_cl}_d
/two{{636 0 73 0 536 742 _sc
192 83 _m
536 83 _l
536 0 _l
73 0 _l
73 83 _l
110 121 161 173 226 239 _c
290 304 331 346 348 365 _c
380 400 402 430 414 455 _c
426 479 433 504 433 528 _c
433 566 419 598 392 622 _c
365 646 330 659 286 659 _c
255 659 222 653 188 643 _c
154 632 117 616 78 594 _c
78 694 _l
118 710 155 722 189 730 _c
223 738 255 742 284 742 _c
}_e{359 742 419 723 464 685 _c
509 647 532 597 532 534 _c
532 504 526 475 515 449 _c
504 422 484 390 454 354 _c
446 344 420 317 376 272 _c
332 227 271 164 192 83 _c
_cl}_e}_d
/four{636 0 49 0 580 729 _sc
378 643 _m
129 254 _l
378 254 _l
378 643 _l
352 729 _m
476 729 _l
476 254 _l
580 254 _l
580 172 _l
476 172 _l
476 0 _l
378 0 _l
378 172 _l
49 172 _l
49 267 _l
352 729 _l
_cl}_d
/five{{636 0 77 -13 549 729 _sc
108 729 _m
495 729 _l
495 646 _l
198 646 _l
198 467 _l
212 472 227 476 241 478 _c
255 480 270 482 284 482 _c
365 482 429 459 477 415 _c
525 370 549 310 549 234 _c
549 155 524 94 475 51 _c
426 8 357 -13 269 -13 _c
238 -13 207 -10 175 -6 _c
143 -1 111 6 77 17 _c
77 116 _l
106 100 136 88 168 80 _c
199 72 232 69 267 69 _c
}_e{323 69 368 83 401 113 _c
433 143 450 183 450 234 _c
450 284 433 324 401 354 _c
368 384 323 399 267 399 _c
241 399 214 396 188 390 _c
162 384 135 375 108 363 _c
108 729 _l
_cl}_e}_d
/six{{636 0 70 -13 573 742 _sc
330 404 _m
286 404 251 388 225 358 _c
199 328 186 286 186 234 _c
186 181 199 139 225 109 _c
251 79 286 64 330 64 _c
374 64 409 79 435 109 _c
461 139 474 181 474 234 _c
474 286 461 328 435 358 _c
409 388 374 404 330 404 _c
526 713 _m
526 623 _l
501 635 476 644 451 650 _c
425 656 400 659 376 659 _c
310 659 260 637 226 593 _c
}_e{192 549 172 482 168 394 _c
187 422 211 444 240 459 _c
269 474 301 482 336 482 _c
409 482 467 459 509 415 _c
551 371 573 310 573 234 _c
573 159 550 99 506 54 _c
462 9 403 -13 330 -13 _c
246 -13 181 19 137 83 _c
92 147 70 241 70 364 _c
70 479 97 571 152 639 _c
206 707 280 742 372 742 _c
396 742 421 739 447 735 _c
472 730 498 723 526 713 _c
_cl}_e}_d
/seven{636 0 82 0 551 729 _sc
82 729 _m
551 729 _l
551 687 _l
286 0 _l
183 0 _l
432 646 _l
82 646 _l
82 729 _l
_cl}_d
/eight{{636 0 68 -13 568 742 _sc
318 346 _m
271 346 234 333 207 308 _c
180 283 167 249 167 205 _c
167 161 180 126 207 101 _c
234 76 271 64 318 64 _c
364 64 401 76 428 102 _c
455 127 469 161 469 205 _c
469 249 455 283 429 308 _c
402 333 365 346 318 346 _c
219 388 _m
177 398 144 418 120 447 _c
96 476 85 511 85 553 _c
85 611 105 657 147 691 _c
188 725 245 742 318 742 _c
}_e{390 742 447 725 489 691 _c
530 657 551 611 551 553 _c
551 511 539 476 515 447 _c
491 418 459 398 417 388 _c
464 377 501 355 528 323 _c
554 291 568 251 568 205 _c
568 134 546 80 503 43 _c
459 5 398 -13 318 -13 _c
237 -13 175 5 132 43 _c
89 80 68 134 68 205 _c
68 251 81 291 108 323 _c
134 355 171 377 219 388 _c
183 544 _m
183 506 194 476 218 455 _c
}_e{242 434 275 424 318 424 _c
360 424 393 434 417 455 _c
441 476 453 506 453 544 _c
453 582 441 611 417 632 _c
393 653 360 664 318 664 _c
275 664 242 653 218 632 _c
194 611 183 582 183 544 _c
_cl}_e}_d
/A{684 0 8 0 676 729 _sc
342 632 _m
208 269 _l
476 269 _l
342 632 _l
286 729 _m
398 729 _l
676 0 _l
573 0 _l
507 187 _l
178 187 _l
112 0 _l
8 0 _l
286 729 _l
_cl}_d
/R{{695 0 98 0 666 729 _sc
444 342 _m
465 334 486 319 506 296 _c
526 272 546 240 566 199 _c
666 0 _l
560 0 _l
467 187 _l
443 235 419 268 397 284 _c
374 300 343 308 304 308 _c
197 308 _l
197 0 _l
98 0 _l
98 729 _l
321 729 _l
404 729 466 711 507 677 _c
548 642 569 589 569 519 _c
569 473 558 434 537 404 _c
515 374 484 353 444 342 _c
197 648 _m
197 389 _l
321 389 _l
}_e{368 389 404 400 428 422 _c
452 444 465 476 465 519 _c
465 561 452 593 428 615 _c
404 637 368 648 321 648 _c
197 648 _l
_cl}_e}_d
/S{{635 0 66 -13 579 742 _sc
535 705 _m
535 609 _l
497 627 462 640 429 649 _c
395 657 363 662 333 662 _c
279 662 237 651 208 631 _c
179 610 165 580 165 542 _c
165 510 174 485 194 469 _c
213 452 250 439 304 429 _c
364 417 _l
437 403 491 378 526 343 _c
561 307 579 260 579 201 _c
579 130 555 77 508 41 _c
460 5 391 -13 300 -13 _c
265 -13 228 -9 189 -2 _c
}_e{150 5 110 16 69 32 _c
69 134 _l
109 111 148 94 186 83 _c
224 71 262 66 300 66 _c
356 66 399 77 430 99 _c
460 121 476 152 476 194 _c
476 230 465 258 443 278 _c
421 298 385 313 335 323 _c
275 335 _l
201 349 148 372 115 404 _c
82 435 66 478 66 534 _c
66 598 88 649 134 686 _c
179 723 242 742 322 742 _c
356 742 390 739 426 733 _c
461 727 497 717 535 705 _c
}_e{_cl}_e}_d
/T{611 0 -2 0 614 729 _sc
-2 729 _m
614 729 _l
614 646 _l
355 646 _l
355 0 _l
256 0 _l
256 646 _l
-2 646 _l
-2 729 _l
_cl}_d
/bracketleft{390 0 86 -131 293 760 _sc
86 760 _m
293 760 _l
293 690 _l
176 690 _l
176 -61 _l
293 -61 _l
293 -131 _l
86 -131 _l
86 760 _l
_cl}_d
/bracketright{390 0 97 -131 304 760 _sc
304 760 _m
304 -131 _l
97 -131 _l
97 -61 _l
214 -61 _l
214 690 _l
97 690 _l
97 760 _l
304 760 _l
_cl}_d
/d{{635 0 55 -13 544 760 _sc
454 464 _m
454 760 _l
544 760 _l
544 0 _l
454 0 _l
454 82 _l
435 49 411 25 382 10 _c
353 -5 319 -13 279 -13 _c
213 -13 159 13 117 65 _c
75 117 55 187 55 273 _c
55 359 75 428 117 481 _c
159 533 213 560 279 560 _c
319 560 353 552 382 536 _c
411 520 435 496 454 464 _c
148 273 _m
148 207 161 155 188 117 _c
215 79 253 61 301 61 _c
}_e{348 61 385 79 413 117 _c
440 155 454 207 454 273 _c
454 339 440 390 413 428 _c
385 466 348 485 301 485 _c
253 485 215 466 188 428 _c
161 390 148 339 148 273 _c
_cl}_e}_d
/e{{615 0 55 -13 562 560 _sc
562 296 _m
562 252 _l
149 252 _l
153 190 171 142 205 110 _c
238 78 284 62 344 62 _c
378 62 412 66 444 74 _c
476 82 509 95 541 113 _c
541 28 _l
509 14 476 3 442 -3 _c
408 -9 373 -13 339 -13 _c
251 -13 182 12 131 62 _c
80 112 55 181 55 268 _c
55 357 79 428 127 481 _c
175 533 241 560 323 560 _c
397 560 455 536 498 489 _c
}_e{540 441 562 377 562 296 _c
472 322 _m
471 371 457 410 431 440 _c
404 469 368 484 324 484 _c
274 484 234 469 204 441 _c
174 413 156 373 152 322 _c
472 322 _l
_cl}_e}_d
/i{278 0 94 0 184 760 _sc
94 547 _m
184 547 _l
184 0 _l
94 0 _l
94 547 _l
94 760 _m
184 760 _l
184 646 _l
94 646 _l
94 760 _l
_cl}_d
/l{278 0 94 0 184 760 _sc
94 760 _m
184 760 _l
184 0 _l
94 0 _l
94 760 _l
_cl}_d
/m{{974 0 91 0 889 560 _sc
520 442 _m
542 482 569 511 600 531 _c
631 550 668 560 711 560 _c
767 560 811 540 842 500 _c
873 460 889 403 889 330 _c
889 0 _l
799 0 _l
799 327 _l
799 379 789 418 771 444 _c
752 469 724 482 686 482 _c
639 482 602 466 575 435 _c
548 404 535 362 535 309 _c
535 0 _l
445 0 _l
445 327 _l
445 379 435 418 417 444 _c
398 469 369 482 331 482 _c
}_e{285 482 248 466 221 435 _c
194 404 181 362 181 309 _c
181 0 _l
91 0 _l
91 547 _l
181 547 _l
181 462 _l
201 495 226 520 255 536 _c
283 552 317 560 357 560 _c
397 560 430 550 458 530 _c
486 510 506 480 520 442 _c
_cl}_e}_d
/n{634 0 91 0 549 560 _sc
549 330 _m
549 0 _l
459 0 _l
459 327 _l
459 379 448 417 428 443 _c
408 469 378 482 338 482 _c
289 482 251 466 223 435 _c
195 404 181 362 181 309 _c
181 0 _l
91 0 _l
91 547 _l
181 547 _l
181 462 _l
202 494 227 519 257 535 _c
286 551 320 560 358 560 _c
420 560 468 540 500 501 _c
532 462 549 405 549 330 _c
_cl}_d
/o{612 0 55 -13 557 560 _sc
306 484 _m
258 484 220 465 192 427 _c
164 389 150 338 150 273 _c
150 207 163 156 191 118 _c
219 80 257 62 306 62 _c
354 62 392 80 420 118 _c
448 156 462 207 462 273 _c
462 337 448 389 420 427 _c
392 465 354 484 306 484 _c
306 560 _m
384 560 445 534 490 484 _c
534 433 557 363 557 273 _c
557 183 534 113 490 63 _c
445 12 384 -13 306 -13 _c
227 -13 165 12 121 63 _c
77 113 55 183 55 273 _c
55 363 77 433 121 484 _c
165 534 227 560 306 560 _c
_cl}_d
/p{{635 0 91 -207 580 560 _sc
181 82 _m
181 -207 _l
91 -207 _l
91 547 _l
181 547 _l
181 464 _l
199 496 223 520 252 536 _c
281 552 316 560 356 560 _c
422 560 476 533 518 481 _c
559 428 580 359 580 273 _c
580 187 559 117 518 65 _c
476 13 422 -13 356 -13 _c
316 -13 281 -5 252 10 _c
223 25 199 49 181 82 _c
487 273 _m
487 339 473 390 446 428 _c
418 466 381 485 334 485 _c
}_e{286 485 249 466 222 428 _c
194 390 181 339 181 273 _c
181 207 194 155 222 117 _c
249 79 286 61 334 61 _c
381 61 418 79 446 117 _c
473 155 487 207 487 273 _c
_cl}_e}_d
/s{{521 0 54 -13 472 560 _sc
443 531 _m
443 446 _l
417 458 391 468 364 475 _c
336 481 308 485 279 485 _c
234 485 200 478 178 464 _c
156 450 145 430 145 403 _c
145 382 153 366 169 354 _c
185 342 217 330 265 320 _c
296 313 _l
360 299 405 279 432 255 _c
458 230 472 195 472 151 _c
472 100 452 60 412 31 _c
372 1 316 -13 246 -13 _c
216 -13 186 -10 154 -5 _c
}_e{122 0 89 8 54 20 _c
54 113 _l
87 95 120 82 152 74 _c
184 65 216 61 248 61 _c
290 61 323 68 346 82 _c
368 96 380 117 380 144 _c
380 168 371 187 355 200 _c
339 213 303 226 247 238 _c
216 245 _l
160 257 119 275 95 299 _c
70 323 58 356 58 399 _c
58 450 76 490 112 518 _c
148 546 200 560 268 560 _c
301 560 332 557 362 552 _c
391 547 418 540 443 531 _c
}_e{_cl}_e}_d
/t{392 0 27 0 368 702 _sc
183 702 _m
183 547 _l
368 547 _l
368 477 _l
183 477 _l
183 180 _l
183 135 189 106 201 94 _c
213 81 238 75 276 75 _c
368 75 _l
368 0 _l
276 0 _l
206 0 158 13 132 39 _c
106 65 93 112 93 180 _c
93 477 _l
27 477 _l
27 547 _l
93 547 _l
93 702 _l
183 702 _l
_cl}_d
/u{634 0 85 -13 543 560 _sc
85 216 _m
85 547 _l
175 547 _l
175 219 _l
175 167 185 129 205 103 _c
225 77 255 64 296 64 _c
344 64 383 79 411 110 _c
439 141 453 183 453 237 _c
453 547 _l
543 547 _l
543 0 _l
453 0 _l
453 84 _l
431 50 405 26 377 10 _c
348 -5 315 -13 277 -13 _c
214 -13 166 6 134 45 _c
101 83 85 140 85 216 _c
311 560 _m
311 560 _l
_cl}_d
end readonly def

/BuildGlyph
 {exch begin
 CharStrings exch
 2 copy known not{pop /.notdef}if
 true 3 1 roll get exec
 end}_d

/BuildChar {
 1 index /Encoding get exch get
 1 index /BuildGlyph get exec
}_d

FontName currentdict end definefont pop
%!PS-Adobe-3.0 Resource-Font
%%Title: DejaVu Sans Oblique
%%Copyright: Copyright (c) 2003 by Bitstream, Inc. All Rights Reserved. Copyright (c) 2006 by Tavmjong Bah. All Rights Reserved. DejaVu changes are in public domain 
%%Creator: Converted from TrueType to type 3 by PPR
25 dict begin
/_d{bind def}bind def
/_m{moveto}_d
/_l{lineto}_d
/_cl{closepath eofill}_d
/_c{curveto}_d
/_sc{7 -1 roll{setcachedevice}{pop pop pop pop pop pop}ifelse}_d
/_e{exec}_d
/FontName /DejaVuSans-Oblique def
/PaintType 0 def
/FontMatrix[.001 0 0 .001 0 0]def
/FontBBox[-1016 -350 1659 1068]def
/FontType 3 def
/Encoding [ /mu /uni03BC ] def
/FontInfo 10 dict dup begin
/FamilyName (DejaVu Sans) def
/FullName (DejaVu Sans Oblique) def
/Notice (Copyright (c) 2003 by Bitstream, Inc. All Rights Reserved. Copyright (c) 2006 by Tavmjong Bah. All Rights Reserved. DejaVu changes are in public domain ) def
/Weight (Oblique) def
/Version (Version 2.35) def
/ItalicAngle -11.0 def
/isFixedPitch false def
/UnderlinePosition -130 def
/UnderlineThickness 90 def
end readonly def
/CharStrings 3 dict dup begin
/.notdef 0 def
/mu{{636 0 -12 -207 592 547 _sc
-12 -207 _m
134 547 _l
224 547 _l
158 207 _l
156 199 155 191 154 183 _c
153 175 153 166 153 158 _c
153 128 162 104 181 88 _c
200 72 227 64 263 64 _c
311 64 349 77 379 105 _c
409 132 429 173 440 228 _c
502 547 _l
592 547 _l
510 126 _l
508 120 507 114 507 110 _c
507 106 507 102 507 98 _c
507 88 509 80 513 76 _c
517 71 523 69 532 69 _c
}_e{535 69 539 69 545 71 _c
551 73 559 76 570 80 _c
556 8 _l
542 1 528 -3 515 -7 _c
502 -11 489 -13 477 -13 _c
455 -13 438 -6 426 7 _c
414 20 408 39 408 63 _c
390 37 368 17 343 5 _c
317 -7 288 -13 254 -13 _c
223 -13 196 -6 174 7 _c
152 21 137 39 130 62 _c
77 -207 _l
-12 -207 _l
_cl}_e}_d
/uni03BC{636 0 -12 -207 592 547 _sc
false CharStrings /mu get exec
}_d
end readonly def

/BuildGlyph
 {exch begin
 CharStrings exch
 2 copy known not{pop /.notdef}if
 true 3 1 roll get exec
 end}_d

/BuildChar {
 1 index /Encoding get exch get
 1 index /BuildGlyph get exec
}_d

FontName currentdict end definefont pop
end
%%EndProlog
mpldict begin
-150.48 182.88 translate
912.96 426.24 0 0 clipbox
gsave
0 0 m
912.96 0 l
912.96 426.24 l
0 426.24 l
cl
1.000 setgray
fill
grestore
gsave
114.12 46.8864 m
821.664 46.8864 l
821.664 375.0912 l
114.12 375.0912 l
cl
1.000 setgray
fill
grestore
0.800 setlinewidth
1 setlinejoin
0 setlinecap
[2.96 1.28] 0 setdash
0.690 setgray
gsave
707.5 328.2 114.1 46.89 clipbox
181.139782 46.8864 m
181.139782 375.0912 l
stroke
grestore
[] 0 setdash
0.000 setgray
gsave
/o {
gsave
newpath
translate
0.8 setlinewidth
1 setlinejoin
0 setlinecap
0 0 m
0 -3.5 l

gsave
0.000 setgray
fill
grestore
stroke
grestore
} bind def
181.14 46.8864 o
grestore
/DejaVuSans findfont
10.000 scalefont
setfont
gsave
177.960095 32.292650 translate
0.000000 rotate
0.000000 0.000000 m /zero glyphshow
grestore
[2.96 1.28] 0 setdash
0.690 setgray
gsave
707.5 328.2 114.1 46.89 clipbox
273.023777 46.8864 m
273.023777 375.0912 l
stroke
grestore
[] 0 setdash
0.000 setgray
gsave
/o {
gsave
newpath
translate
0.8 setlinewidth
1 setlinejoin
0 setlinecap
0 0 m
0 -3.5 l

gsave
0.000 setgray
fill
grestore
stroke
grestore
} bind def
273.024 46.8864 o
grestore
gsave
253.945652 32.292650 translate
0.000000 rotate
0.000000 0.000000 m /two glyphshow
6.362305 0.000000 m /five glyphshow
12.724609 0.000000 m /zero glyphshow
19.086914 0.000000 m /zero glyphshow
25.449219 0.000000 m /zero glyphshow
31.811523 0.000000 m /zero glyphshow
grestore
[2.96 1.28] 0 setdash
0.690 setgray
gsave
707.5 328.2 114.1 46.89 clipbox
364.907772 46.8864 m
364.907772 375.0912 l
stroke
grestore
[] 0 setdash
0.000 setgray
gsave
/o {
gsave
newpath
translate
0.8 setlinewidth
1 setlinejoin
0 setlinecap
0 0 m
0 -3.5 l

gsave
0.000 setgray
fill
grestore
stroke
grestore
} bind def
364.908 46.8864 o
grestore
gsave
345.829647 32.292650 translate
0.000000 rotate
0.000000 0.000000 m /five glyphshow
6.362305 0.000000 m /zero glyphshow
12.724609 0.000000 m /zero glyphshow
19.086914 0.000000 m /zero glyphshow
25.449219 0.000000 m /zero glyphshow
31.811523 0.000000 m /zero glyphshow
grestore
[2.96 1.28] 0 setdash
0.690 setgray
gsave
707.5 328.2 114.1 46.89 clipbox
456.791767 46.8864 m
456.791767 375.0912 l
stroke
grestore
[] 0 setdash
0.000 setgray
gsave
/o {
gsave
newpath
translate
0.8 setlinewidth
1 setlinejoin
0 setlinecap
0 0 m
0 -3.5 l

gsave
0.000 setgray
fill
grestore
stroke
grestore
} bind def
456.792 46.8864 o
grestore
gsave
437.713642 32.292650 translate
0.000000 rotate
0.000000 0.000000 m /seven glyphshow
6.362305 0.000000 m /five glyphshow
12.724609 0.000000 m /zero glyphshow
19.086914 0.000000 m /zero glyphshow
25.449219 0.000000 m /zero glyphshow
31.811523 0.000000 m /zero glyphshow
grestore
[2.96 1.28] 0 setdash
0.690 setgray
gsave
707.5 328.2 114.1 46.89 clipbox
548.675762 46.8864 m
548.675762 375.0912 l
stroke
grestore
[] 0 setdash
0.000 setgray
gsave
/o {
gsave
newpath
translate
0.8 setlinewidth
1 setlinejoin
0 setlinecap
0 0 m
0 -3.5 l

gsave
0.000 setgray
fill
grestore
stroke
grestore
} bind def
548.676 46.8864 o
grestore
gsave
526.417949 32.292650 translate
0.000000 rotate
0.000000 0.000000 m /one glyphshow
6.362305 0.000000 m /zero glyphshow
12.724609 0.000000 m /zero glyphshow
19.086914 0.000000 m /zero glyphshow
25.449219 0.000000 m /zero glyphshow
31.811523 0.000000 m /zero glyphshow
38.173828 0.000000 m /zero glyphshow
grestore
[2.96 1.28] 0 setdash
0.690 setgray
gsave
707.5 328.2 114.1 46.89 clipbox
640.559757 46.8864 m
640.559757 375.0912 l
stroke
grestore
[] 0 setdash
0.000 setgray
gsave
/o {
gsave
newpath
translate
0.8 setlinewidth
1 setlinejoin
0 setlinecap
0 0 m
0 -3.5 l

gsave
0.000 setgray
fill
grestore
stroke
grestore
} bind def
640.56 46.8864 o
grestore
gsave
618.301944 32.292650 translate
0.000000 rotate
0.000000 0.000000 m /one glyphshow
6.362305 0.000000 m /two glyphshow
12.724609 0.000000 m /five glyphshow
19.086914 0.000000 m /zero glyphshow
25.449219 0.000000 m /zero glyphshow
31.811523 0.000000 m /zero glyphshow
38.173828 0.000000 m /zero glyphshow
grestore
[2.96 1.28] 0 setdash
0.690 setgray
gsave
707.5 328.2 114.1 46.89 clipbox
732.443751 46.8864 m
732.443751 375.0912 l
stroke
grestore
[] 0 setdash
0.000 setgray
gsave
/o {
gsave
newpath
translate
0.8 setlinewidth
1 setlinejoin
0 setlinecap
0 0 m
0 -3.5 l

gsave
0.000 setgray
fill
grestore
stroke
grestore
} bind def
732.444 46.8864 o
grestore
gsave
710.185939 32.292650 translate
0.000000 rotate
0.000000 0.000000 m /one glyphshow
6.362305 0.000000 m /five glyphshow
12.724609 0.000000 m /zero glyphshow
19.086914 0.000000 m /zero glyphshow
25.449219 0.000000 m /zero glyphshow
31.811523 0.000000 m /zero glyphshow
38.173828 0.000000 m /zero glyphshow
grestore
gsave
443.892000 18.214525 translate
0.000000 rotate
/DejaVuSans findfont
10.0 scalefont
setfont
0.000000 0.406250 moveto
/T glyphshow

6.108398 0.406250 moveto
/i glyphshow

8.886719 0.406250 moveto
/m glyphshow

18.627930 0.406250 moveto
/e glyphshow

24.780273 0.406250 moveto
/space glyphshow

27.958984 0.406250 moveto
/bracketleft glyphshow

/DejaVuSans-Oblique findfont
10.0 scalefont
setfont
31.860352 0.406250 moveto
/uni03BC glyphshow

/DejaVuSans findfont
10.0 scalefont
setfont
38.222656 0.406250 moveto
/s glyphshow

43.432617 0.406250 moveto
/bracketright glyphshow


grestore
[2.96 1.28] 0 setdash
0.690 setgray
gsave
707.5 328.2 114.1 46.89 clipbox
114.12 74.69718 m
821.664 74.69718 l
stroke
grestore
[] 0 setdash
0.000 setgray
gsave
/o {
gsave
newpath
translate
0.8 setlinewidth
1 setlinejoin
0 setlinecap
0 0 m
-3.5 0 l

gsave
0.000 setgray
fill
grestore
stroke
grestore
} bind def
114.12 74.6972 o
grestore
gsave
91.213750 70.900305 translate
0.000000 rotate
0.000000 0.000000 m /zero glyphshow
6.362305 0.000000 m /period glyphshow
9.541016 0.000000 m /zero glyphshow
grestore
[2.96 1.28] 0 setdash
0.690 setgray
gsave
707.5 328.2 114.1 46.89 clipbox
114.12 120.725082 m
821.664 120.725082 l
stroke
grestore
[] 0 setdash
0.000 setgray
gsave
/o {
gsave
newpath
translate
0.8 setlinewidth
1 setlinejoin
0 setlinecap
0 0 m
-3.5 0 l

gsave
0.000 setgray
fill
grestore
stroke
grestore
} bind def
114.12 120.725 o
grestore
gsave
91.213750 116.928207 translate
0.000000 rotate
0.000000 0.000000 m /zero glyphshow
6.362305 0.000000 m /period glyphshow
9.541016 0.000000 m /two glyphshow
grestore
[2.96 1.28] 0 setdash
0.690 setgray
gsave
707.5 328.2 114.1 46.89 clipbox
114.12 166.752985 m
821.664 166.752985 l
stroke
grestore
[] 0 setdash
0.000 setgray
gsave
/o {
gsave
newpath
translate
0.8 setlinewidth
1 setlinejoin
0 setlinecap
0 0 m
-3.5 0 l

gsave
0.000 setgray
fill
grestore
stroke
grestore
} bind def
114.12 166.753 o
grestore
gsave
91.213750 162.956110 translate
0.000000 rotate
0.000000 0.000000 m /zero glyphshow
6.362305 0.000000 m /period glyphshow
9.541016 0.000000 m /four glyphshow
grestore
[2.96 1.28] 0 setdash
0.690 setgray
gsave
707.5 328.2 114.1 46.89 clipbox
114.12 212.780888 m
821.664 212.780888 l
stroke
grestore
[] 0 setdash
0.000 setgray
gsave
/o {
gsave
newpath
translate
0.8 setlinewidth
1 setlinejoin
0 setlinecap
0 0 m
-3.5 0 l

gsave
0.000 setgray
fill
grestore
stroke
grestore
} bind def
114.12 212.781 o
grestore
gsave
91.213750 208.984013 translate
0.000000 rotate
0.000000 0.000000 m /zero glyphshow
6.362305 0.000000 m /period glyphshow
9.541016 0.000000 m /six glyphshow
grestore
[2.96 1.28] 0 setdash
0.690 setgray
gsave
707.5 328.2 114.1 46.89 clipbox
114.12 258.808791 m
821.664 258.808791 l
stroke
grestore
[] 0 setdash
0.000 setgray
gsave
/o {
gsave
newpath
translate
0.8 setlinewidth
1 setlinejoin
0 setlinecap
0 0 m
-3.5 0 l

gsave
0.000 setgray
fill
grestore
stroke
grestore
} bind def
114.12 258.809 o
grestore
gsave
91.213750 255.011916 translate
0.000000 rotate
0.000000 0.000000 m /zero glyphshow
6.362305 0.000000 m /period glyphshow
9.541016 0.000000 m /eight glyphshow
grestore
[2.96 1.28] 0 setdash
0.690 setgray
gsave
707.5 328.2 114.1 46.89 clipbox
114.12 304.836693 m
821.664 304.836693 l
stroke
grestore
[] 0 setdash
0.000 setgray
gsave
/o {
gsave
newpath
translate
0.8 setlinewidth
1 setlinejoin
0 setlinecap
0 0 m
-3.5 0 l

gsave
0.000 setgray
fill
grestore
stroke
grestore
} bind def
114.12 304.837 o
grestore
gsave
91.213750 301.039818 translate
0.000000 rotate
0.000000 0.000000 m /one glyphshow
6.362305 0.000000 m /period glyphshow
9.541016 0.000000 m /zero glyphshow
grestore
[2.96 1.28] 0 setdash
0.690 setgray
gsave
707.5 328.2 114.1 46.89 clipbox
114.12 350.864596 m
821.664 350.864596 l
stroke
grestore
[] 0 setdash
0.000 setgray
gsave
/o {
gsave
newpath
translate
0.8 setlinewidth
1 setlinejoin
0 setlinecap
0 0 m
-3.5 0 l

gsave
0.000 setgray
fill
grestore
stroke
grestore
} bind def
114.12 350.865 o
grestore
gsave
91.213750 347.067721 translate
0.000000 rotate
0.000000 0.000000 m /one glyphshow
6.362305 0.000000 m /period glyphshow
9.541016 0.000000 m /two glyphshow
grestore
gsave
85.135625 185.355988 translate
90.000000 rotate
0.000000 0.000000 m /A glyphshow
6.840820 0.000000 m /m glyphshow
16.582031 0.000000 m /p glyphshow
22.929688 0.000000 m /l glyphshow
25.708008 0.000000 m /i glyphshow
28.486328 0.000000 m /t glyphshow
32.407227 0.000000 m /u glyphshow
38.745117 0.000000 m /d glyphshow
45.092773 0.000000 m /e glyphshow
grestore
1.500 setlinewidth
[5.55 2.4] 0 setdash
1.000 0.000 0.000 setrgbcolor
gsave
707.5 328.2 114.1 46.89 clipbox
181.139782 28.669277 m
181.139782 350.864596 l
stroke
grestore
gsave
707.5 328.2 114.1 46.89 clipbox
731.190454 28.669277 m
731.190454 350.864596 l
stroke
grestore
0.102 setgray
gsave
707.5 328.2 114.1 46.89 clipbox
-1 304.836693 m
913.96 304.836693 l
stroke
grestore
0.000 1.000 0.000 setrgbcolor
gsave
707.5 328.2 114.1 46.89 clipbox
209.906456 28.669277 m
209.906456 350.864596 l
stroke
grestore
0.102 setgray
gsave
707.5 328.2 114.1 46.89 clipbox
-1 333.344853 m
913.96 333.344853 l
stroke
grestore
2 setlinecap
[] 0 setdash
0.122 0.467 0.706 setrgbcolor
gsave
707.5 328.2 114.1 46.89 clipbox
-1 74.708769 m
0.50467 74.598297 l
1.655425 74.783031 l
2.805812 74.681082 l
3.9562 74.46262 l
6.25771 74.741639 l
7.408098 74.632024 l
8.558485 74.7723 l
14.55116 74.756203 l
16.611566 74.408196 l
18.912709 74.765401 l
21.213484 74.77 l
22.363872 74.648122 l
24.665382 74.879615 l
25.81577 74.731674 l
26.966157 74.784565 l
29.2673 74.490216 l
32.718831 74.693347 l
35.019606 74.727075 l
36.169993 74.615927 l
43.072687 74.606729 l
44.223442 74.536974 l
47.674605 74.836689 l
49.975747 74.706378 l
51.126135 74.786864 l
53.42691 74.705612 l
54.577665 74.79223 l
58.029196 74.762335 l
59.179583 74.904144 l
62.631114 74.567635 l
66.083012 74.622059 l
67.233767 74.776133 l
70.685297 74.735506 l
74.136828 74.523177 l
75.287215 74.554604 l
76.437603 74.733207 l
78.738378 74.650421 l
81.039521 74.743938 l
82.190276 74.664985 l
85.641439 74.866584 l
91.394112 74.59753 l
92.5445 74.832856 l
93.694887 74.822891 l
94.845642 74.633557 l
97.146785 74.705612 l
98.29754 74.56227 l
99.447928 74.707145 l
101.748703 74.771533 l
104.050213 74.773067 l
105.200601 74.605196 l
106.350989 74.5799 l
108.652131 74.834389 l
112.104029 74.40743 l
113.254785 74.526243 l
115.555927 74.618227 l
116.706682 74.796829 l
121.309335 74.519344 l
122.459723 74.681082 l
137.417702 74.747771 l
139.718845 74.588332 l
142.019988 74.723242 l
143.170743 74.632024 l
144.321498 74.726308 l
146.622641 74.692581 l
147.773029 74.80986 l
150.074171 74.651954 l
154.676457 74.701012 l
155.827212 74.948603 l
165.031783 74.591398 l
166.182538 74.684149 l
168.483681 74.532375 l
169.634069 74.704845 l
176.537497 74.692581 l
177.688252 74.547706 l
181.139782 74.721709 l
182.290538 74.622826 l
183.441293 74.890346 l
184.592048 75.951996 l
185.742436 75.526569 l
186.893191 74.236493 l
188.043946 77.105629 l
189.194333 81.316199 l
190.345089 83.54298 l
191.495844 85.363498 l
192.646599 92.427107 l
196.098497 152.232842 l
197.249252 175.048721 l
199.550395 228.2523 l
201.851905 269.232731 l
203.00266 290.598328 l
204.153048 306.317637 l
205.303803 317.062141 l
206.454558 322.903896 l
207.604946 329.32055 l
208.755701 332.415047 l
209.906456 333.344853 l
211.056844 332.687933 l
215.659497 328.456666 l
216.810252 327.74609 l
220.262517 326.124871 l
221.413272 325.601328 l
222.564395 325.33994 l
223.714783 324.853191 l
226.016293 324.26296 l
228.318171 323.603741 l
229.468926 323.152252 l
239.825355 320.982195 l
244.428376 320.29998 l
247.881008 319.641528 l
253.634417 319.019869 l
255.935927 318.578345 l
258.237437 318.271732 l
259.388192 318.287829 l
265.142703 317.292101 l
266.293458 317.219281 l
267.444581 317.28137 l
268.595336 317.153359 l
269.746091 317.229246 l
272.047969 316.60682 l
274.34948 316.7264 l
275.500235 316.503338 l
277.801745 316.385292 l
278.9525 316.1469 l
283.555521 315.85715 l
285.857031 315.604194 l
287.007786 315.747536 l
289.309664 315.390331 l
291.611174 315.209429 l
293.913052 314.9902 l
297.365318 314.869855 l
299.666828 314.578572 l
301.968338 314.699684 l
304.269481 314.271958 l
305.420236 314.288055 l
307.721746 314.174608 l
308.872134 314.250495 l
312.3244 313.884859 l
313.475155 313.946948 l
316.92742 313.461732 l
319.22893 313.599708 l
321.530441 313.389678 l
328.434972 313.283896 l
330.736482 312.869968 l
334.188747 312.79868 l
335.339503 312.64614 l
337.641013 312.690599 l
341.093278 312.466005 l
344.545911 312.540358 l
346.847054 312.062041 l
349.148564 312.379386 l
352.60083 311.970824 l
353.751217 312.032913 l
356.052728 311.799887 l
361.806871 311.676475 l
364.108381 311.383659 l
366.410259 311.415853 l
367.561014 311.505538 l
371.01328 311.362196 l
372.164035 311.231119 l
373.315158 311.311605 l
374.465545 311.240317 l
375.616668 310.860883 l
377.918178 311.096975 l
379.068933 311.028754 l
380.219689 310.845552 l
383.672322 310.826389 l
384.823444 310.886945 l
385.973832 310.755868 l
389.426465 310.687646 l
390.57722 310.438523 l
394.029485 310.466884 l
395.180241 310.530507 l
397.481751 310.407861 l
398.632506 310.511343 l
400.934016 310.345772 l
402.084771 310.369535 l
405.536669 310.08975 l
407.83818 310.23999 l
408.988935 309.987801 l
410.13969 309.899649 l
412.4412 309.968637 l
413.591955 309.773171 l
415.893466 309.882019 l
418.194609 309.872821 l
420.496119 309.808432 l
421.646874 309.884319 l
423.948384 309.597635 l
426.249527 309.735611 l
427.400282 309.468091 l
428.551037 309.353877 l
430.852548 309.600701 l
432.003303 309.593802 l
433.154058 309.392204 l
434.304813 309.305586 l
436.606323 309.488021 l
441.209712 309.115485 l
444.661609 309.062594 l
445.812365 309.049563 l
446.963487 309.179108 l
455.018773 308.626437 l
456.169161 308.892424 l
458.470304 308.973676 l
459.621059 308.773611 l
464.223712 308.733751 l
467.67561 308.624137 l
482.635059 308.266166 l
483.785814 308.286862 l
484.93657 308.010143 l
487.237712 307.971817 l
490.689978 307.997112 l
494.142243 308.12359 l
497.594509 307.871401 l
498.745264 307.908961 l
499.895651 307.828475 l
501.046407 307.959552 l
503.347917 307.996346 l
505.649427 307.66367 l
506.800182 307.906661 l
507.950938 307.907428 l
509.101693 307.682834 l
510.252448 307.784783 l
517.156244 307.541025 l
518.306999 307.514196 l
519.457754 307.669802 l
520.608509 307.649106 l
522.910019 307.176921 l
524.060775 307.185353 l
526.362285 307.419912 l
528.664163 307.389251 l
530.965673 307.200684 l
534.417938 307.293434 l
535.568694 307.116365 l
536.719449 307.353224 l
542.473225 307.16389 l
544.775102 307.076505 l
545.925858 307.344026 l
549.377755 307.110233 l
552.830021 307.009817 l
553.980776 306.848078 l
557.433042 306.844246 l
559.734919 306.776791 l
560.885674 306.947728 l
562.036062 306.853444 l
563.186817 306.575192 l
565.488328 306.754561 l
566.639083 306.664877 l
567.78947 306.769892 l
570.090981 306.656445 l
571.241736 306.660277 l
572.392491 306.789822 l
574.694001 306.662577 l
575.844389 306.730799 l
578.38737 306.483975 l
580.447409 306.563694 l
583.899675 306.48934 l
586.201185 306.572126 l
587.35194 306.433383 l
588.502696 306.510803 l
593.105716 306.349831 l
595.407226 306.458679 l
598.859124 306.177361 l
600.009879 306.3391 l
608.064798 306.309205 l
609.215553 306.086144 l
610.366308 306.065447 l
611.516696 306.260913 l
617.270472 306.160497 l
618.421227 306.196524 l
621.873125 305.758834 l
624.174635 305.981128 l
626.475778 306.103774 l
628.777288 305.748102 l
629.927676 305.742736 l
631.078431 305.898343 l
633.379574 305.974996 l
635.680716 305.764966 l
639.132982 305.9543 l
640.283369 305.672982 l
642.58488 305.754234 l
643.735635 305.822456 l
646.036778 305.64462 l
647.187533 305.473683 l
648.338288 305.459119 l
650.639798 305.705943 l
651.790553 305.712842 l
652.941309 305.449921 l
656.393942 305.426158 l
657.544329 305.310411 l
663.298105 305.39703 l
665.599615 305.374034 l
666.75037 305.486714 l
673.654901 305.253688 l
675.956412 305.25982 l
677.107167 305.30198 l
679.409045 305.139474 l
680.5598 305.25982 l
682.86131 305.21996 l
685.16282 305.371734 l
688.615086 305.321909 l
689.765841 305.213828 l
690.916596 305.236058 l
692.067351 305.008397 l
694.368494 304.985401 l
695.519249 304.770005 l
698.971147 305.00993 l
700.121902 304.904915 l
701.273025 305.028327 l
702.423413 304.967771 l
704.724923 305.156338 l
707.026066 305.04749 l
708.176453 304.836693 l
711.628719 305.056689 l
712.779106 304.960872 l
713.929861 305.018362 l
716.231372 304.866588 l
717.382127 304.631262 l
719.68327 304.738577 l
721.98478 304.758507 l
723.135168 304.661157 l
728.888943 304.721713 l
730.039699 304.656558 l
732.344884 304.806799 l
733.491229 304.606733 l
734.641984 304.538512 l
735.792372 303.975109 l
736.943127 302.266506 l
738.093882 298.853131 l
739.24427 290.756234 l
740.394657 274.443628 l
742.6958 229.839025 l
746.147698 164.169306 l
747.298453 144.031696 l
748.448841 126.360792 l
749.599596 112.013579 l
750.750351 100.804555 l
751.901106 93.120053 l
753.051494 89.855386 l
754.202249 87.139557 l
755.352636 83.191141 l
756.503392 79.681183 l
758.804534 72.21361 l
759.954922 69.506979 l
761.105677 69.929339 l
762.256065 75.23452 l
763.406452 79.538607 l
764.557208 78.573541 l
765.707595 74.52241 l
766.85835 72.550118 l
768.008738 74.809094 l
769.159493 77.342488 l
770.309881 77.222142 l
771.460636 74.671884 l
772.611023 73.297489 l
774.912166 76.29157 l
776.062554 75.429219 l
777.212941 73.778872 l
778.363329 74.067855 l
779.513717 75.132571 l
780.664104 74.748537 l
781.814859 74.134544 l
784.115635 75.262882 l
785.266022 74.515511 l
786.41641 74.201999 l
787.566798 74.823658 l
788.717185 75.04212 l
789.86794 74.673417 l
791.018328 74.520877 l
792.169083 74.740872 l
794.469858 74.336142 l
796.771001 74.731674 l
797.921756 74.487149 l
799.072144 74.509379 l
800.222899 74.727841 l
801.373287 74.803728 l
802.524042 74.691047 l
803.674429 74.708678 l
804.825184 74.853553 l
807.12596 74.746238 l
808.276715 74.678016 l
809.427102 74.724775 l
810.577858 74.543106 l
811.728245 74.654254 l
814.029388 74.695647 l
816.330531 74.645055 l
823.233224 74.595997 l
824.383612 74.763868 l
826.684387 74.699479 l
828.985162 74.575301 l
832.436325 74.744705 l
834.737468 74.684915 l
835.887855 74.463387 l
837.038243 74.539274 l
838.188631 74.780732 l
839.339018 74.878082 l
842.790181 74.647355 l
845.090956 74.67495 l
848.542119 74.664985 l
862.348241 74.536208 l
863.498628 74.697946 l
870.401689 74.553838 l
873.852852 74.939404 l
875.003239 74.941704 l
876.153995 74.648122 l
878.45477 74.537741 l
883.056688 74.830557 l
885.357831 74.744705 l
888.809361 74.696413 l
889.959749 74.893412 l
891.110504 74.842055 l
892.260891 74.678783 l
895.712422 74.704079 l
898.013197 74.699479 l
900.31434 74.615161 l
902.615115 74.722475 l
906.066645 74.778432 l
908.367788 74.873482 l
910.668931 74.612861 l
912.970441 74.737039 l
913.96 74.562307 l
913.96 74.562307 l
stroke
grestore
0.800 setlinewidth
0 setlinejoin
[] 0 setdash
0.000 setgray
gsave
114.12 46.8864 m
114.12 375.0912 l
stroke
grestore
gsave
821.664 46.8864 m
821.664 375.0912 l
stroke
grestore
gsave
114.12 46.8864 m
821.664 46.8864 l
stroke
grestore
gsave
114.12 375.0912 m
821.664 375.0912 l
stroke
grestore
/DejaVuSans findfont
12.000 scalefont
setfont
gsave
423.212313 381.091200 translate
0.000000 rotate
0.000000 0.000000 m /S glyphshow
7.617188 0.000000 m /t glyphshow
12.322266 0.000000 m /e glyphshow
19.705078 0.000000 m /p glyphshow
27.322266 0.000000 m /space glyphshow
31.136719 0.000000 m /R glyphshow
39.474609 0.000000 m /e glyphshow
46.857422 0.000000 m /s glyphshow
53.109375 0.000000 m /p glyphshow
60.726562 0.000000 m /o glyphshow
68.068359 0.000000 m /n glyphshow
75.673828 0.000000 m /s glyphshow
81.925781 0.000000 m /e glyphshow
grestore

end
showpage
