%!PS-Adobe-3.0 EPSF-3.0
%%Title: /run/media/usuario/Data1/documents/201819-2010068-trabajo-fin-de-grado/trabajo-fin-de-grado/resources/Figure_11.eps
%%Creator: matplotlib version 3.1.1, http://matplotlib.org/
%%CreationDate: Wed Aug 28 10:48:21 2019
%%Orientation: portrait
%%BoundingBox: -150.48 182.88 762.48 609.12
%%EndComments
%%BeginProlog
/mpldict 9 dict def
mpldict begin
/m { moveto } bind def
/l { lineto } bind def
/r { rlineto } bind def
/c { curveto } bind def
/cl { closepath } bind def
/box {
m
1 index 0 r
0 exch r
neg 0 r
cl
} bind def
/clipbox {
box
clip
newpath
} bind def
%!PS-Adobe-3.0 Resource-Font
%%Title: DejaVu Sans
%%Copyright: Copyright (c) 2003 by Bitstream, Inc. All Rights Reserved. Copyright (c) 2006 by Tavmjong Bah. All Rights Reserved. DejaVu changes are in public domain 
%%Creator: Converted from TrueType to type 3 by PPR
25 dict begin
/_d{bind def}bind def
/_m{moveto}_d
/_l{lineto}_d
/_cl{closepath eofill}_d
/_c{curveto}_d
/_sc{7 -1 roll{setcachedevice}{pop pop pop pop pop pop}ifelse}_d
/_e{exec}_d
/FontName /DejaVuSans def
/PaintType 0 def
/FontMatrix[.001 0 0 .001 0 0]def
/FontBBox[-1021 -463 1793 1232]def
/FontType 3 def
/Encoding [ /space /period /zero /one /two /three /four /five /seven /eight /A /C /D /O /bracketleft /bracketright /e /i /m /p /s /t /u ] def
/FontInfo 10 dict dup begin
/FamilyName (DejaVu Sans) def
/FullName (DejaVu Sans) def
/Notice (Copyright (c) 2003 by Bitstream, Inc. All Rights Reserved. Copyright (c) 2006 by Tavmjong Bah. All Rights Reserved. DejaVu changes are in public domain ) def
/Weight (Book) def
/Version (Version 2.35) def
/ItalicAngle 0.0 def
/isFixedPitch false def
/UnderlinePosition -130 def
/UnderlineThickness 90 def
end readonly def
/CharStrings 24 dict dup begin
/.notdef 0 def
/space{318 0 0 0 0 0 _sc
}_d
/period{318 0 107 0 210 124 _sc
107 124 _m
210 124 _l
210 0 _l
107 0 _l
107 124 _l
_cl}_d
/zero{636 0 66 -13 570 742 _sc
318 664 _m
267 664 229 639 203 589 _c
177 539 165 464 165 364 _c
165 264 177 189 203 139 _c
229 89 267 64 318 64 _c
369 64 407 89 433 139 _c
458 189 471 264 471 364 _c
471 464 458 539 433 589 _c
407 639 369 664 318 664 _c
318 742 _m
399 742 461 709 505 645 _c
548 580 570 486 570 364 _c
570 241 548 147 505 83 _c
461 19 399 -13 318 -13 _c
236 -13 173 19 130 83 _c
87 147 66 241 66 364 _c
66 486 87 580 130 645 _c
173 709 236 742 318 742 _c
_cl}_d
/one{636 0 110 0 544 729 _sc
124 83 _m
285 83 _l
285 639 _l
110 604 _l
110 694 _l
284 729 _l
383 729 _l
383 83 _l
544 83 _l
544 0 _l
124 0 _l
124 83 _l
_cl}_d
/two{{636 0 73 0 536 742 _sc
192 83 _m
536 83 _l
536 0 _l
73 0 _l
73 83 _l
110 121 161 173 226 239 _c
290 304 331 346 348 365 _c
380 400 402 430 414 455 _c
426 479 433 504 433 528 _c
433 566 419 598 392 622 _c
365 646 330 659 286 659 _c
255 659 222 653 188 643 _c
154 632 117 616 78 594 _c
78 694 _l
118 710 155 722 189 730 _c
223 738 255 742 284 742 _c
}_e{359 742 419 723 464 685 _c
509 647 532 597 532 534 _c
532 504 526 475 515 449 _c
504 422 484 390 454 354 _c
446 344 420 317 376 272 _c
332 227 271 164 192 83 _c
_cl}_e}_d
/three{{636 0 76 -13 556 742 _sc
406 393 _m
453 383 490 362 516 330 _c
542 298 556 258 556 212 _c
556 140 531 84 482 45 _c
432 6 362 -13 271 -13 _c
240 -13 208 -10 176 -4 _c
144 1 110 10 76 22 _c
76 117 _l
103 101 133 89 166 81 _c
198 73 232 69 268 69 _c
330 69 377 81 409 105 _c
441 129 458 165 458 212 _c
458 254 443 288 413 312 _c
383 336 341 349 287 349 _c
}_e{202 349 _l
202 430 _l
291 430 _l
339 430 376 439 402 459 _c
428 478 441 506 441 543 _c
441 580 427 609 401 629 _c
374 649 336 659 287 659 _c
260 659 231 656 200 650 _c
169 644 135 635 98 623 _c
98 711 _l
135 721 170 729 203 734 _c
235 739 266 742 296 742 _c
370 742 429 725 473 691 _c
517 657 539 611 539 553 _c
539 513 527 479 504 451 _c
481 423 448 403 406 393 _c
_cl}_e}_d
/four{636 0 49 0 580 729 _sc
378 643 _m
129 254 _l
378 254 _l
378 643 _l
352 729 _m
476 729 _l
476 254 _l
580 254 _l
580 172 _l
476 172 _l
476 0 _l
378 0 _l
378 172 _l
49 172 _l
49 267 _l
352 729 _l
_cl}_d
/five{{636 0 77 -13 549 729 _sc
108 729 _m
495 729 _l
495 646 _l
198 646 _l
198 467 _l
212 472 227 476 241 478 _c
255 480 270 482 284 482 _c
365 482 429 459 477 415 _c
525 370 549 310 549 234 _c
549 155 524 94 475 51 _c
426 8 357 -13 269 -13 _c
238 -13 207 -10 175 -6 _c
143 -1 111 6 77 17 _c
77 116 _l
106 100 136 88 168 80 _c
199 72 232 69 267 69 _c
}_e{323 69 368 83 401 113 _c
433 143 450 183 450 234 _c
450 284 433 324 401 354 _c
368 384 323 399 267 399 _c
241 399 214 396 188 390 _c
162 384 135 375 108 363 _c
108 729 _l
_cl}_e}_d
/seven{636 0 82 0 551 729 _sc
82 729 _m
551 729 _l
551 687 _l
286 0 _l
183 0 _l
432 646 _l
82 646 _l
82 729 _l
_cl}_d
/eight{{636 0 68 -13 568 742 _sc
318 346 _m
271 346 234 333 207 308 _c
180 283 167 249 167 205 _c
167 161 180 126 207 101 _c
234 76 271 64 318 64 _c
364 64 401 76 428 102 _c
455 127 469 161 469 205 _c
469 249 455 283 429 308 _c
402 333 365 346 318 346 _c
219 388 _m
177 398 144 418 120 447 _c
96 476 85 511 85 553 _c
85 611 105 657 147 691 _c
188 725 245 742 318 742 _c
}_e{390 742 447 725 489 691 _c
530 657 551 611 551 553 _c
551 511 539 476 515 447 _c
491 418 459 398 417 388 _c
464 377 501 355 528 323 _c
554 291 568 251 568 205 _c
568 134 546 80 503 43 _c
459 5 398 -13 318 -13 _c
237 -13 175 5 132 43 _c
89 80 68 134 68 205 _c
68 251 81 291 108 323 _c
134 355 171 377 219 388 _c
183 544 _m
183 506 194 476 218 455 _c
}_e{242 434 275 424 318 424 _c
360 424 393 434 417 455 _c
441 476 453 506 453 544 _c
453 582 441 611 417 632 _c
393 653 360 664 318 664 _c
275 664 242 653 218 632 _c
194 611 183 582 183 544 _c
_cl}_e}_d
/A{684 0 8 0 676 729 _sc
342 632 _m
208 269 _l
476 269 _l
342 632 _l
286 729 _m
398 729 _l
676 0 _l
573 0 _l
507 187 _l
178 187 _l
112 0 _l
8 0 _l
286 729 _l
_cl}_d
/C{{698 0 56 -13 644 742 _sc
644 673 _m
644 569 _l
610 599 575 622 537 638 _c
499 653 460 661 418 661 _c
334 661 270 635 226 584 _c
182 533 160 460 160 364 _c
160 268 182 194 226 143 _c
270 92 334 67 418 67 _c
460 67 499 74 537 90 _c
575 105 610 128 644 159 _c
644 56 _l
609 32 572 15 534 4 _c
496 -7 455 -13 412 -13 _c
302 -13 215 20 151 87 _c
}_e{87 154 56 246 56 364 _c
56 481 87 573 151 641 _c
215 708 302 742 412 742 _c
456 742 497 736 535 725 _c
573 713 610 696 644 673 _c
_cl}_e}_d
/D{770 0 98 0 711 729 _sc
197 648 _m
197 81 _l
316 81 _l
416 81 490 103 537 149 _c
583 195 607 267 607 365 _c
607 463 583 534 537 580 _c
490 625 416 648 316 648 _c
197 648 _l
98 729 _m
301 729 _l
442 729 546 699 612 641 _c
678 582 711 490 711 365 _c
711 239 677 147 611 88 _c
545 29 441 0 301 0 _c
98 0 _l
98 729 _l
_cl}_d
/O{787 0 56 -13 731 742 _sc
394 662 _m
322 662 265 635 223 582 _c
181 528 160 456 160 364 _c
160 272 181 199 223 146 _c
265 92 322 66 394 66 _c
465 66 522 92 564 146 _c
606 199 627 272 627 364 _c
627 456 606 528 564 582 _c
522 635 465 662 394 662 _c
394 742 _m
496 742 577 707 639 639 _c
700 571 731 479 731 364 _c
731 248 700 157 639 89 _c
577 21 496 -13 394 -13 _c
291 -13 209 21 148 89 _c
86 157 56 248 56 364 _c
56 479 86 571 148 639 _c
209 707 291 742 394 742 _c
_cl}_d
/bracketleft{390 0 86 -131 293 760 _sc
86 760 _m
293 760 _l
293 690 _l
176 690 _l
176 -61 _l
293 -61 _l
293 -131 _l
86 -131 _l
86 760 _l
_cl}_d
/bracketright{390 0 97 -131 304 760 _sc
304 760 _m
304 -131 _l
97 -131 _l
97 -61 _l
214 -61 _l
214 690 _l
97 690 _l
97 760 _l
304 760 _l
_cl}_d
/e{{615 0 55 -13 562 560 _sc
562 296 _m
562 252 _l
149 252 _l
153 190 171 142 205 110 _c
238 78 284 62 344 62 _c
378 62 412 66 444 74 _c
476 82 509 95 541 113 _c
541 28 _l
509 14 476 3 442 -3 _c
408 -9 373 -13 339 -13 _c
251 -13 182 12 131 62 _c
80 112 55 181 55 268 _c
55 357 79 428 127 481 _c
175 533 241 560 323 560 _c
397 560 455 536 498 489 _c
}_e{540 441 562 377 562 296 _c
472 322 _m
471 371 457 410 431 440 _c
404 469 368 484 324 484 _c
274 484 234 469 204 441 _c
174 413 156 373 152 322 _c
472 322 _l
_cl}_e}_d
/i{278 0 94 0 184 760 _sc
94 547 _m
184 547 _l
184 0 _l
94 0 _l
94 547 _l
94 760 _m
184 760 _l
184 646 _l
94 646 _l
94 760 _l
_cl}_d
/m{{974 0 91 0 889 560 _sc
520 442 _m
542 482 569 511 600 531 _c
631 550 668 560 711 560 _c
767 560 811 540 842 500 _c
873 460 889 403 889 330 _c
889 0 _l
799 0 _l
799 327 _l
799 379 789 418 771 444 _c
752 469 724 482 686 482 _c
639 482 602 466 575 435 _c
548 404 535 362 535 309 _c
535 0 _l
445 0 _l
445 327 _l
445 379 435 418 417 444 _c
398 469 369 482 331 482 _c
}_e{285 482 248 466 221 435 _c
194 404 181 362 181 309 _c
181 0 _l
91 0 _l
91 547 _l
181 547 _l
181 462 _l
201 495 226 520 255 536 _c
283 552 317 560 357 560 _c
397 560 430 550 458 530 _c
486 510 506 480 520 442 _c
_cl}_e}_d
/p{{635 0 91 -207 580 560 _sc
181 82 _m
181 -207 _l
91 -207 _l
91 547 _l
181 547 _l
181 464 _l
199 496 223 520 252 536 _c
281 552 316 560 356 560 _c
422 560 476 533 518 481 _c
559 428 580 359 580 273 _c
580 187 559 117 518 65 _c
476 13 422 -13 356 -13 _c
316 -13 281 -5 252 10 _c
223 25 199 49 181 82 _c
487 273 _m
487 339 473 390 446 428 _c
418 466 381 485 334 485 _c
}_e{286 485 249 466 222 428 _c
194 390 181 339 181 273 _c
181 207 194 155 222 117 _c
249 79 286 61 334 61 _c
381 61 418 79 446 117 _c
473 155 487 207 487 273 _c
_cl}_e}_d
/s{{521 0 54 -13 472 560 _sc
443 531 _m
443 446 _l
417 458 391 468 364 475 _c
336 481 308 485 279 485 _c
234 485 200 478 178 464 _c
156 450 145 430 145 403 _c
145 382 153 366 169 354 _c
185 342 217 330 265 320 _c
296 313 _l
360 299 405 279 432 255 _c
458 230 472 195 472 151 _c
472 100 452 60 412 31 _c
372 1 316 -13 246 -13 _c
216 -13 186 -10 154 -5 _c
}_e{122 0 89 8 54 20 _c
54 113 _l
87 95 120 82 152 74 _c
184 65 216 61 248 61 _c
290 61 323 68 346 82 _c
368 96 380 117 380 144 _c
380 168 371 187 355 200 _c
339 213 303 226 247 238 _c
216 245 _l
160 257 119 275 95 299 _c
70 323 58 356 58 399 _c
58 450 76 490 112 518 _c
148 546 200 560 268 560 _c
301 560 332 557 362 552 _c
391 547 418 540 443 531 _c
}_e{_cl}_e}_d
/t{392 0 27 0 368 702 _sc
183 702 _m
183 547 _l
368 547 _l
368 477 _l
183 477 _l
183 180 _l
183 135 189 106 201 94 _c
213 81 238 75 276 75 _c
368 75 _l
368 0 _l
276 0 _l
206 0 158 13 132 39 _c
106 65 93 112 93 180 _c
93 477 _l
27 477 _l
27 547 _l
93 547 _l
93 702 _l
183 702 _l
_cl}_d
/u{634 0 85 -13 543 560 _sc
85 216 _m
85 547 _l
175 547 _l
175 219 _l
175 167 185 129 205 103 _c
225 77 255 64 296 64 _c
344 64 383 79 411 110 _c
439 141 453 183 453 237 _c
453 547 _l
543 547 _l
543 0 _l
453 0 _l
453 84 _l
431 50 405 26 377 10 _c
348 -5 315 -13 277 -13 _c
214 -13 166 6 134 45 _c
101 83 85 140 85 216 _c
311 560 _m
311 560 _l
_cl}_d
end readonly def

/BuildGlyph
 {exch begin
 CharStrings exch
 2 copy known not{pop /.notdef}if
 true 3 1 roll get exec
 end}_d

/BuildChar {
 1 index /Encoding get exch get
 1 index /BuildGlyph get exec
}_d

FontName currentdict end definefont pop
%!PS-Adobe-3.0 Resource-Font
%%Title: DejaVu Sans Oblique
%%Copyright: Copyright (c) 2003 by Bitstream, Inc. All Rights Reserved. Copyright (c) 2006 by Tavmjong Bah. All Rights Reserved. DejaVu changes are in public domain 
%%Creator: Converted from TrueType to type 3 by PPR
25 dict begin
/_d{bind def}bind def
/_m{moveto}_d
/_l{lineto}_d
/_cl{closepath eofill}_d
/_c{curveto}_d
/_sc{7 -1 roll{setcachedevice}{pop pop pop pop pop pop}ifelse}_d
/_e{exec}_d
/FontName /DejaVuSans-Oblique def
/PaintType 0 def
/FontMatrix[.001 0 0 .001 0 0]def
/FontBBox[-1016 -350 1659 1068]def
/FontType 3 def
/Encoding [ /mu /uni03BC ] def
/FontInfo 10 dict dup begin
/FamilyName (DejaVu Sans) def
/FullName (DejaVu Sans Oblique) def
/Notice (Copyright (c) 2003 by Bitstream, Inc. All Rights Reserved. Copyright (c) 2006 by Tavmjong Bah. All Rights Reserved. DejaVu changes are in public domain ) def
/Weight (Oblique) def
/Version (Version 2.35) def
/ItalicAngle -11.0 def
/isFixedPitch false def
/UnderlinePosition -130 def
/UnderlineThickness 90 def
end readonly def
/CharStrings 3 dict dup begin
/.notdef 0 def
/mu{{636 0 -12 -207 592 547 _sc
-12 -207 _m
134 547 _l
224 547 _l
158 207 _l
156 199 155 191 154 183 _c
153 175 153 166 153 158 _c
153 128 162 104 181 88 _c
200 72 227 64 263 64 _c
311 64 349 77 379 105 _c
409 132 429 173 440 228 _c
502 547 _l
592 547 _l
510 126 _l
508 120 507 114 507 110 _c
507 106 507 102 507 98 _c
507 88 509 80 513 76 _c
517 71 523 69 532 69 _c
}_e{535 69 539 69 545 71 _c
551 73 559 76 570 80 _c
556 8 _l
542 1 528 -3 515 -7 _c
502 -11 489 -13 477 -13 _c
455 -13 438 -6 426 7 _c
414 20 408 39 408 63 _c
390 37 368 17 343 5 _c
317 -7 288 -13 254 -13 _c
223 -13 196 -6 174 7 _c
152 21 137 39 130 62 _c
77 -207 _l
-12 -207 _l
_cl}_e}_d
/uni03BC{636 0 -12 -207 592 547 _sc
false CharStrings /mu get exec
}_d
end readonly def

/BuildGlyph
 {exch begin
 CharStrings exch
 2 copy known not{pop /.notdef}if
 true 3 1 roll get exec
 end}_d

/BuildChar {
 1 index /Encoding get exch get
 1 index /BuildGlyph get exec
}_d

FontName currentdict end definefont pop
end
%%EndProlog
mpldict begin
-150.48 182.88 translate
912.96 426.24 0 0 clipbox
gsave
0 0 m
912.96 0 l
912.96 426.24 l
0 426.24 l
cl
1.000 setgray
fill
grestore
gsave
114.12 46.8864 m
821.664 46.8864 l
821.664 375.0912 l
114.12 375.0912 l
cl
1.000 setgray
fill
grestore
0.800 setlinewidth
1 setlinejoin
0 setlinecap
[2.96 1.28] 0 setdash
0.690 setgray
gsave
707.5 328.2 114.1 46.89 clipbox
166.206344 46.8864 m
166.206344 375.0912 l
stroke
grestore
[] 0 setdash
0.000 setgray
gsave
/o {
gsave
newpath
translate
0.8 setlinewidth
1 setlinejoin
0 setlinecap
0 0 m
0 -3.5 l

gsave
0.000 setgray
fill
grestore
stroke
grestore
} bind def
166.206 46.8864 o
grestore
/DejaVuSans findfont
10.000 scalefont
setfont
gsave
151.893844 32.292650 translate
0.000000 rotate
0.000000 0.000000 m /three glyphshow
6.362305 0.000000 m /period glyphshow
9.541016 0.000000 m /two glyphshow
15.903320 0.000000 m /five glyphshow
22.265625 0.000000 m /zero glyphshow
grestore
[2.96 1.28] 0 setdash
0.690 setgray
gsave
707.5 328.2 114.1 46.89 clipbox
253.843905 46.8864 m
253.843905 375.0912 l
stroke
grestore
[] 0 setdash
0.000 setgray
gsave
/o {
gsave
newpath
translate
0.8 setlinewidth
1 setlinejoin
0 setlinecap
0 0 m
0 -3.5 l

gsave
0.000 setgray
fill
grestore
stroke
grestore
} bind def
253.844 46.8864 o
grestore
gsave
239.531405 32.292650 translate
0.000000 rotate
0.000000 0.000000 m /three glyphshow
6.362305 0.000000 m /period glyphshow
9.541016 0.000000 m /two glyphshow
15.903320 0.000000 m /seven glyphshow
22.265625 0.000000 m /five glyphshow
grestore
[2.96 1.28] 0 setdash
0.690 setgray
gsave
707.5 328.2 114.1 46.89 clipbox
341.481466 46.8864 m
341.481466 375.0912 l
stroke
grestore
[] 0 setdash
0.000 setgray
gsave
/o {
gsave
newpath
translate
0.8 setlinewidth
1 setlinejoin
0 setlinecap
0 0 m
0 -3.5 l

gsave
0.000 setgray
fill
grestore
stroke
grestore
} bind def
341.481 46.8864 o
grestore
gsave
327.168966 32.292650 translate
0.000000 rotate
0.000000 0.000000 m /three glyphshow
6.362305 0.000000 m /period glyphshow
9.541016 0.000000 m /three glyphshow
15.903320 0.000000 m /zero glyphshow
22.265625 0.000000 m /zero glyphshow
grestore
[2.96 1.28] 0 setdash
0.690 setgray
gsave
707.5 328.2 114.1 46.89 clipbox
429.119027 46.8864 m
429.119027 375.0912 l
stroke
grestore
[] 0 setdash
0.000 setgray
gsave
/o {
gsave
newpath
translate
0.8 setlinewidth
1 setlinejoin
0 setlinecap
0 0 m
0 -3.5 l

gsave
0.000 setgray
fill
grestore
stroke
grestore
} bind def
429.119 46.8864 o
grestore
gsave
414.806527 32.292650 translate
0.000000 rotate
0.000000 0.000000 m /three glyphshow
6.362305 0.000000 m /period glyphshow
9.541016 0.000000 m /three glyphshow
15.903320 0.000000 m /two glyphshow
22.265625 0.000000 m /five glyphshow
grestore
[2.96 1.28] 0 setdash
0.690 setgray
gsave
707.5 328.2 114.1 46.89 clipbox
516.756588 46.8864 m
516.756588 375.0912 l
stroke
grestore
[] 0 setdash
0.000 setgray
gsave
/o {
gsave
newpath
translate
0.8 setlinewidth
1 setlinejoin
0 setlinecap
0 0 m
0 -3.5 l

gsave
0.000 setgray
fill
grestore
stroke
grestore
} bind def
516.757 46.8864 o
grestore
gsave
502.444088 32.292650 translate
0.000000 rotate
0.000000 0.000000 m /three glyphshow
6.362305 0.000000 m /period glyphshow
9.541016 0.000000 m /three glyphshow
15.903320 0.000000 m /five glyphshow
22.265625 0.000000 m /zero glyphshow
grestore
[2.96 1.28] 0 setdash
0.690 setgray
gsave
707.5 328.2 114.1 46.89 clipbox
604.394148 46.8864 m
604.394148 375.0912 l
stroke
grestore
[] 0 setdash
0.000 setgray
gsave
/o {
gsave
newpath
translate
0.8 setlinewidth
1 setlinejoin
0 setlinecap
0 0 m
0 -3.5 l

gsave
0.000 setgray
fill
grestore
stroke
grestore
} bind def
604.394 46.8864 o
grestore
gsave
590.081648 32.292650 translate
0.000000 rotate
0.000000 0.000000 m /three glyphshow
6.362305 0.000000 m /period glyphshow
9.541016 0.000000 m /three glyphshow
15.903320 0.000000 m /seven glyphshow
22.265625 0.000000 m /five glyphshow
grestore
[2.96 1.28] 0 setdash
0.690 setgray
gsave
707.5 328.2 114.1 46.89 clipbox
692.031709 46.8864 m
692.031709 375.0912 l
stroke
grestore
[] 0 setdash
0.000 setgray
gsave
/o {
gsave
newpath
translate
0.8 setlinewidth
1 setlinejoin
0 setlinecap
0 0 m
0 -3.5 l

gsave
0.000 setgray
fill
grestore
stroke
grestore
} bind def
692.032 46.8864 o
grestore
gsave
677.719209 32.292650 translate
0.000000 rotate
0.000000 0.000000 m /three glyphshow
6.362305 0.000000 m /period glyphshow
9.541016 0.000000 m /four glyphshow
15.903320 0.000000 m /zero glyphshow
22.265625 0.000000 m /zero glyphshow
grestore
[2.96 1.28] 0 setdash
0.690 setgray
gsave
707.5 328.2 114.1 46.89 clipbox
779.66927 46.8864 m
779.66927 375.0912 l
stroke
grestore
[] 0 setdash
0.000 setgray
gsave
/o {
gsave
newpath
translate
0.8 setlinewidth
1 setlinejoin
0 setlinecap
0 0 m
0 -3.5 l

gsave
0.000 setgray
fill
grestore
stroke
grestore
} bind def
779.669 46.8864 o
grestore
gsave
765.356770 32.292650 translate
0.000000 rotate
0.000000 0.000000 m /three glyphshow
6.362305 0.000000 m /period glyphshow
9.541016 0.000000 m /four glyphshow
15.903320 0.000000 m /two glyphshow
22.265625 0.000000 m /five glyphshow
grestore
gsave
444.892000 18.214525 translate
0.000000 rotate
/DejaVuSans findfont
10.0 scalefont
setfont
0.000000 0.406250 moveto
/t glyphshow

3.920898 0.406250 moveto
/i glyphshow

6.699219 0.406250 moveto
/m glyphshow

16.440430 0.406250 moveto
/e glyphshow

22.592773 0.406250 moveto
/space glyphshow

25.771484 0.406250 moveto
/bracketleft glyphshow

/DejaVuSans-Oblique findfont
10.0 scalefont
setfont
29.672852 0.406250 moveto
/uni03BC glyphshow

/DejaVuSans findfont
10.0 scalefont
setfont
36.035156 0.406250 moveto
/s glyphshow

41.245117 0.406250 moveto
/bracketright glyphshow


grestore
gsave
802.789000 19.620775 translate
0.000000 rotate
0.000000 0.000000 m /one glyphshow
6.362305 0.000000 m /e glyphshow
12.514648 0.000000 m /eight glyphshow
grestore
[2.96 1.28] 0 setdash
0.690 setgray
gsave
707.5 328.2 114.1 46.89 clipbox
114.12 67.639204 m
821.664 67.639204 l
stroke
grestore
[] 0 setdash
0.000 setgray
gsave
/o {
gsave
newpath
translate
0.8 setlinewidth
1 setlinejoin
0 setlinecap
0 0 m
-3.5 0 l

gsave
0.000 setgray
fill
grestore
stroke
grestore
} bind def
114.12 67.6392 o
grestore
gsave
75.323125 63.842329 translate
0.000000 rotate
0.000000 0.000000 m /five glyphshow
6.362305 0.000000 m /zero glyphshow
12.724609 0.000000 m /zero glyphshow
19.086914 0.000000 m /zero glyphshow
25.449219 0.000000 m /zero glyphshow
grestore
[2.96 1.28] 0 setdash
0.690 setgray
gsave
707.5 328.2 114.1 46.89 clipbox
114.12 108.588549 m
821.664 108.588549 l
stroke
grestore
[] 0 setdash
0.000 setgray
gsave
/o {
gsave
newpath
translate
0.8 setlinewidth
1 setlinejoin
0 setlinecap
0 0 m
-3.5 0 l

gsave
0.000 setgray
fill
grestore
stroke
grestore
} bind def
114.12 108.589 o
grestore
gsave
68.963750 104.791674 translate
0.000000 rotate
0.000000 0.000000 m /one glyphshow
6.362305 0.000000 m /zero glyphshow
12.724609 0.000000 m /zero glyphshow
19.086914 0.000000 m /zero glyphshow
25.449219 0.000000 m /zero glyphshow
31.811523 0.000000 m /zero glyphshow
grestore
[2.96 1.28] 0 setdash
0.690 setgray
gsave
707.5 328.2 114.1 46.89 clipbox
114.12 149.537894 m
821.664 149.537894 l
stroke
grestore
[] 0 setdash
0.000 setgray
gsave
/o {
gsave
newpath
translate
0.8 setlinewidth
1 setlinejoin
0 setlinecap
0 0 m
-3.5 0 l

gsave
0.000 setgray
fill
grestore
stroke
grestore
} bind def
114.12 149.538 o
grestore
gsave
68.963750 145.741019 translate
0.000000 rotate
0.000000 0.000000 m /one glyphshow
6.362305 0.000000 m /five glyphshow
12.724609 0.000000 m /zero glyphshow
19.086914 0.000000 m /zero glyphshow
25.449219 0.000000 m /zero glyphshow
31.811523 0.000000 m /zero glyphshow
grestore
[2.96 1.28] 0 setdash
0.690 setgray
gsave
707.5 328.2 114.1 46.89 clipbox
114.12 190.48724 m
821.664 190.48724 l
stroke
grestore
[] 0 setdash
0.000 setgray
gsave
/o {
gsave
newpath
translate
0.8 setlinewidth
1 setlinejoin
0 setlinecap
0 0 m
-3.5 0 l

gsave
0.000 setgray
fill
grestore
stroke
grestore
} bind def
114.12 190.487 o
grestore
gsave
68.963750 186.690365 translate
0.000000 rotate
0.000000 0.000000 m /two glyphshow
6.362305 0.000000 m /zero glyphshow
12.724609 0.000000 m /zero glyphshow
19.086914 0.000000 m /zero glyphshow
25.449219 0.000000 m /zero glyphshow
31.811523 0.000000 m /zero glyphshow
grestore
[2.96 1.28] 0 setdash
0.690 setgray
gsave
707.5 328.2 114.1 46.89 clipbox
114.12 231.436585 m
821.664 231.436585 l
stroke
grestore
[] 0 setdash
0.000 setgray
gsave
/o {
gsave
newpath
translate
0.8 setlinewidth
1 setlinejoin
0 setlinecap
0 0 m
-3.5 0 l

gsave
0.000 setgray
fill
grestore
stroke
grestore
} bind def
114.12 231.437 o
grestore
gsave
68.963750 227.639710 translate
0.000000 rotate
0.000000 0.000000 m /two glyphshow
6.362305 0.000000 m /five glyphshow
12.724609 0.000000 m /zero glyphshow
19.086914 0.000000 m /zero glyphshow
25.449219 0.000000 m /zero glyphshow
31.811523 0.000000 m /zero glyphshow
grestore
[2.96 1.28] 0 setdash
0.690 setgray
gsave
707.5 328.2 114.1 46.89 clipbox
114.12 272.385931 m
821.664 272.385931 l
stroke
grestore
[] 0 setdash
0.000 setgray
gsave
/o {
gsave
newpath
translate
0.8 setlinewidth
1 setlinejoin
0 setlinecap
0 0 m
-3.5 0 l

gsave
0.000 setgray
fill
grestore
stroke
grestore
} bind def
114.12 272.386 o
grestore
gsave
68.963750 268.589056 translate
0.000000 rotate
0.000000 0.000000 m /three glyphshow
6.362305 0.000000 m /zero glyphshow
12.724609 0.000000 m /zero glyphshow
19.086914 0.000000 m /zero glyphshow
25.449219 0.000000 m /zero glyphshow
31.811523 0.000000 m /zero glyphshow
grestore
[2.96 1.28] 0 setdash
0.690 setgray
gsave
707.5 328.2 114.1 46.89 clipbox
114.12 313.335276 m
821.664 313.335276 l
stroke
grestore
[] 0 setdash
0.000 setgray
gsave
/o {
gsave
newpath
translate
0.8 setlinewidth
1 setlinejoin
0 setlinecap
0 0 m
-3.5 0 l

gsave
0.000 setgray
fill
grestore
stroke
grestore
} bind def
114.12 313.335 o
grestore
gsave
68.963750 309.538401 translate
0.000000 rotate
0.000000 0.000000 m /three glyphshow
6.362305 0.000000 m /five glyphshow
12.724609 0.000000 m /zero glyphshow
19.086914 0.000000 m /zero glyphshow
25.449219 0.000000 m /zero glyphshow
31.811523 0.000000 m /zero glyphshow
grestore
[2.96 1.28] 0 setdash
0.690 setgray
gsave
707.5 328.2 114.1 46.89 clipbox
114.12 354.284621 m
821.664 354.284621 l
stroke
grestore
[] 0 setdash
0.000 setgray
gsave
/o {
gsave
newpath
translate
0.8 setlinewidth
1 setlinejoin
0 setlinecap
0 0 m
-3.5 0 l

gsave
0.000 setgray
fill
grestore
stroke
grestore
} bind def
114.12 354.285 o
grestore
gsave
68.963750 350.487746 translate
0.000000 rotate
0.000000 0.000000 m /four glyphshow
6.362305 0.000000 m /zero glyphshow
12.724609 0.000000 m /zero glyphshow
19.086914 0.000000 m /zero glyphshow
25.449219 0.000000 m /zero glyphshow
31.811523 0.000000 m /zero glyphshow
grestore
gsave
62.885625 181.254425 translate
90.000000 rotate
0.000000 0.000000 m /A glyphshow
6.840820 0.000000 m /D glyphshow
14.541016 0.000000 m /C glyphshow
21.523438 0.000000 m /space glyphshow
24.702148 0.000000 m /O glyphshow
32.573242 0.000000 m /u glyphshow
38.911133 0.000000 m /t glyphshow
42.832031 0.000000 m /p glyphshow
49.179688 0.000000 m /u glyphshow
55.517578 0.000000 m /t glyphshow
grestore
1.500 setlinewidth
2 setlinecap
0.102 setgray
gsave
707.5 328.2 114.1 46.89 clipbox
114.013129 72.537564 m
114.232609 72.77507 l
114.342366 72.543297 l
114.561845 72.702181 l
114.671568 72.811106 l
114.781325 72.579333 l
114.891047 72.634205 l
115.000804 72.831581 l
115.439763 72.582609 l
115.549486 72.594893 l
115.768965 72.82421 l
116.098132 72.680887 l
116.317646 73.00193 l
116.537126 72.546573 l
117.415009 72.715284 l
117.634488 72.690715 l
117.963725 72.555582 l
118.292927 72.831581 l
118.402649 72.776708 l
118.622129 72.871711 l
118.841608 72.652222 l
119.061053 72.639119 l
119.280532 72.883177 l
119.500012 72.766881 l
119.719456 72.817658 l
119.829213 72.60554 l
120.048693 72.7677 l
120.158415 72.701362 l
120.377895 72.969989 l
120.707131 72.567867 l
120.816854 72.635843 l
120.926611 72.951153 l
121.036333 72.879901 l
121.146055 72.610454 l
121.475292 72.811106 l
121.585014 72.592436 l
121.804494 72.805373 l
122.023973 72.957705 l
122.243453 72.756234 l
122.35321 72.773432 l
122.462932 72.625196 l
122.682412 72.802097 l
122.901891 72.715284 l
123.121371 72.865978 l
123.450608 72.681706 l
123.56033 72.639938 l
123.779809 72.795545 l
123.999289 72.648127 l
124.218768 72.657955 l
124.548005 72.80783 l
124.767485 72.609635 l
125.096686 72.689077 l
125.206444 72.586703 l
125.316166 72.772613 l
125.755125 72.474502 l
125.864882 72.709551 l
126.084397 73.544918 l
126.194154 72.51709 l
126.633113 82.52511 l
126.74287 90.527431 l
128.059782 335.314428 l
128.279297 345.733579 l
128.389054 347.292111 l
128.498812 347.201204 l
129.37687 341.132511 l
129.706142 339.739414 l
129.925656 339.108794 l
130.364685 337.526511 l
130.913437 336.198933 l
132.559656 333.300539 l
132.669378 333.427482 l
133.218059 332.529053 l
133.437539 332.273529 l
133.876533 331.693686 l
134.425249 331.235873 l
134.535006 331.176087 l
134.864243 330.54301 l
134.973965 330.573312 l
135.193445 330.298133 l
135.303167 330.451283 l
135.522647 330.074549 l
135.632369 330.037695 l
135.961606 329.614279 l
136.729836 329.117154 l
136.839594 329.16056 l
137.059073 328.570889 l
137.278553 328.677358 l
137.388275 328.460326 l
137.607754 328.558605 l
138.375985 327.936994 l
138.595465 327.853457 l
138.705222 327.724876 l
138.814979 327.843629 l
138.924737 327.749446 l
139.144216 327.328486 l
139.253973 327.288356 l
139.473488 327.427584 l
140.131962 326.950933 l
140.241684 327.041841 l
140.461198 326.58976 l
140.680678 326.301477 l
140.900157 326.558639 l
141.00988 326.439885 l
141.119637 326.489844 l
141.229359 326.710151 l
141.558596 326.414497 l
141.997555 326.145869 l
142.326792 325.964873 l
142.655993 325.633183 l
142.875473 325.726548 l
143.094988 325.426799 l
143.20471 325.352271 l
143.424189 325.609433 l
143.643669 325.308046 l
143.753391 325.431713 l
143.972906 325.133601 l
144.192385 325.213862 l
144.521552 325.05416 l
144.741031 325.15899 l
144.960546 324.877258 l
145.289783 324.938682 l
145.509297 324.681521 l
145.728812 324.727384 l
146.277563 324.392418 l
146.387285 324.458756 l
146.716557 324.17293 l
146.826279 324.239268 l
147.484788 323.826498 l
147.704268 324.014865 l
148.582256 323.479248 l
148.692013 323.594725 l
149.02125 323.367866 l
149.350522 323.506274 l
149.460279 323.49399 l
149.679758 323.320364 l
149.899273 323.335106 l
150.118752 323.140187 l
150.228475 323.28351 l
150.447989 323.050918 l
150.667469 323.116437 l
150.996706 322.810954 l
151.655214 322.8388 l
151.764971 322.993589 l
151.984451 322.626682 l
152.094208 322.779833 l
152.752717 322.408013 l
153.081954 322.443229 l
153.191711 322.335942 l
153.41119 322.357236 l
153.520948 322.213913 l
153.740427 322.300726 l
153.959942 322.132014 l
154.069664 322.278613 l
154.289143 321.952656 l
154.508658 322.050935 l
154.728138 322.026365 l
154.83786 322.009166 l
154.947617 322.234388 l
155.057374 322.125462 l
155.276854 321.711055 l
155.496333 321.742177 l
155.606091 321.788859 l
155.82557 321.736444 l
155.935327 321.87649 l
156.154807 321.583293 l
156.484044 321.777393 l
156.593766 321.620966 l
156.703523 321.677477 l
157.03276 321.525964 l
157.361962 321.629975 l
157.581441 321.428505 l
157.800921 321.56118 l
158.130158 321.180352 l
158.569152 321.168886 l
158.788666 321.275354 l
158.898423 321.071426 l
159.008181 321.118109 l
159.337418 320.958406 l
159.556932 321.038667 l
159.666689 320.864223 l
160.105683 320.977243 l
160.325198 320.780686 l
160.544713 320.870774 l
160.873984 320.794609 l
161.093499 320.851938 l
161.203221 320.852757 l
161.422736 320.556283 l
161.86173 320.67258 l
161.971452 320.788057 l
162.190932 320.519429 l
162.410446 320.463738 l
162.520203 320.287656 l
162.739683 320.554646 l
163.068955 320.281923 l
163.178712 320.49404 l
163.507984 320.229508 l
163.727428 320.177093 l
163.946908 320.290113 l
164.27618 320.061615 l
164.495659 320.189377 l
164.715174 320.012476 l
164.934653 319.989545 l
165.373682 320.028856 l
165.48344 319.844584 l
165.702954 320.046055 l
165.922469 319.834756 l
166.141983 319.923207 l
166.471255 319.63738 l
166.581013 319.780703 l
166.910249 319.717641 l
167.020007 319.72665 l
167.129764 319.607897 l
167.349278 319.737297 l
167.568758 319.663588 l
167.788272 319.753676 l
167.898065 319.684062 l
168.007822 319.792988 l
168.227302 319.617724 l
168.776053 319.654579 l
168.88581 319.447375 l
168.995568 319.480954 l
169.105325 319.339269 l
169.544319 319.42772 l
169.763798 319.213145 l
170.31255 319.281121 l
170.422307 319.331079 l
170.751579 319.074736 l
171.190608 319.163187 l
171.410087 319.07965 l
171.629602 319.150083 l
171.849117 318.937146 l
171.958874 318.808565 l
172.178388 319.075555 l
172.397938 318.762702 l
172.617453 318.946155 l
172.836967 318.595629 l
173.056482 318.946155 l
173.166239 318.806108 l
173.495546 318.687355 l
173.71506 318.880636 l
173.824818 318.609552 l
174.044332 318.702916 l
174.154125 318.589077 l
174.373639 318.808565 l
174.593119 318.577611 l
175.032148 318.652958 l
175.361385 318.493255 l
175.580899 318.507997 l
175.910171 318.451487 l
176.019928 318.48998 l
176.239443 318.324544 l
176.788229 318.308983 l
177.007779 318.433469 l
177.5566 318.321268 l
177.666358 318.382692 l
177.885907 318.189411 l
178.105457 318.433469 l
178.325007 318.161566 l
178.434729 318.20661 l
178.544486 318.048546 l
178.763966 315.453995 l
178.873723 311.651439 l
179.093202 284.520041 l
179.971155 110.426356 l
180.190635 91.995874 l
180.519872 81.269603 l
180.958866 66.871813 l
181.068623 68.805441 l
181.288138 78.019044 l
181.617374 71.196064 l
181.836889 75.589109 l
182.056404 72.098587 l
182.166161 72.287773 l
182.385675 74.132132 l
182.60519 71.856986 l
182.824669 73.267282 l
182.934427 72.359025 l
183.044149 72.372948 l
183.153906 73.123959 l
183.373386 72.167382 l
183.592865 72.809468 l
183.81238 72.568686 l
183.922102 72.825029 l
184.031859 72.778346 l
184.251339 72.381957 l
184.470853 72.79964 l
184.580576 72.503986 l
185.0195 72.653041 l
185.239014 72.870892 l
185.458459 72.5089 l
185.568216 72.811106 l
185.677973 72.766062 l
185.787695 72.55722 l
186.226689 72.750501 l
186.555926 72.811925 l
186.994885 72.898737 l
187.104643 72.67024 l
187.214365 72.702181 l
187.433844 72.957705 l
187.872803 72.695629 l
188.092283 72.648127 l
188.20204 72.758691 l
188.42152 72.545754 l
188.750756 72.980636 l
189.079958 72.67843 l
189.518917 72.712827 l
189.628674 72.559677 l
189.738397 72.712827 l
189.848154 72.61373 l
190.067633 72.731664 l
190.177391 72.616187 l
190.506592 72.849598 l
190.726072 72.730026 l
190.835829 72.848779 l
191.055274 72.698086 l
191.274753 72.676792 l
191.603955 72.404069 l
192.152636 72.806192 l
192.372116 72.622739 l
192.811075 72.8324 l
193.030519 72.537564 l
193.250034 72.798002 l
193.469548 72.45239 l
193.798785 72.802097 l
194.018265 72.705457 l
194.237779 72.793907 l
194.347536 72.93723 l
195.005975 72.699724 l
195.115732 72.805373 l
195.335212 72.698905 l
195.444969 72.732483 l
195.554691 72.941325 l
195.774206 72.71856 l
195.883963 72.853693 l
196.322922 72.611273 l
196.871638 72.784079 l
196.981396 72.696448 l
197.20091 72.753777 l
197.42039 72.601445 l
197.639869 72.67843 l
198.078898 72.657136 l
198.298413 72.717741 l
198.517927 72.635843 l
198.737407 72.817658 l
198.847129 72.6383 l
199.286158 72.756234 l
199.395916 72.67024 l
199.725117 72.811925 l
200.054354 72.535926 l
200.383626 72.831581 l
200.493348 72.644033 l
200.712828 72.829124 l
200.932307 72.642395 l
201.151822 72.955248 l
201.371301 72.655498 l
202.02981 72.930678 l
202.249289 72.701362 l
202.468804 72.752139 l
202.578561 72.836494 l
202.798076 72.582609 l
203.127313 72.606359 l
203.346792 72.711189 l
203.676029 72.664507 l
203.895543 72.86434 l
204.115023 72.720198 l
204.334502 72.600626 l
204.554017 72.820115 l
204.773497 72.654679 l
205.322213 72.858607 l
205.541692 72.558858 l
205.761207 72.67024 l
206.529368 72.71037 l
206.63909 72.878263 l
206.858569 72.578514 l
206.968327 72.600626 l
207.078049 72.424544 l
207.187806 72.564591 l
207.297563 72.508081 l
207.517043 72.814382 l
207.6268 72.677611 l
207.736558 72.742311 l
207.84628 72.639938 l
208.065759 72.677611 l
209.053505 72.779984 l
209.163262 72.831581 l
209.382777 72.644852 l
209.602256 72.875806 l
209.821736 72.766062 l
209.931493 72.570324 l
210.260695 72.887272 l
210.589966 72.706276 l
210.809446 72.801278 l
211.577712 72.635024 l
211.687469 72.814382 l
211.797226 72.590798 l
212.016741 72.702181 l
212.346013 72.562134 l
212.565492 72.776708 l
212.785007 72.688258 l
212.894764 72.818477 l
213.333758 72.656317 l
213.662995 72.763605 l
213.88251 72.812744 l
213.992232 72.852874 l
214.211746 72.585884 l
214.431261 72.733302 l
214.980012 72.742311 l
215.199527 72.81602 l
215.309249 72.639938 l
215.528764 72.870892 l
215.748278 72.677611 l
216.626336 72.72675 l
216.845851 72.546573 l
217.065366 72.861064 l
217.175123 72.812744 l
217.394637 72.558858 l
217.614152 72.81602 l
217.833667 72.897918 l
218.053181 72.627653 l
218.162903 72.731664 l
218.272661 72.640757 l
218.49214 72.804554 l
218.821412 72.807011 l
218.931134 72.642395 l
219.040891 72.700543 l
219.150649 72.893005 l
219.370128 72.879901 l
219.479886 72.974084 l
219.589643 72.897918 l
219.6994 72.672697 l
219.809157 72.712827 l
220.028672 72.576876 l
220.138429 72.654679 l
220.248186 72.583428 l
220.467666 72.893005 l
220.577423 72.790631 l
220.796903 72.648127 l
221.016417 72.649765 l
221.12614 72.506443 l
221.674891 72.752958 l
221.89437 72.736578 l
222.004128 72.591617 l
222.223607 72.793088 l
222.333364 72.574419 l
222.772359 72.764424 l
222.991838 72.620282 l
223.430832 72.693991 l
223.650312 72.84796 l
223.869826 72.651403 l
223.979583 72.724293 l
224.089306 72.598988 l
224.199063 72.666964 l
224.418578 72.537564 l
224.967259 72.7677 l
225.077016 72.739035 l
225.186738 72.906927 l
225.51601 72.79964 l
225.625732 72.874168 l
225.845247 72.62192 l
225.955004 72.729207 l
226.064762 72.564591 l
226.393998 72.856969 l
226.613513 72.645671 l
226.72327 72.849598 l
226.942785 72.841408 l
227.162264 73.080553 l
227.491501 72.648946 l
227.820738 72.75132 l
227.930495 72.729207 l
228.040252 72.846322 l
228.15001 72.698086 l
228.479211 72.83977 l
228.588969 72.729207 l
228.808483 72.748863 l
229.027963 72.553944 l
229.247442 72.722655 l
229.357199 72.721836 l
229.466957 72.558858 l
229.905916 72.742311 l
230.344945 72.645671 l
230.454702 72.653041 l
230.674217 72.795545 l
230.893731 72.780803 l
231.003489 72.758691 l
231.113246 72.906927 l
231.223038 73.990447 l
231.442588 72.760329 l
231.881617 83.326898 l
231.991374 92.665805 l
232.869397 280.5758 l
233.198669 329.439015 l
233.527906 347.292111 l
233.637663 348.591843 l
233.857178 346.698346 l
234.296207 343.101355 l
234.844958 340.555125 l
235.283988 339.121898 l
235.942566 337.215296 l
236.491353 336.285746 l
236.820625 335.282487 l
237.040139 335.121966 l
237.259654 334.723938 l
238.02799 333.435672 l
238.247539 333.221097 l
238.357297 332.922167 l
238.467054 332.959021 l
238.576811 332.873028 l
238.796326 332.489742 l
239.345112 331.990979 l
239.564627 331.627349 l
240.22317 331.068799 l
240.332928 330.782973 l
240.552442 330.877975 l
240.771957 330.380031 l
241.101229 330.238347 l
241.320743 329.907476 l
241.540293 329.974633 l
241.759772 329.786266 l
241.979287 329.560226 l
242.308559 329.315348 l
242.418316 329.294874 l
242.637795 329.086851 l
242.967067 328.977926 l
243.07686 329.001676 l
243.296374 328.798568 l
243.406131 328.763351 l
243.625646 328.406273 l
243.954918 328.140102 l
244.174468 328.1745 l
244.393982 327.945183 l
244.503739 327.806775 l
244.723289 327.960744 l
245.052596 327.350599 l
245.711175 327.404652 l
245.820932 327.241674 l
246.040446 327.328486 l
246.259961 327.064772 l
247.796528 326.265441 l
248.016042 326.33096 l
248.1258 326.269536 l
248.345314 325.889526 l
248.455072 325.808447 l
248.564829 325.922286 l
249.223373 325.611071 l
249.333165 325.706892 l
249.662437 325.362099 l
249.881986 325.443997 l
249.991744 325.528353 l
250.979629 325.042694 l
251.418658 324.92476 l
251.528451 325.015667 l
252.406474 324.385047 l
252.516231 324.620097 l
252.625988 324.575052 l
252.845503 324.301511 l
253.064983 324.409617 l
253.504012 324.160645 l
253.943076 323.97883 l
254.052833 323.851887 l
254.272348 324.007494 l
254.382105 323.914949 l
254.491862 323.997666 l
254.821099 323.646321 l
254.930891 323.809299 l
255.260163 323.389159 l
255.479678 323.649597 l
255.699227 323.467782 l
255.808985 323.568517 l
256.028499 323.419462 l
256.357806 323.417005 l
256.467528 323.240923 l
256.687078 323.312993 l
256.906593 323.234371 l
257.01635 323.249931 l
257.235899 323.059926 l
257.345657 322.982123 l
257.565206 323.098419 l
257.784721 322.946087 l
257.894478 323.040271 l
258.113993 322.889577 l
258.333507 322.97639 l
258.662779 322.800308 l
258.772536 322.878111 l
258.882259 322.618493 l
259.211531 322.738884 l
259.650595 322.601294 l
259.979902 322.561163 l
260.638515 322.415384 l
260.85803 322.17624 l
261.077545 322.259776 l
261.187302 322.371977 l
261.516609 321.856835 l
261.759119 321.994424 l
261.845881 321.883861 l
262.065395 322.278613 l
262.284945 321.996881 l
262.394702 322.018994 l
262.723974 321.787221 l
262.833731 321.845369 l
262.943488 321.72334 l
263.163003 321.878947 l
263.272795 321.737263 l
263.49231 321.774936 l
263.711824 321.640622 l
263.821582 321.767565 l
264.041061 321.531697 l
264.150818 321.440789 l
264.48009 321.716788 l
264.699605 321.495661 l
264.919119 321.582474 l
265.138634 321.331864 l
265.248356 321.239319 l
265.358114 321.31876 l
265.577628 321.140221 l
266.016587 321.194274 l
266.126344 321.450617 l
266.345859 321.232767 l
266.565374 321.252422 l
266.894645 321.130393 l
267.004368 321.324493 l
267.223882 321.144316 l
267.333639 320.860128 l
267.553154 320.976424 l
267.772669 320.830644 l
267.882426 320.865861 l
267.992183 320.756935 l
268.321455 320.910086 l
268.54097 320.903534 l
268.979999 320.451453 l
269.418993 320.6562 l
269.52875 320.507963 l
269.967779 320.670123 l
270.297051 320.331881 l
270.516566 320.546456 l
270.73608 320.323691 l
270.955595 320.557921 l
271.284831 320.434254 l
271.723861 320.283561 l
271.943375 320.542361 l
272.162855 320.124677 l
272.382369 320.244249 l
272.492126 320.392486 l
272.931156 320.182825 l
273.040913 320.200024 l
273.260427 319.826566 l
273.479942 319.965794 l
273.589699 319.845403 l
274.028728 320.040322 l
274.248278 319.784798 l
274.358035 319.703718 l
274.797064 319.811824 l
275.784845 319.596431 l
275.894602 319.877343 l
276.004324 319.755314 l
276.114082 319.421987 l
276.223839 319.493238 l
276.333631 319.415435 l
276.443389 319.594793 l
276.662903 319.544016 l
276.882383 319.701261 l
277.21169 319.415435 l
277.540961 319.553844 l
277.870233 319.333536 l
278.089748 319.557938 l
278.309262 319.028873 l
278.528812 319.276207 l
278.638534 319.331079 l
278.967806 319.005941 l
279.187356 319.441642 l
279.40687 319.171377 l
279.626385 318.9912 l
279.955657 319.054261 l
280.065414 319.181204 l
280.175171 319.016588 l
280.504478 319.051805 l
280.723993 318.824126 l
281.053265 319.132884 l
281.162987 319.105858 l
281.272744 318.888826 l
281.492259 318.905206 l
281.821495 318.807746 l
281.931253 318.944517 l
282.150767 318.607095 l
282.260524 318.609552 l
282.480039 318.915853 l
282.809241 318.862619 l
282.918998 318.737314 l
283.028755 318.805289 l
283.357992 318.59481 l
283.687194 318.718477 l
283.796951 317.944534 l
283.906673 316.29919 l
284.016431 312.979836 l
284.126153 305.069241 l
284.45539 240.271816 l
285.113828 113.125736 l
285.333273 92.693651 l
286.101468 66.971729 l
286.211226 67.319799 l
286.430705 77.861798 l
286.540463 76.95518 l
286.759942 70.719413 l
286.979422 75.395829 l
287.089179 75.124744 l
287.308658 71.408181 l
287.528138 74.12558 l
287.747617 71.645687 l
287.967062 73.388492 l
288.186541 72.051905 l
288.406021 73.259092 l
288.6255 72.407345 l
288.735258 72.950334 l
288.84498 72.926583 l
288.954737 72.53265 l
289.064459 72.702181 l
289.174217 73.097751 l
289.393696 72.657136 l
289.613176 72.874987 l
289.722898 72.612092 l
289.942377 72.841408 l
290.381371 72.764424 l
290.600851 72.659593 l
290.930053 72.817658 l
291.03981 72.651403 l
291.149532 72.758691 l
291.478769 72.535107 l
291.588456 72.727569 l
291.807901 72.457304 l
292.137102 72.779165 l
292.24686 72.725931 l
292.466304 72.760329 l
292.576061 72.490882 l
292.905263 72.840589 l
293.124708 72.624377 l
293.344222 72.822572 l
293.563702 72.798002 l
293.783146 72.567048 l
294.002626 72.819296 l
294.22214 72.658774 l
294.331897 72.777527 l
294.551377 72.594074 l
294.990336 72.75951 l
295.209815 72.770976 l
295.758532 72.716103 l
295.868289 72.636662 l
295.978011 72.745587 l
296.197491 72.476959 l
296.41697 72.699724 l
296.746207 72.7677 l
296.965687 72.576057 l
297.075409 72.778346 l
297.294888 72.704638 l
297.514403 72.771794 l
297.624125 72.628472 l
297.733882 72.778346 l
297.953362 72.714465 l
298.282599 72.762786 l
298.6118 72.827486 l
298.831315 72.734121 l
299.050829 72.509719 l
299.380031 72.810287 l
299.599546 72.693991 l
299.709303 72.802916 l
299.928783 72.748863 l
300.148262 72.526098 l
300.367742 72.988007 l
300.587256 72.758691 l
300.916493 72.744768 l
301.136008 72.738216 l
301.24573 72.847141 l
301.465244 72.665326 l
301.575002 72.675973 l
301.684759 72.883177 l
302.013996 72.386052 l
302.343232 72.804554 l
302.782262 72.680068 l
302.891984 72.820115 l
303.221221 72.547392 l
303.330978 72.603902 l
303.4407 72.793088 l
303.66018 72.534288 l
303.989451 72.879082 l
304.208931 72.644852 l
304.428445 72.825029 l
304.647925 72.610454 l
304.867405 72.905289 l
305.086919 72.653041 l
305.196641 72.737397 l
305.416121 72.657136 l
305.635635 72.724293 l
306.074594 72.860245 l
306.184352 72.762786 l
306.403831 72.900375 l
306.513553 72.69481 l
306.733068 72.974903 l
306.84279 72.695629 l
306.952547 72.757053 l
307.172027 72.622739 l
307.391506 72.784898 l
307.610986 72.588341 l
307.720743 72.712008 l
308.04998 72.580152 l
308.26946 72.771794 l
308.488939 72.788174 l
308.818176 72.580971 l
309.037655 72.659593 l
309.25717 72.682525 l
309.476649 72.975722 l
309.915608 72.584246 l
310.574047 72.810287 l
310.683769 72.706276 l
310.903249 72.79964 l
311.342173 72.68662 l
311.45193 72.587522 l
311.671374 72.693991 l
311.781132 72.531012 l
312.110333 72.874168 l
312.220056 72.637481 l
312.549292 72.749682 l
312.65905 72.763605 l
312.878564 72.922488 l
313.207836 72.972446 l
313.537108 72.650584 l
313.756587 72.725931 l
313.86631 72.852874 l
313.976067 72.601445 l
314.195546 72.863521 l
314.305304 72.680887 l
314.524783 72.951153 l
314.85402 72.521184 l
315.0735 72.601445 l
315.402736 72.983912 l
315.731938 72.563772 l
316.06121 72.788993 l
316.170932 72.843865 l
316.609926 72.645671 l
316.829441 72.897918 l
317.048955 72.67843 l
317.2684 72.93723 l
317.597637 72.626834 l
317.817151 72.805373 l
317.926873 72.673516 l
318.146353 72.798002 l
318.695104 72.569505 l
318.914584 72.72675 l
319.243856 72.673516 l
319.353613 72.47614 l
319.902399 72.666964 l
320.121914 72.558858 l
320.451151 72.787355 l
320.780387 72.673516 l
320.890145 72.813563 l
321.109624 72.770976 l
321.329139 72.669421 l
321.438861 72.624377 l
321.658376 72.82421 l
321.768133 72.736578 l
321.987612 72.820115 l
322.097335 72.684982 l
322.426571 72.861064 l
322.646086 72.695629 l
322.865565 72.813563 l
322.975323 72.647308 l
323.194837 72.703 l
323.414317 72.586703 l
323.524074 72.657955 l
323.633831 72.56541 l
323.853311 72.635843 l
324.402062 72.746406 l
324.511819 72.804554 l
324.621577 72.700543 l
324.841056 72.723474 l
325.060536 72.567867 l
325.280015 72.774251 l
325.499495 72.764424 l
325.718974 72.615368 l
325.938454 72.716922 l
326.157933 72.659593 l
326.48717 72.689896 l
326.596927 72.857788 l
326.706685 72.806192 l
326.816407 72.503986 l
327.145644 72.770157 l
327.365123 72.586703 l
327.69436 72.7677 l
327.913875 72.479416 l
328.352834 72.723474 l
328.572313 72.666145 l
328.791828 72.600626 l
329.011307 72.815201 l
329.121064 72.594893 l
329.559988 72.734121 l
329.779468 72.575238 l
330.10867 72.787355 l
330.437871 72.619463 l
331.425512 72.669421 l
331.644991 72.541659 l
331.974228 72.583428 l
332.193707 73.069906 l
332.742389 72.620282 l
332.961868 72.792269 l
333.07159 72.696448 l
333.291105 72.771794 l
333.949543 72.663688 l
334.059301 72.795545 l
334.388502 72.542478 l
334.608017 72.92085 l
334.827461 72.740673 l
335.266456 72.676792 l
335.485935 72.778346 l
335.595692 72.741492 l
335.705415 72.517909 l
335.815172 72.692353 l
336.035282 72.58916 l
336.254166 72.626834 l
336.363958 73.109217 l
336.47368 74.097734 l
336.693195 72.784079 l
337.132189 84.742926 l
337.351704 119.405728 l
338.010212 263.02491 l
338.339414 323.463687 l
338.668686 345.672155 l
338.888236 348.997242 l
339.656501 342.963765 l
340.424802 339.382336 l
340.973554 337.930272 l
341.193103 337.324221 l
341.302861 337.338144 l
341.961404 335.790259 l
343.388249 333.491363 l
343.607764 333.211269 l
343.827278 332.68548 l
343.937035 332.74199 l
345.034678 331.361178 l
345.254228 331.369368 l
345.363985 331.306306 l
345.583535 330.846035 l
345.803084 330.832931 l
345.912842 330.909097 l
346.351941 330.234252 l
346.461698 330.289124 l
346.79104 330.050799 l
346.900833 330.066359 l
347.230174 329.598718 l
347.339932 329.625745 l
347.669274 329.118792 l
347.888788 329.053273 l
348.108338 328.932063 l
348.21813 329.004952 l
348.43768 328.787102 l
348.766952 328.507827 l
349.315773 328.203983 l
349.64508 327.932899 l
349.864595 328.253941 l
350.193902 327.743713 l
350.303659 327.883759 l
350.742723 327.307193 l
350.962238 327.377625 l
351.181787 327.092618 l
351.730574 326.764204 l
351.950123 326.724893 l
352.279395 326.69459 l
352.498945 326.453808 l
353.267281 326.202379 l
353.486795 326.090997 l
353.925859 325.77323 l
354.145374 325.815817 l
354.364889 325.783058 l
354.584438 325.824007 l
354.803953 325.588139 l
354.91371 325.561112 l
355.023502 325.375202 l
355.13326 325.525077 l
355.462566 325.342443 l
355.901631 325.39322 l
356.011388 325.297399 l
356.230938 325.072996 l
356.340695 325.131144 l
356.669967 324.660227 l
356.999274 324.905104 l
357.218823 324.608631 l
357.438338 324.615183 l
357.548095 324.68971 l
357.767645 324.450566 l
357.987194 324.575052 l
358.426223 324.185214 l
358.645773 324.142627 l
358.865288 324.173749 l
359.084802 324.121333 l
359.304317 324.226164 l
359.523796 324.096764 l
359.633554 324.112325 l
359.853068 323.863353 l
360.292132 323.871542 l
360.621404 323.628303 l
360.840919 323.724944 l
361.170226 323.394892 l
361.389775 323.65533 l
361.719082 323.259759 l
361.938597 323.421919 l
362.267904 323.172128 l
362.59721 323.120531 l
362.926517 323.14592 l
363.146067 322.854361 l
363.255824 323.000959 l
363.365617 323.119713 l
363.585131 322.710219 l
363.694888 322.792937 l
363.914403 322.997683 l
364.133953 322.58819 l
364.24371 322.788842 l
364.682774 322.731513 l
364.792531 322.881387 l
365.23156 322.498101 l
365.341353 322.541508 l
365.560867 322.397366 l
365.67066 322.550517 l
366.219481 322.430126 l
366.439031 322.42685 l
366.548788 322.195076 l
366.768303 322.296631 l
367.207402 322.131195 l
367.426916 322.11154 l
367.646466 321.728254 l
368.195323 322.133652 l
368.414837 321.835541 l
368.524594 321.86093 l
368.963659 321.584112 l
369.315751 321.76347 l
369.622272 321.556267 l
369.73203 321.593121 l
369.951579 321.522688 l
370.280851 321.552991 l
370.390608 321.455531 l
370.500366 321.611958 l
370.939395 321.22212 l
371.158944 321.374451 l
371.268667 321.188541 l
371.707696 321.275354 l
372.805269 320.947759 l
372.915026 321.038667 l
373.13454 320.950216 l
373.244298 321.152506 l
373.793084 320.860128 l
374.012634 320.904353 l
374.232113 320.956768 l
374.341835 320.600509 l
374.56135 320.782324 l
375.329686 320.58331 l
375.549201 320.661933 l
375.658958 320.616889 l
375.878472 320.446539 l
375.988195 320.593138 l
376.537016 320.225413 l
376.756531 320.513696 l
376.97601 320.182825 l
377.19556 320.341709 l
377.415074 320.349899 l
377.634589 320.177912 l
377.963861 320.409685 l
378.183375 320.232784 l
378.293168 320.212309 l
378.512682 319.914198 l
378.732197 319.927302 l
378.951711 320.076357 l
379.171226 319.829023 l
379.39074 319.966613 l
380.049249 319.771694 l
380.268764 319.891266 l
380.488243 319.632466 l
380.598036 319.854412 l
380.81755 319.603802 l
381.03703 319.905189 l
381.146787 319.707813 l
381.476059 319.761047 l
381.805331 319.345821 l
382.024845 319.724193 l
382.24436 319.557119 l
382.683424 319.504704 l
382.902938 319.272112 l
383.45176 319.415435 l
383.561482 319.178748 l
384.110304 319.516989 l
384.329818 319.249999 l
385.098154 319.293406 l
385.317704 319.40315 l
385.756768 319.101763 l
385.866525 319.195946 l
385.976283 319.141074 l
386.195797 319.416254 l
386.415312 319.018226 l
386.525104 319.123875 l
386.634861 318.928138 l
386.964133 319.091116 l
387.293405 318.76434 l
387.51292 318.911758 l
388.610422 318.623474 l
388.829902 318.946155 l
388.939659 318.72421 l
389.049381 317.89949 l
389.268861 311.970025 l
389.48834 284.517584 l
390.366293 110.907101 l
390.585773 91.701858 l
390.91501 81.317923 l
391.353969 66.571245 l
391.463726 68.413146 l
391.683205 78.003483 l
391.792928 76.032181 l
392.012442 70.89222 l
392.231922 75.8389 l
392.341679 74.614515 l
392.561194 71.544952 l
392.780673 74.208298 l
393.000153 71.589177 l
393.219632 73.649748 l
393.439112 72.249281 l
393.658626 73.099389 l
393.878106 72.354111 l
393.987863 72.879082 l
394.207378 72.417173 l
394.426892 73.042879 l
394.646372 72.292687 l
394.865886 72.752958 l
395.085366 72.472864 l
395.30488 72.807011 l
395.414602 72.470407 l
395.634117 72.801278 l
395.853597 72.476959 l
396.073076 72.712827 l
396.182833 72.510538 l
396.512105 72.732483 l
396.73162 72.626015 l
396.951099 72.660412 l
397.170614 72.947058 l
397.390128 72.666964 l
397.719365 72.738216 l
397.938845 72.720198 l
398.048602 72.837313 l
398.158359 72.748044 l
398.268116 72.806192 l
398.487596 72.712827 l
398.597353 72.657955 l
398.816833 72.770976 l
399.146105 72.432734 l
399.365584 72.586703 l
399.585099 72.829124 l
399.804578 72.724293 l
399.914335 72.805373 l
400.243572 72.542478 l
400.572844 72.779165 l
400.792359 72.512176 l
401.011838 72.795545 l
401.231353 72.485968 l
401.670382 72.651403 l
402.219168 72.812744 l
402.438648 72.843865 l
402.658162 72.748863 l
402.877677 72.681706 l
403.75577 72.822572 l
403.975285 72.589979 l
404.194799 72.714465 l
404.304557 72.682525 l
404.414314 72.779984 l
404.633828 72.534288 l
404.853378 72.647308 l
405.292372 72.78326 l
405.511887 72.630929 l
405.731401 72.712827 l
405.950916 72.771794 l
406.060673 72.615368 l
406.280188 72.731664 l
406.609424 72.676792 l
406.828904 72.896281 l
407.048348 72.512995 l
407.267863 72.914298 l
407.487342 72.619463 l
407.5971 72.669421 l
407.706822 72.544116 l
407.926337 72.853693 l
408.145816 72.684982 l
408.365296 72.983093 l
408.584775 72.796364 l
408.80429 72.879901 l
409.243284 72.580152 l
409.572485 72.75951 l
409.682243 72.588341 l
409.901722 72.763605 l
410.121202 72.842227 l
410.340681 72.547392 l
410.560161 72.660412 l
410.77964 72.626015 l
410.99912 72.784898 l
411.108877 72.558039 l
411.438114 72.8324 l
411.657628 72.763605 l
412.316137 72.768519 l
412.425859 72.762786 l
412.645374 72.641576 l
412.755131 72.745587 l
412.974611 72.632567 l
413.19416 72.794726 l
413.413675 72.82421 l
413.633189 72.689896 l
413.962461 72.838132 l
414.072183 72.717741 l
414.401455 72.75951 l
414.511213 72.612911 l
414.840449 72.96098 l
414.950207 72.760329 l
415.059929 72.825029 l
415.279443 72.680887 l
416.047639 72.716103 l
416.81587 72.713646 l
417.035385 72.813563 l
417.693858 72.600626 l
418.023095 72.722655 l
418.24261 72.811106 l
418.462089 72.971627 l
418.571846 73.011758 l
418.901083 72.67843 l
419.340077 72.955248 l
419.669314 72.713646 l
419.888793 72.71856 l
419.998551 72.655498 l
420.327788 72.820115 l
420.657059 72.5736 l
421.096018 72.771794 l
421.42529 72.675973 l
422.303243 72.612092 l
422.413001 72.53265 l
422.522758 72.713646 l
422.63248 72.616187 l
422.851995 72.703 l
422.961717 72.610454 l
423.181231 72.882358 l
423.62019 72.770976 l
423.83967 72.798821 l
424.05915 72.569505 l
424.717588 72.808649 l
424.937032 72.443381 l
425.156512 72.635024 l
425.266269 72.473683 l
425.485749 72.684982 l
426.144222 72.666964 l
426.473424 72.708733 l
426.583181 72.722655 l
426.802661 72.91266 l
427.131898 72.59735 l
427.570857 72.828305 l
428.009781 72.849598 l
428.229295 72.923307 l
428.448775 72.571143 l
428.558532 72.555582 l
428.777976 72.819296 l
429.216971 72.612911 l
429.326693 72.453209 l
429.546207 72.831581 l
430.753397 72.660412 l
430.972912 72.81602 l
431.192426 72.706276 l
431.63142 72.879901 l
431.850935 72.630929 l
431.960657 72.49252 l
432.289929 72.855331 l
432.399686 72.525279 l
432.509409 72.612911 l
432.619166 72.510538 l
432.838645 72.808649 l
432.948368 72.79145 l
433.167847 72.637481 l
433.387362 72.80783 l
433.497084 72.744768 l
433.716598 72.533469 l
433.936078 72.730026 l
434.265315 72.498253 l
434.484794 72.696448 l
434.814031 72.612092 l
435.03351 72.713646 l
435.143233 72.766881 l
435.25299 72.946239 l
435.801671 72.580152 l
436.130908 72.892186 l
436.240595 72.650584 l
436.460075 72.645671 l
436.569797 72.615368 l
436.789276 72.785717 l
436.899034 72.644033 l
437.118513 72.811106 l
437.337993 72.612911 l
437.447715 72.477778 l
437.66723 72.603902 l
437.776952 72.634205 l
437.886709 72.798821 l
438.106189 72.6383 l
438.764662 72.731664 l
438.874419 72.689896 l
439.093899 72.860245 l
439.203656 72.71856 l
439.313378 72.793088 l
439.423136 72.705457 l
439.64265 72.852874 l
439.971922 72.817658 l
440.301159 73.067449 l
440.520638 72.541659 l
440.740118 72.788993 l
440.849875 72.840589 l
441.06939 72.684982 l
441.179147 72.954429 l
441.398662 72.680887 l
441.508454 72.976541 l
441.618211 74.123942 l
441.727968 73.90691 l
441.837726 72.723474 l
442.27672 82.916585 l
442.386512 91.482369 l
443.044986 235.029481 l
443.593737 330.560209 l
443.923009 347.328966 l
444.032766 348.776115 l
444.252316 347.200385 l
444.581588 343.771286 l
445.130374 340.951514 l
446.337774 337.049042 l
446.667046 336.489674 l
446.996318 335.583055 l
448.642677 332.881217 l
448.862157 332.774749 l
449.081671 332.306289 l
449.191464 332.370989 l
449.849972 331.586399 l
449.959729 331.606874 l
450.288966 331.070437 l
450.398724 331.004099 l
450.618238 330.751852 l
450.837753 330.496328 l
451.057267 330.352186 l
451.167025 330.407058 l
451.715811 329.769067 l
451.825533 329.804284 l
452.045048 329.527466 l
452.374285 329.397247 l
453.142515 328.620029 l
453.691302 328.307995 l
453.801024 328.13355 l
454.020539 328.177776 l
454.240018 328.16631 l
454.56929 327.903415 l
455.008249 327.500473 l
455.227763 327.397281 l
455.337521 327.450515 l
455.666758 327.217104 l
455.776515 326.818257 l
456.105752 327.032013 l
456.325266 326.74373 l
456.435023 326.742911 l
456.544781 326.894423 l
456.764295 326.830542 l
456.983775 326.401393 l
457.422734 326.45217 l
457.642213 326.206474 l
457.751971 326.325227 l
457.861728 326.247424 l
457.971485 325.838749 l
458.410514 325.956683 l
458.630029 325.650382 l
459.069058 325.527534 l
459.288573 325.615985 l
459.617809 325.164723 l
459.837324 325.459558 l
460.276353 325.235156 l
460.495868 325.253173 l
460.605625 325.042694 l
460.825139 325.18356 l
461.044654 324.946053 l
461.154376 324.897733 l
461.373891 324.553759 l
461.703163 324.693805 l
461.812885 324.674969 l
462.032399 324.49643 l
462.142157 324.42354 l
462.251879 324.60126 l
462.471358 324.506257 l
462.581116 324.497248 l
462.80063 324.146722 l
463.02011 324.17293 l
463.129867 324.045987 l
463.349347 324.090212 l
463.898098 323.876456 l
464.117612 323.80111 l
464.22737 323.797015 l
464.446849 323.538215 l
465.105323 323.646321 l
465.324802 323.403901 l
465.43456 323.409634 l
465.544282 323.561146 l
465.983241 323.156567 l
466.092998 323.088591 l
466.4222 323.292519 l
466.751402 323.208163 l
467.080603 322.994408 l
467.848764 322.754444 l
468.287723 322.762634 l
468.507203 322.358055 l
468.836474 322.453876 l
468.946197 322.456333 l
469.055919 322.584914 l
469.275433 322.340856 l
469.385156 322.313829 l
469.494913 321.978864 l
469.824115 322.651252 l
469.933837 322.532499 l
470.153316 322.157403 l
470.263074 322.13529 l
470.372796 322.278613 l
470.592275 322.08697 l
470.701998 322.236845 l
471.689673 321.924811 l
471.79943 322.015718 l
472.01891 321.765108 l
472.238389 321.730711 l
472.348147 321.536611 l
472.567626 321.703684 l
473.226135 321.476006 l
473.335892 321.699589 l
473.665129 321.312208 l
473.884643 321.548077 l
474.104158 321.217206 l
474.433395 321.444065 l
474.652909 321.242595 l
474.762667 321.340054 l
474.872424 321.25406 l
474.982181 321.022287 l
475.311418 321.137764 l
475.64069 320.996079 l
475.750412 321.201645 l
475.969927 320.916638 l
476.299163 321.007545 l
476.6284 321.181989 l
476.870806 320.824911 l
476.957672 320.853576 l
477.177187 320.614432 l
477.506458 320.713529 l
477.725938 320.7856 l
477.945452 320.448177 l
478.164932 320.824911 l
478.274689 320.711072 l
478.384411 320.471109 l
478.603926 320.695511 l
478.713648 320.467014 l
478.823406 320.538266 l
478.933128 320.386753 l
479.152642 320.560378 l
479.372122 320.329424 l
480.140318 320.186101 l
480.250075 320.322872 l
480.469554 320.11485 l
480.579312 320.00101 l
481.018271 320.448177 l
481.237785 320.064891 l
481.457265 320.246706 l
481.567022 320.311406 l
481.896224 320.053426 l
482.005981 319.973984 l
482.115738 320.061615 l
482.444975 319.780703 l
482.554697 319.679967 l
483.103449 319.964156 l
483.322928 319.798721 l
483.652165 319.845403 l
483.87168 319.716003 l
484.420431 319.502247 l
484.639945 319.633285 l
484.85946 319.376123 l
485.298454 319.567766 l
485.408211 319.511256 l
485.627691 319.622638 l
485.847205 319.563671 l
486.06672 319.512894 l
486.286235 319.277026 l
486.615471 319.286035 l
486.944743 319.430995 l
487.273945 319.035425 l
487.383702 318.962535 l
487.603217 319.37039 l
487.712939 319.092754 l
487.932454 319.212326 l
488.151968 319.061632 l
488.26169 319.270474 l
488.810442 318.873265 l
488.920164 319.064089 l
489.249401 318.937146 l
489.468915 318.855248 l
489.68843 318.74059 l
490.017667 318.798738 l
490.127424 318.670157 l
490.456661 318.905206 l
490.566418 318.858524 l
490.676175 318.636578 l
490.785933 318.679984 l
491.005412 318.937146 l
491.554163 318.517006 l
491.773643 318.841325 l
492.322394 318.471962 l
492.432152 318.644768 l
492.651666 318.559593 l
492.871181 318.669338 l
493.31021 318.29588 l
493.529759 318.459677 l
493.639517 318.545671 l
493.968789 318.087857 l
494.188233 318.341743 l
494.29799 317.307362 l
494.407748 314.918378 l
494.517505 309.970878 l
494.736984 278.543074 l
495.614937 107.79577 l
495.834417 90.572475 l
496.053896 84.670855 l
496.602613 66.637583 l
496.71237 69.539253 l
496.93185 78.078011 l
497.261121 71.132183 l
497.480601 75.939636 l
497.809873 71.809485 l
498.029352 73.897901 l
498.248832 71.775087 l
498.468346 73.25254 l
498.687826 72.176391 l
498.797583 73.032232 l
498.90734 72.924945 l
499.017063 72.342645 l
499.236542 73.015853 l
499.456057 72.223073 l
499.675536 73.020767 l
499.895051 72.457304 l
500.004808 72.693991 l
500.224288 72.436829 l
500.443767 72.946239 l
500.663282 72.792269 l
500.882761 72.788993 l
501.211963 72.526098 l
501.321685 72.443381 l
501.431442 72.596531 l
501.5412 72.541659 l
501.760679 72.712008 l
501.870436 72.614549 l
502.089916 72.793088 l
502.309395 72.604721 l
502.528875 72.67024 l
502.638632 72.477778 l
502.967834 72.68662 l
503.187313 72.578514 l
503.845752 72.752139 l
504.394433 72.607178 l
504.72367 72.8324 l
504.94315 72.688258 l
505.052872 72.582609 l
505.272351 72.785717 l
505.491831 72.618644 l
506.150234 72.849598 l
506.369714 72.562953 l
506.479471 72.796364 l
506.698951 72.493339 l
506.808708 72.733302 l
507.028187 72.540021 l
507.137945 72.68662 l
507.357459 72.593255 l
507.686661 72.712008 l
507.90614 72.60554 l
508.015863 72.604721 l
508.235342 72.860245 l
508.454787 72.521184 l
508.674266 72.81602 l
508.784023 72.60554 l
509.003468 72.669421 l
509.113225 72.642395 l
509.222947 72.828305 l
509.332705 72.67843 l
509.661906 72.906927 l
509.881386 72.651403 l
510.32031 72.587522 l
510.539789 72.47614 l
510.759269 72.612092 l
510.869026 72.640757 l
511.088506 72.514633 l
511.52743 72.712827 l
511.856631 72.749682 l
511.966354 72.820934 l
512.185868 72.666964 l
512.29559 72.790631 l
512.51507 72.590798 l
512.734514 72.826667 l
513.063716 72.627653 l
513.392918 72.849598 l
513.722119 72.514633 l
513.941564 72.856969 l
514.051286 72.897099 l
514.270766 72.721836 l
514.380523 72.943782 l
514.599967 72.709551 l
514.929134 73.003568 l
515.368058 72.715284 l
515.587538 72.898737 l
515.916739 72.814382 l
516.026497 72.826667 l
516.136219 72.951972 l
516.355698 72.766881 l
516.575143 72.668602 l
516.794622 72.560496 l
517.123824 72.741492 l
518.001707 72.924945 l
518.111464 72.965075 l
518.221186 72.826667 l
518.330944 72.896281 l
518.550423 72.69481 l
518.660145 72.662869 l
518.769903 72.508081 l
519.318619 72.815201 l
519.428341 72.814382 l
519.538064 72.671059 l
519.757578 72.939687 l
519.977023 72.657955 l
520.196502 72.826667 l
520.745183 72.545754 l
521.184107 72.802916 l
521.293865 72.644852 l
521.513309 72.74313 l
521.623066 72.476959 l
521.842511 72.814382 l
522.28147 72.683344 l
522.391157 72.983912 l
522.830081 72.641576 l
522.939838 72.793088 l
523.598207 72.547392 l
523.817686 72.950334 l
523.927408 72.829943 l
524.037166 72.732483 l
524.25661 72.827486 l
524.47609 72.586703 l
524.915013 72.707914 l
525.024771 72.816839 l
525.463695 72.695629 l
525.573417 72.724293 l
525.683139 72.910203 l
525.902584 72.689077 l
526.45123 72.77507 l
526.670709 72.680068 l
527.329078 72.827486 l
527.4388 72.618644 l
527.767967 72.938868 l
527.877689 72.949515 l
528.097168 72.698905 l
528.426405 72.961799 l
528.755607 72.72675 l
528.975086 72.639938 l
529.084809 72.829124 l
529.304253 72.624377 l
529.41401 72.821753 l
529.633455 72.479416 l
529.743212 72.645671 l
529.852969 72.777527 l
529.962692 72.660412 l
530.182136 72.825848 l
530.40158 72.745587 l
530.511303 72.854512 l
530.643986 72.793088 l
530.840504 72.421268 l
531.169706 72.841408 l
531.498908 72.852055 l
531.608665 72.924945 l
531.718387 72.766881 l
531.82811 72.823391 l
532.047589 72.5089 l
532.486513 72.769338 l
532.596235 72.761967 l
532.81568 72.658774 l
532.925402 72.780803 l
533.035124 72.683344 l
533.144882 72.802097 l
533.364326 72.633386 l
533.474083 72.558858 l
533.80325 72.879082 l
534.022729 72.739854 l
534.132452 72.825848 l
534.351896 72.739035 l
534.571376 72.784898 l
534.790855 72.79964 l
534.900577 72.951153 l
535.229779 72.591617 l
535.559016 72.649765 l
535.778495 72.826667 l
536.107732 72.675154 l
536.327177 72.544116 l
536.436899 72.577695 l
536.546621 72.768519 l
536.766066 72.680068 l
536.985545 72.779984 l
537.095302 72.695629 l
537.534191 72.838132 l
537.753671 72.695629 l
537.97315 72.623558 l
538.192595 72.86434 l
538.302352 72.66205 l
538.521831 72.739035 l
538.631589 72.585884 l
538.851033 72.72675 l
539.070513 72.854512 l
539.18027 72.811106 l
539.399714 72.604721 l
539.619194 72.876625 l
539.948431 72.420449 l
540.387425 72.836494 l
540.826419 72.540021 l
541.045898 72.720198 l
541.484857 72.641576 l
541.814094 72.886453 l
542.033574 72.696448 l
542.362811 72.784079 l
542.58229 72.61373 l
542.80177 72.757872 l
542.911527 72.660412 l
543.131006 72.727569 l
543.240764 72.725112 l
543.350486 72.850417 l
543.679723 72.693991 l
543.789445 72.637481 l
543.899202 72.784079 l
544.008924 72.734121 l
544.118682 72.998654 l
544.9966 72.617006 l
545.106357 72.716103 l
545.325836 72.553944 l
545.545316 72.740673 l
545.655038 72.664507 l
545.764795 72.796364 l
545.874518 72.669421 l
545.984275 72.789812 l
546.313477 72.651403 l
546.532956 72.756234 l
546.642713 72.650584 l
546.752471 72.936411 l
546.862228 74.070708 l
546.97195 73.61617 l
547.081708 72.237815 l
547.520702 84.126229 l
547.630459 91.673193 l
548.39869 258.090514 l
548.837684 331.679764 l
549.166921 348.083252 l
549.276678 349.076684 l
549.496157 347.229049 l
549.935151 343.094803 l
550.593695 340.003947 l
551.471788 337.391378 l
552.130297 335.868063 l
552.679084 334.87627 l
553.008355 334.30216 l
553.666899 333.29972 l
554.874334 331.777223 l
554.984092 331.858303 l
555.203641 331.193285 l
555.313398 331.259623 l
555.423156 331.321047 l
555.64267 331.042592 l
555.752428 330.956598 l
555.971942 330.648659 l
556.520729 330.122051 l
556.630486 330.275201 l
557.179307 329.55695 l
557.398857 329.455395 l
557.508614 329.472594 l
557.947643 329.07948 l
558.057401 329.155646 l
558.27688 328.698651 l
558.386637 328.71585 l
558.606152 328.59464 l
558.715874 328.67572 l
559.045146 328.285063 l
559.154903 328.351401 l
559.484175 327.832982 l
559.70369 327.9804 l
560.142719 327.626597 l
560.362233 327.613494 l
560.581748 327.642977 l
560.91102 327.209733 l
561.130534 327.124558 l
561.240292 326.96158 l
561.459806 327.009081 l
561.89887 326.765023 l
562.008593 326.695409 l
562.118385 326.84856 l
562.337864 326.337512 l
562.557379 326.676573 l
562.886651 326.240053 l
562.996373 326.306391 l
563.215888 326.057419 l
563.764709 325.925562 l
564.093981 325.57094 l
564.423288 325.712625 l
564.533045 325.715082 l
564.75256 325.44973 l
564.862352 325.535724 l
564.972074 325.459558 l
565.081867 325.05416 l
565.411138 325.233518 l
565.630688 325.009115 l
565.850203 325.017305 l
565.959995 325.082005 l
566.179474 324.936225 l
566.399024 324.869069 l
566.618539 324.577509 l
567.38684 324.588156 l
567.935591 324.230259 l
568.155106 324.39078 l
568.37462 324.02715 l
568.594135 324.100859 l
568.813649 323.89775 l
569.033129 324.04353 l
569.362401 323.929691 l
569.472158 324.01077 l
569.80143 323.738048 l
569.911152 323.851887 l
570.130666 323.444031 l
570.350181 323.707745 l
570.459938 323.700374 l
570.679453 323.392435 l
570.898967 323.587354 l
571.447789 323.203249 l
571.557546 323.276139 l
571.777026 323.118894 l
571.886818 323.257302 l
572.655119 322.666813 l
572.874599 323.028805 l
572.984321 323.037814 l
573.203835 322.839619 l
573.423315 322.862551 l
573.862309 322.664356 l
575.179361 322.302364 l
575.398876 322.304002 l
575.618355 321.946923 l
576.496414 322.012442 l
577.154922 321.943647 l
577.264679 321.993606 l
577.484194 321.638165 l
577.703709 321.898603 l
577.813466 321.65864 l
578.03298 321.743815 l
578.691454 321.478463 l
578.910969 321.622604 l
579.24024 321.127117 l
579.459755 321.377727 l
579.679305 321.344968 l
579.898819 321.143497 l
580.228091 321.242595 l
580.337848 321.053409 l
580.557398 321.284363 l
580.776877 321.209016 l
580.886635 321.285182 l
581.106149 321.01164 l
581.215942 321.010821 l
581.325699 321.296648 l
581.87445 320.892887 l
581.984207 320.939569 l
582.203722 320.790514 l
582.642786 320.690597 l
582.752543 320.873231 l
582.862266 320.772496 l
582.972023 320.475204 l
583.191538 320.666847 l
583.301295 320.571025 l
583.411017 320.683226 l
583.630532 320.562016 l
583.740289 320.566111 l
583.850046 320.70452 l
584.069561 320.568568 l
584.179283 320.641458 l
584.421829 320.377744 l
584.618312 320.462919 l
584.947584 320.383477 l
585.167099 320.471928 l
585.276856 320.323691 l
585.386613 320.406409 l
585.825642 320.234422 l
586.045157 320.350718 l
586.374394 320.05015 l
586.593908 320.207395 l
586.92318 320.23606 l
587.032902 320.079633 l
587.252417 320.191015 l
587.471931 319.930577 l
587.581654 320.139419 l
588.13044 320.032132 l
588.240197 320.070624 l
588.569434 319.602983 l
588.788949 319.840489 l
589.008428 319.971527 l
589.227943 319.591517 l
589.337665 319.585784 l
589.557179 319.774151 l
589.666902 319.833937 l
589.886381 319.609535 l
590.215653 319.811824 l
590.435133 319.516989 l
590.654647 319.670959 l
591.093641 319.282759 l
591.313156 319.546473 l
591.422913 319.553844 l
591.642428 319.285216 l
591.752185 319.376123 l
592.081457 319.159092 l
592.410729 319.228706 l
592.74 319.191851 l
592.849758 319.312242 l
593.508301 319.06327 l
593.727816 319.069822 l
593.837573 319.114867 l
594.057123 318.941241 l
594.16688 319.069822 l
594.386395 319.027235 l
594.715666 319.198403 l
594.935181 319.13616 l
595.37421 318.78891 l
595.483932 318.776625 l
595.59369 318.54649 l
595.922926 318.802833 l
596.032684 318.690631 l
596.142476 318.822488 l
596.252198 318.757788 l
596.471713 318.959259 l
596.691192 318.842963 l
596.800915 318.617741 l
597.130186 318.852791 l
597.239909 318.750417 l
597.459423 318.747141 l
597.56918 318.649682 l
597.678938 318.398253 l
598.008175 318.548128 l
598.447169 318.574335 l
598.666683 318.644768 l
598.886198 318.42528 l
599.106063 318.585801 l
599.325157 318.299156 l
599.434879 317.6972 l
599.654394 312.22473 l
599.764116 303.573771 l
600.093318 238.488062 l
600.751791 112.599947 l
600.971306 92.413558 l
601.739466 67.184666 l
601.849224 67.635928 l
602.068668 77.902747 l
602.178425 76.871643 l
602.397905 70.436044 l
602.617384 75.55635 l
602.727107 75.427769 l
602.946586 71.234556 l
603.166066 74.433519 l
603.38551 71.74888 l
603.495232 72.057638 l
603.604955 73.195211 l
603.824434 72.12889 l
604.043879 73.334438 l
604.263323 72.200961 l
604.482767 73.09857 l
604.702247 72.541659 l
604.812004 72.776708 l
605.031449 72.344283 l
605.250928 72.766881 l
605.470408 72.529374 l
605.689887 72.843865 l
605.909367 72.742311 l
606.128846 72.897918 l
606.348326 72.709551 l
606.458048 72.75951 l
606.567805 72.56541 l
606.787285 72.655498 l
607.006729 72.758691 l
607.226209 72.668602 l
607.445688 72.711189 l
607.774855 72.62192 l
607.994299 72.800459 l
608.323466 72.599807 l
608.652633 72.780803 l
608.872112 72.716922 l
608.981834 72.480235 l
609.091557 72.561315 l
609.311001 72.923307 l
609.640168 72.676792 l
609.969334 72.731664 l
610.408258 72.595712 l
610.627703 72.692353 l
610.73746 72.544116 l
611.286141 72.667783 l
611.505586 72.558039 l
611.615308 72.730845 l
612.273712 72.576876 l
612.7126 72.991283 l
612.93208 72.591617 l
613.151559 72.640757 l
613.480726 72.87253 l
613.700206 72.780803 l
614.029407 72.729207 l
614.13913 72.939687 l
614.687811 72.737397 l
614.907255 72.732483 l
615.126735 72.642395 l
615.346179 72.757053 l
615.675381 72.816839 l
615.894861 72.918393 l
616.11434 72.639938 l
616.333855 72.772613 l
616.553299 72.515452 l
616.663056 72.855331 l
616.772779 72.820115 l
616.992258 72.078113 l
617.211738 72.946239 l
617.431217 72.918393 l
617.540939 73.210771 l
617.650697 73.110036 l
617.870141 72.635024 l
617.979863 72.727569 l
618.089621 72.664507 l
618.309065 72.852874 l
618.418787 72.837313 l
618.638267 72.632567 l
618.857781 72.568686 l
618.967503 72.543297 l
619.296705 72.868435 l
619.51615 72.758691 l
619.625872 72.823391 l
619.735629 72.652222 l
619.955074 72.788174 l
620.174518 72.54084 l
620.284275 72.705457 l
620.50372 72.648127 l
620.613477 72.886453 l
620.723199 72.816839 l
620.942679 72.317257 l
621.162158 72.766062 l
621.271881 72.8324 l
621.381638 72.756234 l
621.49136 72.865159 l
621.71084 72.56541 l
621.820562 72.661231 l
622.149764 72.567048 l
622.259486 72.716922 l
622.369243 72.545754 l
622.588688 72.865159 l
623.027611 72.488425 l
623.137369 72.499072 l
623.356848 72.862702 l
623.576328 72.83977 l
623.795772 72.669421 l
623.905529 72.393423 l
624.124974 72.802916 l
624.234731 72.651403 l
624.344453 72.550668 l
624.454176 72.75951 l
624.563933 72.65386 l
624.783377 72.834037 l
625.002857 72.838951 l
625.88081 72.750501 l
626.100325 72.951972 l
626.429596 72.443381 l
626.649076 72.567867 l
626.868555 72.577695 l
627.088035 72.499072 l
627.197792 72.701362 l
627.307549 72.600626 l
627.527029 72.677611 l
627.636786 72.578514 l
627.856266 72.958524 l
628.075745 72.773432 l
628.295225 72.80783 l
628.514739 72.630929 l
628.734219 73.040422 l
628.843941 72.920031 l
628.953698 72.976541 l
629.282935 72.607178 l
629.502415 72.752958 l
629.721859 72.607178 l
629.941339 72.716922 l
630.051061 72.834037 l
630.27054 72.688258 l
630.49002 72.730845 l
630.709464 72.591617 l
630.928979 73.024042 l
631.038701 72.942963 l
631.367938 72.517909 l
631.587382 72.703 l
631.69714 72.541659 l
632.355508 72.793907 l
632.794432 72.844684 l
632.904154 72.838951 l
633.123599 72.684982 l
633.343043 72.80783 l
633.781932 72.642395 l
633.891654 72.641576 l
634.001412 72.52446 l
634.220856 72.889729 l
634.988877 72.558039 l
635.208321 72.689077 l
635.64721 72.731664 l
635.756932 72.793088 l
635.866654 72.59735 l
636.086099 72.669421 l
636.305543 72.45976 l
636.524988 72.774251 l
636.744432 72.610454 l
636.963912 72.756234 l
637.073634 72.699724 l
637.183356 72.921669 l
637.402836 72.802097 l
637.62228 72.556401 l
638.193712 72.843865 l
638.280684 72.580971 l
638.390406 72.617825 l
638.500163 72.780803 l
638.719607 72.615368 l
638.939087 72.639938 l
639.048809 72.837313 l
639.158531 72.705457 l
639.378011 72.900375 l
639.707178 72.609635 l
640.036379 72.762786 l
640.255894 72.572781 l
640.475373 72.852874 l
640.914332 72.790631 l
641.353256 72.813563 l
641.682493 72.727569 l
641.79225 72.792269 l
642.121452 72.644033 l
642.340932 72.739035 l
642.779926 72.634205 l
642.99937 72.843865 l
643.218885 72.814382 l
643.767601 72.689077 l
643.987081 72.874168 l
644.20656 72.633386 l
644.316317 72.889729 l
644.42604 72.843046 l
644.535762 72.552306 l
644.755241 72.933954 l
644.974721 72.699724 l
645.1942 72.825848 l
645.852639 72.558858 l
645.962361 72.823391 l
646.181876 72.617006 l
646.291598 72.806192 l
646.511112 72.621101 l
647.059794 72.854512 l
647.279273 72.648127 l
647.389031 72.714465 l
647.60851 72.519547 l
647.718232 72.62192 l
647.82799 72.901194 l
647.937747 72.859426 l
648.047469 72.5736 l
648.376706 72.808649 l
648.705908 72.725931 l
648.925387 72.93723 l
649.144867 72.886453 l
649.583791 72.735759 l
649.693513 72.623558 l
650.132437 72.900375 l
650.351881 72.600626 l
651.120042 72.768519 l
651.778445 72.691534 l
651.888238 72.790631 l
651.99796 73.241893 l
652.107717 74.205841 l
652.327197 72.148545 l
652.766191 85.101642 l
652.875948 94.478224 l
654.083138 332.707592 l
654.412375 349.1766 l
654.522132 349.567257 l
655.40012 342.008008 l
656.278073 338.592832 l
656.387795 338.52977 l
656.936512 337.003998 l
657.265749 336.323419 l
657.375506 336.261995 l
657.704743 335.316066 l
657.8145 335.226796 l
658.033979 334.763249 l
658.143737 334.77062 l
658.802245 333.519208 l
658.912003 333.710032 l
659.02176 333.628953 l
659.241274 332.7985 l
659.460754 332.832897 l
660.668014 331.280917 l
661.107043 331.097464 l
661.875274 330.226881 l
661.985031 330.217872 l
662.204511 329.862432 l
662.314268 329.832129 l
662.533747 329.519276 l
662.643505 329.567596 l
663.082464 329.333366 l
663.192221 329.527466 l
663.521458 329.056549 l
663.740937 328.850164 l
663.85066 328.870639 l
664.070174 328.636408 l
664.618926 328.095058 l
664.728613 328.282606 l
664.83837 328.204802 l
665.057849 327.847724 l
665.167607 327.88294 l
665.277329 328.039367 l
665.826045 327.465257 l
666.04556 327.439049 l
666.265039 327.122921 l
666.594241 327.117188 l
666.703998 326.970589 l
666.923478 327.077057 l
667.033235 326.881319 l
667.25275 326.876405 l
667.472229 326.778127 l
667.581986 326.824809 l
667.801501 326.529974 l
668.130738 326.427601 l
668.240495 326.597131 l
668.46001 326.341607 l
668.679489 326.190913 l
668.789282 326.085264 l
668.899039 326.223673 l
669.008796 326.172077 l
669.228276 325.965692 l
669.777062 325.537362 l
669.996542 325.679866 l
670.106299 325.539819 l
670.216056 325.737195 l
670.545293 325.33671 l
670.874565 325.308046 l
670.984322 325.074634 l
671.203837 325.19912 l
671.533108 324.913294 l
671.862345 325.041875 l
671.972102 325.059074 l
672.630576 324.471041 l
672.850091 324.683978 l
672.959813 324.632381 l
673.179327 324.35065 l
673.618286 324.399789 l
673.837801 324.466946 l
674.05728 324.10004 l
674.715789 323.969002 l
674.825546 323.743781 l
674.935304 323.788825 l
675.154818 323.972278 l
675.264576 323.915768 l
675.484055 323.588173 l
675.70357 323.665158 l
675.813327 323.674167 l
676.142599 323.437479 l
676.471835 323.312174 l
676.69135 323.153291 l
676.801107 323.276958 l
676.910865 323.189326 l
677.240136 323.317907 l
678.008437 322.9682 l
678.227952 323.092686 l
678.337674 323.019796 l
678.557189 323.13773 l
679.105975 322.558706 l
679.32549 322.743798 l
679.545004 322.643881 l
679.764484 322.408013 l
679.983998 322.578362 l
680.093756 322.520214 l
680.203513 322.630777 l
680.423028 322.540689 l
680.532785 322.595561 l
680.752334 322.367883 l
680.971849 322.3859 l
681.191328 322.190981 l
681.301086 322.373615 l
681.5206 322.165593 l
681.630358 322.246672 l
681.959629 322.077142 l
682.179109 322.003433 l
682.398624 321.857654 l
682.618103 322.044383 l
682.837618 321.99033 l
683.057097 322.119729 l
683.276612 321.806876 l
683.386334 321.743815 l
683.605813 321.756918 l
684.483802 321.552172 l
684.703281 321.276992 l
684.813038 321.687304 l
685.032518 321.407211 l
685.252067 321.485834 l
686.349605 321.299105 l
686.459362 321.435875 l
686.898357 320.949397 l
687.117906 321.299924 l
687.227663 320.961682 l
687.556935 320.991985 l
687.666693 320.848662 l
687.77645 320.910086 l
688.105722 320.683226 l
688.544751 320.694692 l
688.764265 320.752021 l
688.874023 320.51042 l
689.203295 320.719262 l
689.422809 320.380201 l
689.532566 320.595595 l
689.971631 320.512058 l
690.300902 320.570206 l
690.630209 320.38921 l
690.739931 320.455548 l
690.959446 320.204938 l
691.178961 320.291751 l
691.288718 320.369554 l
691.61799 320.131229 l
691.837504 320.301579 l
692.057019 320.255715 l
692.276533 320.240974 l
692.496048 320.09847 l
692.605805 320.233603 l
692.825355 320.035408 l
693.044869 319.958423 l
693.264384 320.082909 l
693.483864 319.950233 l
693.593621 320.124677 l
693.922893 319.881438 l
694.142372 319.640656 l
694.361887 319.951871 l
694.581401 319.652122 l
695.130153 319.808548 l
695.349632 319.747943 l
695.788661 319.71846 l
695.898419 319.851955 l
696.008176 319.783979 l
696.22769 319.426901 l
696.447205 319.706994 l
696.666684 319.625095 l
696.995921 319.748762 l
697.215436 319.527636 l
697.434915 319.444099 l
697.764187 319.438366 l
697.983702 319.349916 l
698.64221 319.331898 l
698.971447 319.096849 l
699.190962 319.362201 l
699.520234 319.156635 l
699.629991 319.172196 l
699.84954 319.000208 l
700.398257 319.153359 l
700.508014 319.121418 l
700.727529 318.805289 l
700.947043 318.806927 l
701.386037 318.946155 l
701.605552 318.905206 l
701.715309 318.727486 l
701.825031 318.76434 l
701.934789 318.930594 l
702.044581 318.808565 l
702.26406 318.87736 l
702.483575 318.679165 l
702.593297 318.940422 l
702.812812 318.753693 l
702.922569 318.870808 l
703.142084 318.670976 l
703.251841 318.747141 l
703.47132 318.58662 l
703.91035 318.573516 l
704.239621 318.713563 l
704.459136 318.4089 l
704.568858 318.268853 l
704.678615 317.678363 l
704.788373 315.749649 l
704.898095 311.552341 l
705.117574 283.403761 l
705.995563 110.597524 l
706.215077 91.826344 l
706.654001 77.461314 l
706.983238 66.777629 l
707.09296 68.544184 l
707.312475 77.975637 l
707.422197 75.84709 l
707.641676 70.279617 l
707.861156 75.843814 l
707.970913 75.06332 l
708.190393 71.292704 l
708.409872 74.211573 l
708.629352 71.941342 l
708.739109 72.523641 l
708.848831 73.564574 l
709.068311 72.211607 l
709.28779 73.161632 l
709.50727 72.424544 l
709.617027 73.021586 l
709.726784 72.763605 l
709.836507 72.094492 l
710.056021 72.920031 l
710.275501 72.45976 l
710.495015 72.902013 l
710.604772 72.79964 l
710.71453 72.618644 l
710.824287 72.802916 l
711.153524 72.585884 l
711.263246 72.696448 l
711.373003 72.603902 l
711.70224 72.725931 l
711.921755 72.67843 l
712.360714 72.714465 l
712.470471 72.820115 l
712.689986 72.693991 l
712.799708 72.757053 l
712.909465 72.680887 l
713.238737 72.879901 l
713.568009 72.649765 l
713.787523 72.741492 l
714.007038 72.695629 l
714.116795 72.902832 l
714.336275 72.683344 l
714.446032 72.828305 l
714.665546 72.554763 l
715.214298 72.598169 l
715.433777 72.388509 l
715.763014 72.990464 l
715.872736 72.886453 l
716.31173 72.598169 l
716.421453 72.85615 l
716.53121 72.624377 l
716.640967 72.653041 l
716.750689 72.814382 l
717.299371 72.562953 l
717.409128 72.69481 l
717.518885 72.556401 l
717.957879 72.705457 l
718.067602 72.714465 l
718.287081 72.860245 l
718.506561 72.616187 l
718.72604 72.796364 l
719.055277 72.510538 l
719.165034 72.562134 l
719.274756 72.766062 l
719.384514 72.698086 l
719.494236 72.435191 l
719.71375 72.562953 l
719.93323 72.766062 l
720.591668 72.59735 l
720.701391 72.485149 l
721.250142 72.825029 l
721.798858 72.747225 l
721.908581 72.828305 l
722.018338 72.606359 l
722.237817 72.770157 l
722.457297 72.526098 l
722.896256 72.809468 l
723.006013 72.744768 l
723.115735 72.829124 l
723.554694 72.534288 l
723.664452 72.600626 l
723.883966 72.938049 l
724.103446 72.825029 l
724.32296 72.695629 l
724.652197 72.781622 l
725.091191 72.77507 l
725.200948 72.669421 l
725.310706 72.866797 l
725.53022 72.773432 l
725.639942 72.849598 l
725.859457 72.569505 l
726.078972 72.705457 l
726.188694 72.658774 l
726.517966 72.903651 l
726.627688 72.652222 l
726.847167 72.976541 l
727.066647 72.735759 l
727.176404 72.733302 l
727.286126 72.860245 l
727.395884 72.674335 l
727.505606 72.806192 l
727.615363 73.141158 l
727.944565 72.583428 l
728.054322 72.59735 l
728.164044 72.765243 l
728.383559 72.706276 l
728.493281 72.859426 l
728.822553 72.768519 l
729.042033 72.747225 l
729.371269 72.772613 l
730.468702 72.703819 l
730.688217 72.85615 l
730.797974 72.825848 l
731.017488 72.619463 l
732.224713 72.731664 l
732.444193 72.60554 l
732.663672 72.761148 l
732.883117 72.518728 l
733.102596 72.84796 l
733.322076 72.712008 l
733.54152 72.62192 l
733.651278 72.784898 l
733.761 72.585884 l
733.980479 72.74313 l
734.199994 72.567867 l
734.638918 72.741492 l
734.748675 72.627653 l
735.187669 72.802916 l
735.736385 72.741492 l
735.846108 72.870073 l
736.175344 72.554763 l
736.394824 72.849598 l
736.614303 72.615368 l
736.943505 72.865159 l
737.162985 72.693172 l
737.272742 72.762786 l
737.492257 72.687439 l
737.711736 72.792269 l
737.931251 72.63011 l
738.15073 72.795545 l
738.370245 72.63011 l
738.918961 72.820934 l
739.028683 72.906927 l
739.248163 72.877444 l
739.35792 72.917574 l
739.577399 72.745587 l
739.687122 72.987188 l
740.016359 72.609635 l
740.235838 72.429458 l
740.56504 72.790631 l
740.674797 72.689896 l
740.894277 72.82421 l
741.333271 72.621101 l
741.552785 72.722655 l
741.662542 72.598988 l
741.991779 72.675154 l
742.101537 72.594074 l
742.321051 72.769338 l
742.540531 72.700543 l
742.76001 72.86434 l
743.308726 72.665326 l
743.528206 72.917574 l
743.9672 72.624377 l
744.406194 72.906108 l
744.515916 72.712008 l
744.735396 72.997016 l
744.954875 72.654679 l
745.064598 72.835675 l
745.284077 72.650584 l
745.503557 72.876625 l
745.745752 72.612911 l
745.832828 72.641576 l
746.052273 72.933135 l
746.491267 72.705457 l
746.710746 72.695629 l
746.930226 72.689077 l
747.149705 72.716922 l
747.259428 72.917574 l
747.588629 72.810287 l
747.808109 73.023223 l
748.027588 72.779165 l
748.247068 72.674335 l
748.795784 72.973265 l
749.124986 72.512176 l
749.454188 72.788174 l
749.563945 72.636662 l
749.893147 72.735759 l
750.002869 72.612092 l
750.332106 72.822572 l
750.77103 72.550668 l
751.100266 72.646489 l
751.429468 72.490063 l
751.868392 72.725931 l
752.087872 72.612911 l
752.417073 73.026499 l
752.526831 72.668602 l
752.74631 72.809468 l
752.856067 72.618644 l
753.185304 72.802916 l
753.624263 72.681706 l
753.734021 72.72675 l
753.843743 72.593255 l
754.063222 72.706276 l
754.17298 72.651403 l
754.721661 73.019129 l
755.160655 72.645671 l
755.489892 72.603902 l
755.709371 72.831581 l
756.038573 72.593255 l
756.916806 72.8324 l
757.13597 72.82421 l
757.35545 73.859409 l
757.465207 72.538383 l
757.684687 78.824927 l
758.013923 89.266191 l
758.452883 174.894548 l
759.111356 318.435107 l
759.440558 344.062027 l
759.660037 349.724502 l
759.879482 347.853936 l
760.428163 343.211099 l
760.867087 340.958885 l
761.525561 338.703395 l
761.854797 337.857382 l
762.293791 336.697696 l
762.403549 336.614979 l
763.062022 335.394688 l
763.171744 335.236624 l
763.391224 334.777991 l
763.500946 334.775534 l
763.720426 334.179312 l
764.159385 333.514294 l
764.378864 333.384894 l
764.708101 332.953288 l
764.927581 332.735438 l
765.14706 332.455344 l
765.586019 331.782137 l
765.805499 331.73136 l
766.024978 331.256347 l
766.134735 331.56183 l
766.244458 331.446352 l
766.463937 330.905821 l
766.683417 330.679781 l
767.56137 330.275201 l
767.890571 329.76661 l
768.219808 329.813293 l
768.658837 329.174483 l
768.878352 329.318624 l
769.097831 328.801025 l
769.207589 328.819861 l
769.427103 328.575803 l
769.536825 328.746972 l
769.75634 328.45705 l
769.866062 328.595459 l
770.195334 328.178595 l
770.305056 328.086049 l
770.414849 328.216268 l
770.634363 327.993504 l
770.853843 328.070488 l
771.073322 327.687202 l
771.512316 327.543061 l
771.731796 327.400557 l
771.841553 327.396462 l
772.17079 327.025461 l
772.500027 327.213009 l
772.719506 326.787136 l
772.829228 326.920631 l
773.048708 326.722436 l
773.268187 326.771575 l
773.487667 326.427601 l
773.707146 326.637261 l
773.926626 326.129489 l
774.36562 326.250699 l
774.914371 325.88625 l
775.024094 326.003365 l
775.133851 325.845301 l
775.463123 325.934571 l
775.572845 325.822369 l
775.682602 325.528353 l
775.902117 325.719996 l
776.121631 325.289209 l
776.231389 325.493137 l
776.670348 324.975537 l
776.78007 325.125411 l
776.999584 325.122136 l
777.109307 325.229423 l
777.328821 325.093471 l
778.426324 324.611907 l
778.645803 324.78717 l
778.975075 324.579966 l
779.194555 324.620916 l
779.414069 324.481688 l
779.633549 324.363754 l
779.743306 324.597165 l
780.182335 323.941975 l
780.292057 324.062366 l
780.840844 323.802748 l
781.170116 323.934604 l
781.499353 323.76835 l
781.938347 323.596363 l
782.157861 323.810937 l
782.377376 323.617657 l
782.487133 323.692184 l
782.81637 323.263854 l
782.926127 323.353124 l
783.035884 323.296614 l
783.145607 323.472696 l
783.365121 323.263035 l
783.694393 323.141006 l
783.913908 323.247474 l
784.133422 323.00833 l
784.243179 323.138549 l
784.462694 323.041909 l
784.572451 323.106609 l
784.791966 322.921518 l
784.901688 323.002597 l
785.121203 322.753625 l
785.340682 322.915785 l
785.560197 322.627501 l
785.889433 322.842895 l
786.108948 322.579181 l
786.218705 322.496463 l
786.328463 322.62013 l
786.657734 322.468618 l
786.987006 322.490731 l
787.206521 322.408832 l
787.316278 322.480084 l
787.535758 322.32939 l
787.755272 322.31301 l
787.865029 322.267966 l
788.084544 322.3859 l
788.413781 322.059124 l
788.523503 322.130376 l
788.743018 321.90106 l
788.962497 322.102531 l
789.182012 321.958389 l
789.401526 321.673382 l
789.511284 321.885499 l
789.730763 321.756099 l
789.950243 321.86912 l
790.608786 321.702046 l
790.718508 321.745452 l
791.04778 321.403935 l
791.377052 321.368719 l
791.486809 321.428505 l
791.706289 321.254879 l
792.035561 321.435875 l
792.255075 321.327769 l
792.47459 321.317941 l
792.694104 321.206559 l
792.913584 321.409668 l
793.023341 321.381003 l
793.242856 321.195912 l
793.46237 320.984614 l
793.901364 321.241776 l
794.120844 321.164791 l
794.450116 320.754478 l
794.669595 320.987071 l
794.779353 321.035391 l
795.218347 320.735642 l
795.767063 320.626716 l
795.87682 320.550551 l
796.206057 320.690597 l
796.535259 320.60788 l
796.645016 320.813445 l
796.864496 320.687321 l
797.083975 320.516972 l
797.852171 320.494859 l
798.07165 320.229508 l
798.181373 320.330243 l
798.400852 320.241793 l
798.510574 320.394943 l
798.730054 320.337614 l
798.949533 320.388391 l
799.059256 320.38102 l
799.27877 320.539904 l
799.522017 320.191015 l
799.717729 320.367917 l
800.156688 319.968251 l
800.266445 319.970708 l
800.48596 320.085366 l
800.595682 319.966613 l
800.705439 320.055882 l
801.034676 319.909284 l
801.144434 319.893723 l
801.254156 320.015752 l
802.022387 319.767599 l
802.351623 319.853593 l
802.571103 319.635742 l
802.790617 319.54893 l
803.010097 319.730745 l
803.119819 319.595612 l
803.339299 319.757771 l
803.88798 319.37039 l
804.326939 319.539102 l
804.546418 319.211507 l
804.87569 319.649665 l
805.204927 319.337631 l
805.314649 319.489144 l
805.534129 319.23362 l
805.643886 319.195127 l
805.863366 319.390046 l
805.973088 319.287673 l
806.192567 319.449832 l
806.412047 319.114048 l
806.741284 319.237715 l
806.851006 319.312242 l
807.289965 319.120599 l
807.728889 319.066546 l
807.838646 318.887188 l
808.058126 319.131246 l
808.27757 319.00676 l
809.484585 318.863438 l
809.704064 318.95025 l
809.813786 318.78072 l
809.923509 317.852808 l
810.142953 311.137115 l
810.362433 280.736321 l
811.240245 108.863729 l
811.459725 90.864034 l
811.679169 84.931293 l
812.227781 66.444302 l
812.337538 69.444251 l
812.556982 78.435089 l
812.886184 70.693206 l
813.105628 76.242661 l
813.434795 71.59491 l
813.654275 74.151787 l
813.873719 71.698103 l
814.093164 73.368836 l
814.312643 72.153459 l
814.532088 73.124778 l
814.641845 72.347559 l
814.751567 72.3795 l
814.971012 72.867616 l
815.080734 72.483511 l
815.300213 73.012577 l
815.958582 72.580152 l
816.178026 72.732483 l
816.507228 72.510538 l
816.946117 72.775889 l
817.055839 72.583428 l
817.165561 72.651403 l
817.385006 72.471226 l
817.714172 72.838951 l
817.823895 72.546573 l
818.043374 72.675973 l
818.372541 72.850417 l
818.591985 72.599807 l
818.701707 72.752958 l
819.140596 72.708733 l
819.360041 72.784079 l
819.579485 72.679249 l
819.798895 72.782441 l
820.128061 72.616187 l
820.347471 72.796364 l
820.566915 72.739035 l
820.786325 72.567048 l
820.896047 72.503986 l
821.225178 72.914298 l
821.444623 72.657136 l
821.664067 72.768519 l
821.664067 72.768519 l
stroke
grestore
0.800 setlinewidth
0 setlinejoin
[] 0 setdash
0.000 setgray
gsave
114.12 46.8864 m
114.12 375.0912 l
stroke
grestore
gsave
821.664 46.8864 m
821.664 375.0912 l
stroke
grestore
gsave
114.12 46.8864 m
821.664 46.8864 l
stroke
grestore
gsave
114.12 375.0912 m
821.664 375.0912 l
stroke
grestore

end
showpage
