%!PS-Adobe-3.0 EPSF-3.0
%%Title: /run/media/usuario/Data1/documents/201819-2010068-trabajo-fin-de-grado/trabajo-fin-de-grado/resources/Figure_9.eps
%%Creator: matplotlib version 3.1.1, http://matplotlib.org/
%%CreationDate: Tue Aug 27 11:10:29 2019
%%Orientation: portrait
%%BoundingBox: -150.48 -69.12 762.48 861.12
%%EndComments
%%BeginProlog
/mpldict 8 dict def
mpldict begin
/m { moveto } bind def
/l { lineto } bind def
/r { rlineto } bind def
/c { curveto } bind def
/cl { closepath } bind def
/box {
m
1 index 0 r
0 exch r
neg 0 r
cl
} bind def
/clipbox {
box
clip
newpath
} bind def
%!PS-Adobe-3.0 Resource-Font
%%Title: DejaVu Sans
%%Copyright: Copyright (c) 2003 by Bitstream, Inc. All Rights Reserved. Copyright (c) 2006 by Tavmjong Bah. All Rights Reserved. DejaVu changes are in public domain 
%%Creator: Converted from TrueType to type 3 by PPR
25 dict begin
/_d{bind def}bind def
/_m{moveto}_d
/_l{lineto}_d
/_cl{closepath eofill}_d
/_c{curveto}_d
/_sc{7 -1 roll{setcachedevice}{pop pop pop pop pop pop}ifelse}_d
/_e{exec}_d
/FontName /DejaVuSans def
/PaintType 0 def
/FontMatrix[.001 0 0 .001 0 0]def
/FontBBox[-1021 -463 1793 1232]def
/FontType 3 def
/Encoding [ /space /percent /zero /one /two /three /four /five /six /eight /C /D /M /P /W /bracketleft /bracketright /c /e /l /m /o /p /s /t /u /y ] def
/FontInfo 10 dict dup begin
/FamilyName (DejaVu Sans) def
/FullName (DejaVu Sans) def
/Notice (Copyright (c) 2003 by Bitstream, Inc. All Rights Reserved. Copyright (c) 2006 by Tavmjong Bah. All Rights Reserved. DejaVu changes are in public domain ) def
/Weight (Book) def
/Version (Version 2.35) def
/ItalicAngle 0.0 def
/isFixedPitch false def
/UnderlinePosition -130 def
/UnderlineThickness 90 def
end readonly def
/CharStrings 28 dict dup begin
/.notdef 0 def
/space{318 0 0 0 0 0 _sc
}_d
/percent{{950 0 55 -13 895 742 _sc
727 321 _m
699 321 676 309 660 285 _c
644 261 636 227 636 184 _c
636 142 644 108 660 84 _c
676 60 699 48 727 48 _c
755 48 777 60 793 84 _c
809 108 817 142 817 184 _c
817 226 809 260 793 284 _c
777 308 755 321 727 321 _c
727 383 _m
778 383 819 365 849 329 _c
879 293 895 244 895 184 _c
895 123 879 75 849 40 _c
819 4 778 -13 727 -13 _c
}_e{675 -13 633 4 603 40 _c
573 75 558 123 558 184 _c
558 245 573 293 603 329 _c
633 365 675 383 727 383 _c
223 680 _m
195 680 173 667 157 643 _c
141 619 133 586 133 544 _c
133 500 141 467 157 443 _c
173 419 195 407 223 407 _c
251 407 274 419 290 443 _c
306 467 314 500 314 544 _c
314 586 305 619 289 643 _c
273 667 251 680 223 680 _c
664 742 _m
742 742 _l
286 -13 _l
}_e{208 -13 _l
664 742 _l
223 742 _m
274 742 315 724 346 688 _c
376 652 392 604 392 544 _c
392 482 376 434 346 398 _c
316 362 275 345 223 345 _c
171 345 130 362 100 398 _c
70 434 55 482 55 544 _c
55 604 70 652 100 688 _c
130 724 171 742 223 742 _c
_cl}_e}_d
/zero{636 0 66 -13 570 742 _sc
318 664 _m
267 664 229 639 203 589 _c
177 539 165 464 165 364 _c
165 264 177 189 203 139 _c
229 89 267 64 318 64 _c
369 64 407 89 433 139 _c
458 189 471 264 471 364 _c
471 464 458 539 433 589 _c
407 639 369 664 318 664 _c
318 742 _m
399 742 461 709 505 645 _c
548 580 570 486 570 364 _c
570 241 548 147 505 83 _c
461 19 399 -13 318 -13 _c
236 -13 173 19 130 83 _c
87 147 66 241 66 364 _c
66 486 87 580 130 645 _c
173 709 236 742 318 742 _c
_cl}_d
/one{636 0 110 0 544 729 _sc
124 83 _m
285 83 _l
285 639 _l
110 604 _l
110 694 _l
284 729 _l
383 729 _l
383 83 _l
544 83 _l
544 0 _l
124 0 _l
124 83 _l
_cl}_d
/two{{636 0 73 0 536 742 _sc
192 83 _m
536 83 _l
536 0 _l
73 0 _l
73 83 _l
110 121 161 173 226 239 _c
290 304 331 346 348 365 _c
380 400 402 430 414 455 _c
426 479 433 504 433 528 _c
433 566 419 598 392 622 _c
365 646 330 659 286 659 _c
255 659 222 653 188 643 _c
154 632 117 616 78 594 _c
78 694 _l
118 710 155 722 189 730 _c
223 738 255 742 284 742 _c
}_e{359 742 419 723 464 685 _c
509 647 532 597 532 534 _c
532 504 526 475 515 449 _c
504 422 484 390 454 354 _c
446 344 420 317 376 272 _c
332 227 271 164 192 83 _c
_cl}_e}_d
/three{{636 0 76 -13 556 742 _sc
406 393 _m
453 383 490 362 516 330 _c
542 298 556 258 556 212 _c
556 140 531 84 482 45 _c
432 6 362 -13 271 -13 _c
240 -13 208 -10 176 -4 _c
144 1 110 10 76 22 _c
76 117 _l
103 101 133 89 166 81 _c
198 73 232 69 268 69 _c
330 69 377 81 409 105 _c
441 129 458 165 458 212 _c
458 254 443 288 413 312 _c
383 336 341 349 287 349 _c
}_e{202 349 _l
202 430 _l
291 430 _l
339 430 376 439 402 459 _c
428 478 441 506 441 543 _c
441 580 427 609 401 629 _c
374 649 336 659 287 659 _c
260 659 231 656 200 650 _c
169 644 135 635 98 623 _c
98 711 _l
135 721 170 729 203 734 _c
235 739 266 742 296 742 _c
370 742 429 725 473 691 _c
517 657 539 611 539 553 _c
539 513 527 479 504 451 _c
481 423 448 403 406 393 _c
_cl}_e}_d
/four{636 0 49 0 580 729 _sc
378 643 _m
129 254 _l
378 254 _l
378 643 _l
352 729 _m
476 729 _l
476 254 _l
580 254 _l
580 172 _l
476 172 _l
476 0 _l
378 0 _l
378 172 _l
49 172 _l
49 267 _l
352 729 _l
_cl}_d
/five{{636 0 77 -13 549 729 _sc
108 729 _m
495 729 _l
495 646 _l
198 646 _l
198 467 _l
212 472 227 476 241 478 _c
255 480 270 482 284 482 _c
365 482 429 459 477 415 _c
525 370 549 310 549 234 _c
549 155 524 94 475 51 _c
426 8 357 -13 269 -13 _c
238 -13 207 -10 175 -6 _c
143 -1 111 6 77 17 _c
77 116 _l
106 100 136 88 168 80 _c
199 72 232 69 267 69 _c
}_e{323 69 368 83 401 113 _c
433 143 450 183 450 234 _c
450 284 433 324 401 354 _c
368 384 323 399 267 399 _c
241 399 214 396 188 390 _c
162 384 135 375 108 363 _c
108 729 _l
_cl}_e}_d
/six{{636 0 70 -13 573 742 _sc
330 404 _m
286 404 251 388 225 358 _c
199 328 186 286 186 234 _c
186 181 199 139 225 109 _c
251 79 286 64 330 64 _c
374 64 409 79 435 109 _c
461 139 474 181 474 234 _c
474 286 461 328 435 358 _c
409 388 374 404 330 404 _c
526 713 _m
526 623 _l
501 635 476 644 451 650 _c
425 656 400 659 376 659 _c
310 659 260 637 226 593 _c
}_e{192 549 172 482 168 394 _c
187 422 211 444 240 459 _c
269 474 301 482 336 482 _c
409 482 467 459 509 415 _c
551 371 573 310 573 234 _c
573 159 550 99 506 54 _c
462 9 403 -13 330 -13 _c
246 -13 181 19 137 83 _c
92 147 70 241 70 364 _c
70 479 97 571 152 639 _c
206 707 280 742 372 742 _c
396 742 421 739 447 735 _c
472 730 498 723 526 713 _c
_cl}_e}_d
/eight{{636 0 68 -13 568 742 _sc
318 346 _m
271 346 234 333 207 308 _c
180 283 167 249 167 205 _c
167 161 180 126 207 101 _c
234 76 271 64 318 64 _c
364 64 401 76 428 102 _c
455 127 469 161 469 205 _c
469 249 455 283 429 308 _c
402 333 365 346 318 346 _c
219 388 _m
177 398 144 418 120 447 _c
96 476 85 511 85 553 _c
85 611 105 657 147 691 _c
188 725 245 742 318 742 _c
}_e{390 742 447 725 489 691 _c
530 657 551 611 551 553 _c
551 511 539 476 515 447 _c
491 418 459 398 417 388 _c
464 377 501 355 528 323 _c
554 291 568 251 568 205 _c
568 134 546 80 503 43 _c
459 5 398 -13 318 -13 _c
237 -13 175 5 132 43 _c
89 80 68 134 68 205 _c
68 251 81 291 108 323 _c
134 355 171 377 219 388 _c
183 544 _m
183 506 194 476 218 455 _c
}_e{242 434 275 424 318 424 _c
360 424 393 434 417 455 _c
441 476 453 506 453 544 _c
453 582 441 611 417 632 _c
393 653 360 664 318 664 _c
275 664 242 653 218 632 _c
194 611 183 582 183 544 _c
_cl}_e}_d
/C{{698 0 56 -13 644 742 _sc
644 673 _m
644 569 _l
610 599 575 622 537 638 _c
499 653 460 661 418 661 _c
334 661 270 635 226 584 _c
182 533 160 460 160 364 _c
160 268 182 194 226 143 _c
270 92 334 67 418 67 _c
460 67 499 74 537 90 _c
575 105 610 128 644 159 _c
644 56 _l
609 32 572 15 534 4 _c
496 -7 455 -13 412 -13 _c
302 -13 215 20 151 87 _c
}_e{87 154 56 246 56 364 _c
56 481 87 573 151 641 _c
215 708 302 742 412 742 _c
456 742 497 736 535 725 _c
573 713 610 696 644 673 _c
_cl}_e}_d
/D{770 0 98 0 711 729 _sc
197 648 _m
197 81 _l
316 81 _l
416 81 490 103 537 149 _c
583 195 607 267 607 365 _c
607 463 583 534 537 580 _c
490 625 416 648 316 648 _c
197 648 _l
98 729 _m
301 729 _l
442 729 546 699 612 641 _c
678 582 711 490 711 365 _c
711 239 677 147 611 88 _c
545 29 441 0 301 0 _c
98 0 _l
98 729 _l
_cl}_d
/M{863 0 98 0 765 729 _sc
98 729 _m
245 729 _l
431 233 _l
618 729 _l
765 729 _l
765 0 _l
669 0 _l
669 640 _l
481 140 _l
382 140 _l
194 640 _l
194 0 _l
98 0 _l
98 729 _l
_cl}_d
/P{603 0 98 0 569 729 _sc
197 648 _m
197 374 _l
321 374 _l
367 374 402 385 427 409 _c
452 433 465 467 465 511 _c
465 555 452 588 427 612 _c
402 636 367 648 321 648 _c
197 648 _l
98 729 _m
321 729 _l
402 729 464 710 506 673 _c
548 636 569 582 569 511 _c
569 439 548 384 506 348 _c
464 311 402 293 321 293 _c
197 293 _l
197 0 _l
98 0 _l
98 729 _l
_cl}_d
/W{989 0 33 0 956 729 _sc
33 729 _m
133 729 _l
286 113 _l
439 729 _l
550 729 _l
703 113 _l
856 729 _l
956 729 _l
773 0 _l
649 0 _l
495 633 _l
340 0 _l
216 0 _l
33 729 _l
_cl}_d
/bracketleft{390 0 86 -131 293 760 _sc
86 760 _m
293 760 _l
293 690 _l
176 690 _l
176 -61 _l
293 -61 _l
293 -131 _l
86 -131 _l
86 760 _l
_cl}_d
/bracketright{390 0 97 -131 304 760 _sc
304 760 _m
304 -131 _l
97 -131 _l
97 -61 _l
214 -61 _l
214 690 _l
97 690 _l
97 760 _l
304 760 _l
_cl}_d
/c{{550 0 55 -13 488 560 _sc
488 526 _m
488 442 _l
462 456 437 466 411 473 _c
385 480 360 484 334 484 _c
276 484 230 465 198 428 _c
166 391 150 339 150 273 _c
150 206 166 154 198 117 _c
230 80 276 62 334 62 _c
360 62 385 65 411 72 _c
437 79 462 90 488 104 _c
488 21 _l
462 9 436 0 410 -5 _c
383 -10 354 -13 324 -13 _c
242 -13 176 12 128 64 _c
}_e{79 115 55 185 55 273 _c
55 362 79 432 128 483 _c
177 534 244 560 330 560 _c
358 560 385 557 411 551 _c
437 545 463 537 488 526 _c
_cl}_e}_d
/e{{615 0 55 -13 562 560 _sc
562 296 _m
562 252 _l
149 252 _l
153 190 171 142 205 110 _c
238 78 284 62 344 62 _c
378 62 412 66 444 74 _c
476 82 509 95 541 113 _c
541 28 _l
509 14 476 3 442 -3 _c
408 -9 373 -13 339 -13 _c
251 -13 182 12 131 62 _c
80 112 55 181 55 268 _c
55 357 79 428 127 481 _c
175 533 241 560 323 560 _c
397 560 455 536 498 489 _c
}_e{540 441 562 377 562 296 _c
472 322 _m
471 371 457 410 431 440 _c
404 469 368 484 324 484 _c
274 484 234 469 204 441 _c
174 413 156 373 152 322 _c
472 322 _l
_cl}_e}_d
/l{278 0 94 0 184 760 _sc
94 760 _m
184 760 _l
184 0 _l
94 0 _l
94 760 _l
_cl}_d
/m{{974 0 91 0 889 560 _sc
520 442 _m
542 482 569 511 600 531 _c
631 550 668 560 711 560 _c
767 560 811 540 842 500 _c
873 460 889 403 889 330 _c
889 0 _l
799 0 _l
799 327 _l
799 379 789 418 771 444 _c
752 469 724 482 686 482 _c
639 482 602 466 575 435 _c
548 404 535 362 535 309 _c
535 0 _l
445 0 _l
445 327 _l
445 379 435 418 417 444 _c
398 469 369 482 331 482 _c
}_e{285 482 248 466 221 435 _c
194 404 181 362 181 309 _c
181 0 _l
91 0 _l
91 547 _l
181 547 _l
181 462 _l
201 495 226 520 255 536 _c
283 552 317 560 357 560 _c
397 560 430 550 458 530 _c
486 510 506 480 520 442 _c
_cl}_e}_d
/o{612 0 55 -13 557 560 _sc
306 484 _m
258 484 220 465 192 427 _c
164 389 150 338 150 273 _c
150 207 163 156 191 118 _c
219 80 257 62 306 62 _c
354 62 392 80 420 118 _c
448 156 462 207 462 273 _c
462 337 448 389 420 427 _c
392 465 354 484 306 484 _c
306 560 _m
384 560 445 534 490 484 _c
534 433 557 363 557 273 _c
557 183 534 113 490 63 _c
445 12 384 -13 306 -13 _c
227 -13 165 12 121 63 _c
77 113 55 183 55 273 _c
55 363 77 433 121 484 _c
165 534 227 560 306 560 _c
_cl}_d
/p{{635 0 91 -207 580 560 _sc
181 82 _m
181 -207 _l
91 -207 _l
91 547 _l
181 547 _l
181 464 _l
199 496 223 520 252 536 _c
281 552 316 560 356 560 _c
422 560 476 533 518 481 _c
559 428 580 359 580 273 _c
580 187 559 117 518 65 _c
476 13 422 -13 356 -13 _c
316 -13 281 -5 252 10 _c
223 25 199 49 181 82 _c
487 273 _m
487 339 473 390 446 428 _c
418 466 381 485 334 485 _c
}_e{286 485 249 466 222 428 _c
194 390 181 339 181 273 _c
181 207 194 155 222 117 _c
249 79 286 61 334 61 _c
381 61 418 79 446 117 _c
473 155 487 207 487 273 _c
_cl}_e}_d
/s{{521 0 54 -13 472 560 _sc
443 531 _m
443 446 _l
417 458 391 468 364 475 _c
336 481 308 485 279 485 _c
234 485 200 478 178 464 _c
156 450 145 430 145 403 _c
145 382 153 366 169 354 _c
185 342 217 330 265 320 _c
296 313 _l
360 299 405 279 432 255 _c
458 230 472 195 472 151 _c
472 100 452 60 412 31 _c
372 1 316 -13 246 -13 _c
216 -13 186 -10 154 -5 _c
}_e{122 0 89 8 54 20 _c
54 113 _l
87 95 120 82 152 74 _c
184 65 216 61 248 61 _c
290 61 323 68 346 82 _c
368 96 380 117 380 144 _c
380 168 371 187 355 200 _c
339 213 303 226 247 238 _c
216 245 _l
160 257 119 275 95 299 _c
70 323 58 356 58 399 _c
58 450 76 490 112 518 _c
148 546 200 560 268 560 _c
301 560 332 557 362 552 _c
391 547 418 540 443 531 _c
}_e{_cl}_e}_d
/t{392 0 27 0 368 702 _sc
183 702 _m
183 547 _l
368 547 _l
368 477 _l
183 477 _l
183 180 _l
183 135 189 106 201 94 _c
213 81 238 75 276 75 _c
368 75 _l
368 0 _l
276 0 _l
206 0 158 13 132 39 _c
106 65 93 112 93 180 _c
93 477 _l
27 477 _l
27 547 _l
93 547 _l
93 702 _l
183 702 _l
_cl}_d
/u{634 0 85 -13 543 560 _sc
85 216 _m
85 547 _l
175 547 _l
175 219 _l
175 167 185 129 205 103 _c
225 77 255 64 296 64 _c
344 64 383 79 411 110 _c
439 141 453 183 453 237 _c
453 547 _l
543 547 _l
543 0 _l
453 0 _l
453 84 _l
431 50 405 26 377 10 _c
348 -5 315 -13 277 -13 _c
214 -13 166 6 134 45 _c
101 83 85 140 85 216 _c
311 560 _m
311 560 _l
_cl}_d
/y{592 0 30 -207 562 547 _sc
322 -50 _m
296 -114 271 -157 247 -177 _c
223 -197 191 -207 151 -207 _c
79 -207 _l
79 -132 _l
132 -132 _l
156 -132 175 -126 189 -114 _c
203 -102 218 -75 235 -31 _c
251 9 _l
30 547 _l
125 547 _l
296 119 _l
467 547 _l
562 547 _l
322 -50 _l
_cl}_d
end readonly def

/BuildGlyph
 {exch begin
 CharStrings exch
 2 copy known not{pop /.notdef}if
 true 3 1 roll get exec
 end}_d

/BuildChar {
 1 index /Encoding get exch get
 1 index /BuildGlyph get exec
}_d

FontName currentdict end definefont pop
end
%%EndProlog
mpldict begin
-150.48 -69.12 translate
912.96 930.24 0 0 clipbox
gsave
0 0 m
912.96 0 l
912.96 930.24 l
0 930.24 l
cl
1.000 setgray
fill
grestore
gsave
114.12 493.0272 m
821.664 493.0272 l
821.664 818.6112 l
114.12 818.6112 l
cl
1.000 setgray
fill
grestore
0.800 setlinewidth
1 setlinejoin
0 setlinecap
[2.96 1.28] 0 setdash
0.690 setgray
gsave
707.5 325.6 114.1 493 clipbox
146.083305 493.0272 m
146.083305 818.6112 l
stroke
grestore
[] 0 setdash
0.000 setgray
gsave
/o {
gsave
newpath
translate
0.8 setlinewidth
1 setlinejoin
0 setlinecap
0 0 m
0 -3.5 l

gsave
0.000 setgray
fill
grestore
stroke
grestore
} bind def
146.083 493.027 o
grestore
/DejaVuSans findfont
10.000 scalefont
setfont
gsave
127.005180 478.433450 translate
0.000000 rotate
0.000000 0.000000 m /five glyphshow
6.362305 0.000000 m /two glyphshow
12.724609 0.000000 m /five glyphshow
19.086914 0.000000 m /zero glyphshow
25.449219 0.000000 m /zero glyphshow
31.811523 0.000000 m /zero glyphshow
grestore
[2.96 1.28] 0 setdash
0.690 setgray
gsave
707.5 325.6 114.1 493 clipbox
255.964377 493.0272 m
255.964377 818.6112 l
stroke
grestore
[] 0 setdash
0.000 setgray
gsave
/o {
gsave
newpath
translate
0.8 setlinewidth
1 setlinejoin
0 setlinecap
0 0 m
0 -3.5 l

gsave
0.000 setgray
fill
grestore
stroke
grestore
} bind def
255.964 493.027 o
grestore
gsave
236.886252 478.433450 translate
0.000000 rotate
0.000000 0.000000 m /five glyphshow
6.362305 0.000000 m /three glyphshow
12.724609 0.000000 m /zero glyphshow
19.086914 0.000000 m /zero glyphshow
25.449219 0.000000 m /zero glyphshow
31.811523 0.000000 m /zero glyphshow
grestore
[2.96 1.28] 0 setdash
0.690 setgray
gsave
707.5 325.6 114.1 493 clipbox
365.845449 493.0272 m
365.845449 818.6112 l
stroke
grestore
[] 0 setdash
0.000 setgray
gsave
/o {
gsave
newpath
translate
0.8 setlinewidth
1 setlinejoin
0 setlinecap
0 0 m
0 -3.5 l

gsave
0.000 setgray
fill
grestore
stroke
grestore
} bind def
365.845 493.027 o
grestore
gsave
346.767324 478.433450 translate
0.000000 rotate
0.000000 0.000000 m /five glyphshow
6.362305 0.000000 m /three glyphshow
12.724609 0.000000 m /five glyphshow
19.086914 0.000000 m /zero glyphshow
25.449219 0.000000 m /zero glyphshow
31.811523 0.000000 m /zero glyphshow
grestore
[2.96 1.28] 0 setdash
0.690 setgray
gsave
707.5 325.6 114.1 493 clipbox
475.72652 493.0272 m
475.72652 818.6112 l
stroke
grestore
[] 0 setdash
0.000 setgray
gsave
/o {
gsave
newpath
translate
0.8 setlinewidth
1 setlinejoin
0 setlinecap
0 0 m
0 -3.5 l

gsave
0.000 setgray
fill
grestore
stroke
grestore
} bind def
475.727 493.027 o
grestore
gsave
456.648395 478.433450 translate
0.000000 rotate
0.000000 0.000000 m /five glyphshow
6.362305 0.000000 m /four glyphshow
12.724609 0.000000 m /zero glyphshow
19.086914 0.000000 m /zero glyphshow
25.449219 0.000000 m /zero glyphshow
31.811523 0.000000 m /zero glyphshow
grestore
[2.96 1.28] 0 setdash
0.690 setgray
gsave
707.5 325.6 114.1 493 clipbox
585.607592 493.0272 m
585.607592 818.6112 l
stroke
grestore
[] 0 setdash
0.000 setgray
gsave
/o {
gsave
newpath
translate
0.8 setlinewidth
1 setlinejoin
0 setlinecap
0 0 m
0 -3.5 l

gsave
0.000 setgray
fill
grestore
stroke
grestore
} bind def
585.608 493.027 o
grestore
gsave
566.529467 478.433450 translate
0.000000 rotate
0.000000 0.000000 m /five glyphshow
6.362305 0.000000 m /four glyphshow
12.724609 0.000000 m /five glyphshow
19.086914 0.000000 m /zero glyphshow
25.449219 0.000000 m /zero glyphshow
31.811523 0.000000 m /zero glyphshow
grestore
[2.96 1.28] 0 setdash
0.690 setgray
gsave
707.5 325.6 114.1 493 clipbox
695.488664 493.0272 m
695.488664 818.6112 l
stroke
grestore
[] 0 setdash
0.000 setgray
gsave
/o {
gsave
newpath
translate
0.8 setlinewidth
1 setlinejoin
0 setlinecap
0 0 m
0 -3.5 l

gsave
0.000 setgray
fill
grestore
stroke
grestore
} bind def
695.489 493.027 o
grestore
gsave
676.410539 478.433450 translate
0.000000 rotate
0.000000 0.000000 m /five glyphshow
6.362305 0.000000 m /five glyphshow
12.724609 0.000000 m /zero glyphshow
19.086914 0.000000 m /zero glyphshow
25.449219 0.000000 m /zero glyphshow
31.811523 0.000000 m /zero glyphshow
grestore
[2.96 1.28] 0 setdash
0.690 setgray
gsave
707.5 325.6 114.1 493 clipbox
805.369736 493.0272 m
805.369736 818.6112 l
stroke
grestore
[] 0 setdash
0.000 setgray
gsave
/o {
gsave
newpath
translate
0.8 setlinewidth
1 setlinejoin
0 setlinecap
0 0 m
0 -3.5 l

gsave
0.000 setgray
fill
grestore
stroke
grestore
} bind def
805.37 493.027 o
grestore
gsave
786.291611 478.433450 translate
0.000000 rotate
0.000000 0.000000 m /five glyphshow
6.362305 0.000000 m /five glyphshow
12.724609 0.000000 m /five glyphshow
19.086914 0.000000 m /zero glyphshow
25.449219 0.000000 m /zero glyphshow
31.811523 0.000000 m /zero glyphshow
grestore
gsave
452.946688 464.761575 translate
0.000000 rotate
0.000000 0.000000 m /t glyphshow
3.920898 0.000000 m /space glyphshow
7.099609 0.000000 m /bracketleft glyphshow
11.000977 0.000000 m /m glyphshow
20.742188 0.000000 m /s glyphshow
25.952148 0.000000 m /bracketright glyphshow
grestore
[2.96 1.28] 0 setdash
0.690 setgray
gsave
707.5 325.6 114.1 493 clipbox
114.12 507.654478 m
821.664 507.654478 l
stroke
grestore
[] 0 setdash
0.000 setgray
gsave
/o {
gsave
newpath
translate
0.8 setlinewidth
1 setlinejoin
0 setlinecap
0 0 m
-3.5 0 l

gsave
0.000 setgray
fill
grestore
stroke
grestore
} bind def
114.12 507.654 o
grestore
gsave
100.760625 503.857603 translate
0.000000 rotate
0.000000 0.000000 m /zero glyphshow
grestore
[2.96 1.28] 0 setdash
0.690 setgray
gsave
707.5 325.6 114.1 493 clipbox
114.12 550.227367 m
821.664 550.227367 l
stroke
grestore
[] 0 setdash
0.000 setgray
gsave
/o {
gsave
newpath
translate
0.8 setlinewidth
1 setlinejoin
0 setlinecap
0 0 m
-3.5 0 l

gsave
0.000 setgray
fill
grestore
stroke
grestore
} bind def
114.12 550.227 o
grestore
gsave
75.323125 546.430492 translate
0.000000 rotate
0.000000 0.000000 m /five glyphshow
6.362305 0.000000 m /zero glyphshow
12.724609 0.000000 m /zero glyphshow
19.086914 0.000000 m /zero glyphshow
25.449219 0.000000 m /zero glyphshow
grestore
[2.96 1.28] 0 setdash
0.690 setgray
gsave
707.5 325.6 114.1 493 clipbox
114.12 592.800256 m
821.664 592.800256 l
stroke
grestore
[] 0 setdash
0.000 setgray
gsave
/o {
gsave
newpath
translate
0.8 setlinewidth
1 setlinejoin
0 setlinecap
0 0 m
-3.5 0 l

gsave
0.000 setgray
fill
grestore
stroke
grestore
} bind def
114.12 592.8 o
grestore
gsave
68.963750 589.003381 translate
0.000000 rotate
0.000000 0.000000 m /one glyphshow
6.362305 0.000000 m /zero glyphshow
12.724609 0.000000 m /zero glyphshow
19.086914 0.000000 m /zero glyphshow
25.449219 0.000000 m /zero glyphshow
31.811523 0.000000 m /zero glyphshow
grestore
[2.96 1.28] 0 setdash
0.690 setgray
gsave
707.5 325.6 114.1 493 clipbox
114.12 635.373144 m
821.664 635.373144 l
stroke
grestore
[] 0 setdash
0.000 setgray
gsave
/o {
gsave
newpath
translate
0.8 setlinewidth
1 setlinejoin
0 setlinecap
0 0 m
-3.5 0 l

gsave
0.000 setgray
fill
grestore
stroke
grestore
} bind def
114.12 635.373 o
grestore
gsave
68.963750 631.576269 translate
0.000000 rotate
0.000000 0.000000 m /one glyphshow
6.362305 0.000000 m /five glyphshow
12.724609 0.000000 m /zero glyphshow
19.086914 0.000000 m /zero glyphshow
25.449219 0.000000 m /zero glyphshow
31.811523 0.000000 m /zero glyphshow
grestore
[2.96 1.28] 0 setdash
0.690 setgray
gsave
707.5 325.6 114.1 493 clipbox
114.12 677.946033 m
821.664 677.946033 l
stroke
grestore
[] 0 setdash
0.000 setgray
gsave
/o {
gsave
newpath
translate
0.8 setlinewidth
1 setlinejoin
0 setlinecap
0 0 m
-3.5 0 l

gsave
0.000 setgray
fill
grestore
stroke
grestore
} bind def
114.12 677.946 o
grestore
gsave
68.963750 674.149158 translate
0.000000 rotate
0.000000 0.000000 m /two glyphshow
6.362305 0.000000 m /zero glyphshow
12.724609 0.000000 m /zero glyphshow
19.086914 0.000000 m /zero glyphshow
25.449219 0.000000 m /zero glyphshow
31.811523 0.000000 m /zero glyphshow
grestore
[2.96 1.28] 0 setdash
0.690 setgray
gsave
707.5 325.6 114.1 493 clipbox
114.12 720.518922 m
821.664 720.518922 l
stroke
grestore
[] 0 setdash
0.000 setgray
gsave
/o {
gsave
newpath
translate
0.8 setlinewidth
1 setlinejoin
0 setlinecap
0 0 m
-3.5 0 l

gsave
0.000 setgray
fill
grestore
stroke
grestore
} bind def
114.12 720.519 o
grestore
gsave
68.963750 716.722047 translate
0.000000 rotate
0.000000 0.000000 m /two glyphshow
6.362305 0.000000 m /five glyphshow
12.724609 0.000000 m /zero glyphshow
19.086914 0.000000 m /zero glyphshow
25.449219 0.000000 m /zero glyphshow
31.811523 0.000000 m /zero glyphshow
grestore
[2.96 1.28] 0 setdash
0.690 setgray
gsave
707.5 325.6 114.1 493 clipbox
114.12 763.091811 m
821.664 763.091811 l
stroke
grestore
[] 0 setdash
0.000 setgray
gsave
/o {
gsave
newpath
translate
0.8 setlinewidth
1 setlinejoin
0 setlinecap
0 0 m
-3.5 0 l

gsave
0.000 setgray
fill
grestore
stroke
grestore
} bind def
114.12 763.092 o
grestore
gsave
68.963750 759.294936 translate
0.000000 rotate
0.000000 0.000000 m /three glyphshow
6.362305 0.000000 m /zero glyphshow
12.724609 0.000000 m /zero glyphshow
19.086914 0.000000 m /zero glyphshow
25.449219 0.000000 m /zero glyphshow
31.811523 0.000000 m /zero glyphshow
grestore
[2.96 1.28] 0 setdash
0.690 setgray
gsave
707.5 325.6 114.1 493 clipbox
114.12 805.664699 m
821.664 805.664699 l
stroke
grestore
[] 0 setdash
0.000 setgray
gsave
/o {
gsave
newpath
translate
0.8 setlinewidth
1 setlinejoin
0 setlinecap
0 0 m
-3.5 0 l

gsave
0.000 setgray
fill
grestore
stroke
grestore
} bind def
114.12 805.665 o
grestore
gsave
68.963750 801.867824 translate
0.000000 rotate
0.000000 0.000000 m /three glyphshow
6.362305 0.000000 m /five glyphshow
12.724609 0.000000 m /zero glyphshow
19.086914 0.000000 m /zero glyphshow
25.449219 0.000000 m /zero glyphshow
31.811523 0.000000 m /zero glyphshow
grestore
gsave
62.885625 639.319200 translate
90.000000 rotate
0.000000 0.000000 m /o glyphshow
6.118164 0.000000 m /u glyphshow
12.456055 0.000000 m /t glyphshow
16.376953 0.000000 m /p glyphshow
22.724609 0.000000 m /u glyphshow
29.062500 0.000000 m /t glyphshow
grestore
1.500 setlinewidth
2 setlinecap
0.102 setgray
gsave
707.5 325.6 114.1 493 clipbox
146.281091 512.803243 m
146.830496 512.856034 l
147.379902 512.750453 l
147.643616 512.724058 l
148.193022 512.875617 l
148.742427 512.802392 l
152.060835 512.805798 l
152.610241 512.73087 l
153.709051 512.868806 l
154.258457 512.804095 l
154.807862 512.896052 l
155.357267 512.994821 l
155.906673 512.800689 l
156.170387 512.888389 l
158.6537 512.763225 l
161.400726 512.846668 l
161.950132 512.715543 l
162.499537 512.882429 l
163.334633 512.832193 l
164.169729 512.938625 l
164.719135 512.819421 l
166.08166 512.78962 l
166.631065 512.867954 l
166.916756 512.805798 l
168.015567 512.933516 l
168.279281 512.890092 l
168.828687 513.050166 l
169.114378 512.936922 l
170.213188 512.950546 l
170.762594 512.952249 l
171.048284 513.041652 l
171.311999 512.984604 l
171.861404 513.091888 l
172.41081 512.981198 l
173.245906 513.079116 l
174.059026 513.035691 l
174.344717 513.102957 l
175.179813 512.981198 l
176.828029 512.902864 l
177.091743 512.844113 l
177.641149 513.045057 l
178.190554 512.913933 l
178.476245 513.107214 l
179.289365 513.016108 l
179.83877 512.878172 l
180.410152 513.084224 l
180.673866 512.996524 l
181.223272 513.052721 l
182.058368 512.999079 l
182.322082 513.107214 l
183.420893 512.979495 l
183.970299 512.955654 l
184.805395 512.954803 l
185.3548 513.004187 l
192.782761 512.998227 l
193.332166 513.078264 l
193.881571 512.972684 l
195.266073 513.045057 l
196.364883 513.119986 l
196.914289 512.971832 l
197.463694 513.012702 l
198.848196 512.970981 l
199.947006 513.112323 l
200.210721 512.970129 l
201.858937 512.927556 l
202.408342 512.856034 l
202.694033 513.011851 l
204.342249 512.890944 l
205.177345 512.958209 l
205.44106 513.033988 l
205.990465 512.91819 l
207.089276 512.974386 l
207.374967 512.910527 l
207.924372 512.942882 l
208.188087 512.856885 l
209.023183 512.92415 l
210.95709 512.974386 l
211.77021 512.884983 l
212.605306 512.853479 l
214.802927 512.889241 l
215.066642 512.976941 l
216.714858 512.81857 l
217.000549 512.890944 l
217.549954 512.892646 l
219.19817 512.913081 l
219.747576 512.909676 l
220.296981 512.904567 l
223.329698 512.869657 l
223.879104 513.002485 l
224.977915 512.847519 l
225.52732 512.929259 l
225.813011 512.880726 l
226.076725 513.012702 l
226.626131 512.922448 l
227.461227 512.90627 l
227.724941 512.94118 l
228.010632 512.812609 l
228.560037 512.979495 l
230.208254 512.911379 l
230.757659 512.970981 l
231.04335 512.839005 l
233.240971 513.114877 l
233.504686 514.48317 l
233.790377 517.726372 l
234.054091 522.464735 l
235.152902 548.183868 l
235.438593 548.167691 l
235.987998 547.18 l
237.372499 545.912179 l
237.636214 545.90111 l
238.735025 545.366395 l
239.020716 545.411522 l
239.28443 545.228458 l
239.570121 545.168005 l
239.833835 544.97813 l
240.668932 544.907459 l
241.504028 544.514937 l
242.053433 544.465552 l
242.602838 544.421276 l
243.152244 544.208412 l
243.415958 544.214372 l
243.965364 544.06111 l
244.251055 544.061961 l
244.514769 543.918065 l
245.899271 543.792901 l
246.448676 543.753734 l
249.195703 543.493187 l
250.580204 543.296501 l
251.12961 543.32545 l
252.514111 543.006154 l
253.063516 543.018074 l
254.426042 542.984867 l
255.261138 542.868217 l
255.524853 542.829902 l
255.810543 542.922711 l
257.458759 542.76434 l
257.74445 542.802655 l
258.293856 542.690263 l
258.55757 542.868217 l
259.106975 542.738796 l
259.392666 542.766894 l
259.942072 542.657907 l
260.205786 542.709846 l
260.755192 542.605968 l
265.985531 542.242396 l
266.271221 541.757917 l
266.820627 537.953603 l
267.084341 537.736481 l
267.370032 537.807152 l
267.919437 537.730521 l
269.303939 537.716046 l
269.567653 537.616426 l
271.21587 537.781609 l
272.864086 537.689651 l
274.248587 537.785866 l
276.446209 537.552567 l
276.731899 537.699869 l
277.545019 537.489559 l
278.64383 537.612169 l
278.929521 537.561933 l
279.193235 537.39079 l
280.028332 537.623238 l
281.676548 537.493816 l
283.061049 537.421442 l
283.610454 537.482747 l
284.15986 537.545755 l
284.423574 537.544903 l
284.709265 537.424848 l
284.97298 537.475084 l
285.808076 537.411225 l
286.07179 537.527874 l
287.741983 537.337148 l
288.005697 537.435065 l
289.104508 537.336296 l
289.390199 537.415482 l
289.653913 537.293723 l
291.038415 537.374612 l
291.58782 537.337148 l
291.851535 537.407819 l
292.40094 537.237527 l
292.686631 537.309901 l
292.950346 537.215389 l
294.071132 537.303941 l
294.884252 537.253705 l
295.433658 537.154936 l
296.268754 537.183034 l
296.818159 537.14557 l
297.367565 537.246042 l
298.180685 537.234973 l
298.466375 537.329485 l
299.015781 537.305644 l
299.279495 539.857463 l
299.565186 548.813947 l
300.114591 571.106815 l
300.400282 576.32029 l
300.663997 576.958032 l
301.499093 575.627204 l
302.597904 574.603752 l
303.960429 573.950684 l
304.24612 573.738671 l
305.05924 573.543687 l
305.34493 573.340188 l
305.894336 573.290804 l
306.443741 573.110295 l
306.993147 572.974061 l
308.927053 572.516829 l
310.025864 572.310776 l
310.289579 572.189017 l
310.838984 572.160068 l
311.410366 572.09706 l
311.67408 572.130267 l
312.223486 571.932729 l
312.772891 571.896967 l
313.322296 572.017874 l
313.871702 571.696023 l
315.805609 571.570859 l
316.355014 571.342668 l
316.640705 571.416745 l
318.00323 571.252414 l
318.552635 571.266037 l
319.651446 571.0106 l
320.486542 571.02848 l
320.750257 570.927157 l
321.585353 570.96377 l
322.420449 570.801141 l
323.233569 570.781558 l
323.782974 570.653839 l
324.068665 570.782409 l
324.881785 570.64873 l
325.43119 570.563584 l
326.266287 570.557624 l
326.815692 570.458855 l
327.101383 570.384778 l
327.650788 570.427351 l
328.200193 570.415431 l
329.013313 570.27494 l
329.299004 570.384778 l
330.397815 570.214487 l
330.661529 570.305593 l
331.76034 570.147222 l
332.046031 569.967564 l
332.331722 567.836365 l
332.881127 555.362509 l
333.144842 549.461055 l
333.430532 548.423128 l
333.979938 548.654724 l
334.793058 548.900796 l
336.441274 549.1954 l
337.27637 549.226904 l
338.08949 549.202212 l
338.375181 549.448283 l
340.309088 549.389533 l
340.858493 549.403156 l
341.671613 549.468718 l
355.978128 549.543646 l
356.527534 549.482341 l
357.36263 549.527469 l
357.626344 549.490856 l
357.912035 549.576853 l
358.461441 549.450837 l
359.010846 549.566636 l
359.296537 549.439769 l
359.845942 549.485747 l
360.659062 549.539389 l
361.494158 549.596437 l
363.69178 549.555567 l
363.955494 549.658593 l
364.5049 549.490005 l
364.79059 549.468718 l
365.076281 550.164359 l
365.339996 557.377058 l
366.175092 612.080666 l
366.438806 615.059916 l
366.724497 614.767866 l
368.087022 612.680943 l
369.185833 611.596186 l
372.218551 610.100175 l
374.701863 609.281924 l
375.800674 609.137176 l
376.086364 608.928569 l
376.899484 608.697824 l
377.44889 608.595649 l
377.998295 608.689309 l
378.547701 608.289124 l
379.932202 607.949392 l
380.195917 608.113724 l
380.481607 608.116278 l
381.031013 607.888087 l
381.580418 607.818268 l
381.866109 607.640313 l
382.129823 607.717796 l
382.679229 607.617324 l
382.96492 607.735677 l
383.514325 607.53303 l
384.327445 607.481091 l
384.87685 607.234168 l
385.426256 607.193298 l
385.997637 607.239277 l
386.547043 607.150725 l
387.360162 607.085163 l
389.294069 606.76246 l
390.107189 606.637296 l
390.39288 606.568328 l
390.942285 606.595575 l
391.777382 606.407402 l
392.590501 606.415066 l
392.876192 606.313742 l
393.425598 606.509577 l
394.238718 606.159628 l
394.524408 606.267763 l
395.073814 606.155371 l
396.172624 605.991891 l
396.458315 606.108541 l
397.820841 605.811382 l
398.106531 605.168531 l
398.370246 599.798387 l
399.469057 541.107403 l
399.754747 539.565413 l
400.304153 540.578647 l
401.117273 541.500776 l
401.666678 541.89415 l
402.216083 542.037195 l
404.14999 542.802655 l
404.985086 542.932928 l
405.248801 543.139832 l
407.446422 543.473604 l
409.929735 543.767357 l
410.215425 543.911253 l
411.028545 543.849097 l
411.577951 543.964895 l
422.302343 544.663942 l
422.588034 544.506422 l
423.686845 544.726098 l
424.23625 544.65117 l
425.071346 544.623072 l
425.335061 544.577945 l
426.170157 544.732059 l
426.983277 544.717584 l
427.532682 544.780592 l
430.015995 544.772928 l
430.851091 544.993456 l
431.114805 548.532966 l
431.400496 569.627832 l
431.949901 640.515098 l
432.213616 658.289279 l
432.499307 661.789622 l
433.048712 659.698442 l
433.312427 659.079432 l
433.861832 657.436118 l
434.147523 657.207076 l
434.696928 656.55486 l
434.982619 656.390528 l
435.532024 654.975405 l
436.08143 654.72678 l
436.630835 654.798302 l
437.18024 653.749306 l
437.729646 653.957062 l
438.542766 653.091129 l
438.828457 652.676469 l
439.377862 652.841652 l
439.663553 652.462753 l
439.927267 652.550454 l
440.476673 652.514692 l
440.762363 652.786307 l
441.026078 652.768427 l
441.311769 652.483188 l
441.575483 651.813091 l
441.861174 651.4972 l
442.124889 651.382254 l
442.410579 651.486983 l
442.674294 651.28689 l
443.223699 651.135331 l
443.50939 650.974405 l
443.795081 650.602318 l
444.344486 651.053591 l
444.608201 650.962485 l
444.893892 650.576774 l
445.707012 650.240449 l
445.992702 650.455867 l
446.256417 650.506103 l
446.805822 650.192767 l
447.091513 650.532499 l
448.190324 649.629953 l
448.454038 649.274896 l
449.02542 649.680189 l
449.289135 649.519264 l
449.83854 648.739329 l
450.124231 649.27149 l
450.673636 649.45881 l
450.937351 648.957302 l
451.486756 648.945381 l
452.036161 648.385122 l
452.321852 648.692498 l
452.871257 648.815108 l
453.134972 648.703567 l
453.420663 648.724854 l
454.255759 648.492406 l
454.805164 648.941976 l
455.068879 648.474525 l
455.618284 648.035173 l
456.16769 648.263364 l
456.45338 648.037727 l
457.002786 647.89298 l
457.552191 647.666492 l
457.815906 647.841041 l
458.101597 647.722688 l
458.387287 647.36763 l
458.651002 647.666492 l
458.936693 647.532813 l
459.486098 648.018144 l
460.035503 647.720134 l
460.584909 647.141142 l
460.848623 647.45533 l
461.134314 647.56006 l
461.683719 647.350601 l
461.947434 647.363373 l
462.233125 647.020235 l
462.496839 647.317394 l
462.78253 647.35571 l
463.068221 646.680504 l
463.331936 646.645594 l
463.881341 646.981068 l
464.167032 641.992377 l
464.430746 616.929718 l
464.980152 544.600083 l
465.265842 529.439877 l
465.529557 525.840765 l
465.815248 525.599802 l
466.364653 525.911436 l
466.914058 526.049372 l
467.463464 526.326947 l
468.562275 526.555138 l
468.847965 526.549178 l
469.661085 526.786734 l
470.759896 526.805467 l
471.045587 526.966392 l
471.309301 526.977461 l
471.858707 527.18692 l
472.408112 527.234601 l
473.506923 527.457683 l
474.056328 527.430437 l
475.44083 527.696943 l
480.385478 528.146513 l
481.220574 528.256351 l
481.484289 528.340645 l
482.05567 528.318507 l
482.605076 528.337239 l
482.86879 528.445374 l
483.418195 528.324467 l
483.967601 528.469215 l
484.517006 528.423236 l
486.714628 528.608854 l
487.264033 528.557767 l
487.813438 528.668456 l
488.934225 528.595231 l
489.747345 528.803838 l
490.296751 528.716989 l
490.846156 528.790215 l
491.681252 528.712732 l
491.944967 528.858331 l
493.043777 528.887281 l
493.593183 528.909419 l
494.428279 528.864291 l
495.263375 528.950289 l
495.52709 529.014148 l
495.81278 528.926448 l
496.6259 529.027771 l
496.911591 529.9499 l
497.175306 542.421202 l
497.460996 587.625947 l
498.010402 699.924713 l
498.274116 719.481846 l
498.559807 719.996978 l
498.823522 717.516682 l
499.372927 714.768176 l
499.658618 713.534414 l
500.208023 712.262336 l
501.043119 710.415524 l
501.592525 709.667944 l
502.14193 708.334561 l
502.405645 708.309869 l
502.691335 707.992275 l
503.240741 707.113571 l
503.504455 707.146778 l
503.790146 706.989258 l
504.339552 706.284251 l
504.888957 705.652469 l
505.174648 705.542631 l
505.724053 705.145852 l
505.987768 705.073478 l
506.273458 704.849544 l
506.822864 704.255227 l
507.086578 703.985315 l
508.207365 703.534042 l
508.47108 703.528082 l
509.020485 703.05978 l
509.306176 703.174727 l
509.569891 702.933765 l
510.119296 703.093839 l
511.218107 701.959697 l
511.503797 701.945222 l
512.053203 701.621668 l
512.602608 701.866888 l
512.888299 701.522048 l
513.152013 701.550146 l
513.437704 701.080992 l
513.701419 700.96264 l
513.98711 701.200196 l
514.536515 700.863019 l
514.80023 700.593107 l
515.08592 700.515624 l
515.349635 700.897929 l
515.635326 700.788091 l
515.89904 700.324046 l
516.184731 700.200585 l
516.470422 700.368322 l
516.734136 700.277216 l
517.283542 699.722066 l
517.569233 699.741649 l
518.118638 699.918753 l
518.668043 699.363602 l
519.217449 699.489618 l
519.766854 699.08773 l
520.030569 699.18735 l
521.151356 698.787165 l
521.41507 698.69095 l
521.700761 698.989812 l
522.513881 698.459354 l
523.063286 698.701168 l
523.612692 697.897392 l
523.898382 697.944222 l
524.162097 698.190293 l
524.447788 698.237123 l
524.997193 697.452079 l
525.282884 697.447822 l
525.546598 697.687082 l
525.832289 697.708368 l
526.096004 697.481029 l
526.645409 697.646212 l
527.194814 697.213671 l
527.480505 697.233255 l
527.74422 697.431644 l
528.029911 697.343944 l
528.315601 697.060409 l
528.579316 697.137891 l
528.865007 697.062112 l
529.128721 696.759844 l
529.414412 696.976966 l
529.678127 696.753033 l
529.963817 694.664407 l
530.227532 674.856944 l
531.062628 532.124523 l
531.326343 520.821421 l
531.612034 515.798672 l
531.875748 514.638135 l
532.425153 516.182679 l
532.974559 517.255516 l
534.35906 518.559098 l
536.007276 519.373092 l
536.292967 519.384161 l
536.842373 519.745179 l
537.655492 519.933351 l
538.204898 520.096831 l
539.039994 520.327576 l
539.589399 520.40591 l
540.973901 520.670713 l
541.237615 520.62218 l
541.787021 520.816313 l
545.918549 521.263328 l
546.182264 521.255665 l
546.753645 521.454906 l
547.01736 521.392749 l
547.852456 521.43958 l
550.050077 521.677988 l
550.863197 521.859348 l
552.247699 521.752916 l
552.511413 521.91895 l
553.34651 521.94194 l
553.895915 522.083282 l
554.44532 521.911287 l
555.280416 522.021125 l
556.093536 522.130963 l
556.642942 522.168427 l
557.192347 522.015165 l
558.027443 522.19312 l
559.939374 522.229732 l
560.77447 522.342976 l
562.422686 522.387252 l
562.708377 522.466438 l
562.972091 524.297923 l
563.257782 546.034789 l
564.070902 754.343082 l
564.356593 768.486647 l
565.191689 761.839316 l
565.741094 759.278131 l
566.2905 757.301046 l
566.839905 755.775234 l
568.20243 752.930514 l
568.488121 752.645275 l
569.037527 751.723998 l
569.323217 751.529014 l
570.136337 750.405941 l
570.422028 750.219472 l
571.235148 749.270097 l
571.520839 749.078519 l
571.784553 748.641721 l
572.070244 748.46036 l
572.333959 748.46632 l
572.61965 748.347968 l
573.169055 747.745136 l
573.71846 747.421582 l
574.267866 746.944765 l
575.102962 746.460286 l
575.652367 746.121406 l
577.014892 745.24185 l
577.586274 745.095399 l
577.849989 745.070707 l
578.685085 744.497676 l
578.948799 744.248199 l
579.783895 743.942525 l
580.04761 743.808846 l
580.333301 743.819915 l
581.146421 743.352465 l
581.717802 743.148115 l
581.981517 742.922479 l
582.816613 742.812641 l
583.366018 742.567421 l
583.629733 742.544432 l
583.915424 742.33923 l
584.464829 742.214917 l
585.277949 741.914353 l
586.398736 741.664024 l
586.948141 741.360905 l
587.211856 741.085884 l
587.761261 741.154001 l
588.046952 741.016916 l
588.310667 741.039906 l
588.596357 740.83811 l
588.860072 740.946245 l
589.980859 740.265079 l
590.530264 740.391095 l
591.07967 739.984098 l
591.629075 740.302543 l
592.17848 739.79848 l
592.442195 739.995167 l
592.727886 739.75761 l
592.9916 739.748244 l
593.826696 739.457897 l
594.112387 739.521757 l
594.376102 739.36594 l
594.925507 739.621377 l
595.474912 738.965755 l
595.760603 738.750336 l
596.024318 731.287308 l
596.310009 686.423147 l
596.859414 547.764951 l
597.123129 520.895498 l
597.408819 509.607722 l
597.672534 507.915876 l
597.958225 508.529777 l
598.50763 508.66601 l
598.771345 508.83545 l
599.342726 508.990416 l
599.892132 509.213497 l
600.705252 509.396561 l
601.254657 509.439134 l
602.089753 509.477449 l
602.639158 509.637523 l
603.188564 509.681799 l
604.287374 509.792489 l
605.100494 509.805261 l
605.935591 509.920207 l
606.484996 510.00365 l
607.034401 510.024085 l
609.232023 510.316987 l
609.781428 510.242058 l
610.616524 510.462586 l
611.16593 510.431934 l
611.715335 510.452369 l
612.26474 510.394469 l
613.099836 510.591156 l
613.649242 510.519634 l
613.912956 510.574978 l
614.198647 510.504307 l
614.748052 510.647352 l
615.011767 510.561355 l
616.396269 510.672896 l
616.659983 510.646501 l
616.945674 510.844891 l
618.59389 510.741013 l
619.143295 510.841485 l
619.978391 510.779328 l
620.527797 510.953026 l
621.077202 510.845742 l
621.890322 510.953877 l
622.439728 510.94366 l
623.274824 510.959837 l
624.373634 511.019439 l
624.92304 511.079041 l
625.472445 511.063715 l
626.571256 511.128426 l
628.505163 511.197394 l
628.768877 511.567778 l
629.054568 517.920505 l
629.318283 557.609506 l
630.153379 793.552713 l
630.417093 803.811927 l
631.252189 796.476619 l
631.801595 793.733222 l
632.636691 790.66031 l
633.999216 787.246816 l
635.933123 784.41061 l
637.031934 782.964835 l
637.581339 782.425011 l
638.416435 781.479041 l
640.899748 779.541975 l
641.163462 779.459383 l
641.998558 778.736496 l
642.262273 778.65731 l
643.646774 777.624492 l
644.19618 777.478041 l
646.393801 776.24513 l
646.965183 776.047592 l
647.514588 775.657624 l
648.877113 775.215718 l
649.162804 775.005408 l
649.975924 774.808721 l
650.525329 774.590748 l
651.096711 774.478355 l
651.646116 773.919799 l
652.459236 773.9496 l
654.393143 773.126241 l
654.942549 773.007036 l
655.491954 772.773737 l
655.777645 772.805241 l
656.32705 772.481687 l
657.689575 772.060215 l
658.788386 771.935903 l
659.909173 771.47271 l
660.172888 771.512728 l
661.557389 771.115097 l
661.821104 768.484944 l
662.106794 738.465097 l
662.6562 569.44562 l
662.919914 524.870954 l
663.205605 509.172627 l
663.46932 508.53148 l
663.755011 508.774145 l
664.040701 508.580864 l
664.304416 507.873303 l
664.853821 507.839245 l
665.688917 507.952488 l
667.886539 507.935459 l
668.150253 508.026565 l
669.798469 507.895441 l
670.347875 507.956746 l
670.633566 507.901401 l
671.468662 508.072544 l
672.018067 507.990804 l
672.281782 508.100642 l
673.666283 508.123631 l
675.028808 508.197708 l
675.578214 508.104048 l
676.41331 508.174719 l
676.677025 508.347565 l
678.061526 508.25135 l
678.896622 508.226658 l
679.160337 508.173016 l
679.995433 508.325427 l
681.357958 508.341605 l
682.456769 508.213886 l
683.006174 508.299032 l
683.291865 508.293072 l
683.55558 508.436968 l
683.84127 508.465066 l
684.104985 508.372257 l
684.940081 508.463363 l
685.489487 508.369703 l
686.038892 508.500827 l
686.588297 508.386732 l
687.687108 508.419087 l
689.071609 508.505085 l
689.621015 508.409721 l
690.719826 508.580013 l
691.269231 508.464215 l
692.653732 508.517856 l
693.203138 508.597893 l
694.301948 508.538291 l
694.851354 508.557023 l
695.115068 508.469323 l
695.950165 508.551915 l
696.49957 508.533183 l
696.763284 508.644724 l
697.048975 508.633655 l
697.31269 508.499976 l
698.433477 508.624289 l
699.796002 508.536589 l
700.345407 508.608111 l
701.180504 508.576607 l
702.279314 508.688999 l
702.543029 508.580864 l
705.861437 508.7188 l
706.674557 508.614071 l
707.773368 508.733275 l
710.25668 508.669416 l
710.520395 508.625992 l
711.355491 508.729018 l
712.190587 508.716246 l
712.454302 508.783511 l
713.289398 508.666862 l
714.937614 508.641318 l
715.487019 508.682188 l
716.300139 508.790323 l
716.58583 508.653238 l
717.39895 508.740938 l
719.069142 508.793729 l
719.882262 508.733275 l
720.431667 508.806501 l
721.816169 508.616626 l
722.629289 508.915487 l
723.178694 508.748601 l
723.7281 508.815015 l
724.277505 508.723058 l
725.376316 508.806501 l
725.947697 508.711137 l
726.497103 508.779254 l
727.046508 508.797986 l
727.310222 508.771591 l
727.859628 508.885686 l
730.057249 508.740938 l
731.991156 508.910378 l
732.276847 508.906121 l
732.826252 508.7188 l
733.375658 508.848222 l
734.474468 508.894201 l
734.738183 508.79458 l
736.122684 508.872063 l
736.386399 508.804798 l
736.935804 508.896755 l
737.7709 508.880577 l
738.58402 508.881429 l
738.869711 508.764779 l
741.067333 508.894201 l
741.616738 508.853331 l
742.166143 508.957209 l
743.264954 508.894201 l
743.550645 508.901864 l
743.814359 509.021919 l
744.649456 508.927408 l
745.748266 508.908676 l
748.780984 508.96402 l
749.330389 509.032137 l
749.594104 508.879726 l
753.176227 509.023622 l
753.725632 508.991267 l
754.011323 509.046612 l
754.824443 508.953803 l
755.373848 508.967426 l
756.472659 509.016811 l
757.307755 508.963169 l
757.85716 509.09259 l
758.406566 509.072155 l
758.955971 508.465918 l
759.219686 508.671119 l
759.505376 508.48465 l
760.340473 508.528074 l
761.153593 508.588527 l
762.252403 508.670267 l
762.538094 508.819272 l
762.801809 508.675376 l
775.196394 508.96402 l
775.745799 509.096848 l
776.84461 509.042354 l
777.394015 509.095145 l
778.207135 509.007445 l
778.492826 509.112174 l
779.327922 509.072155 l
779.591636 509.193914 l
781.789258 509.125797 l
782.338663 509.173479 l
783.986879 509.032137 l
784.536285 509.192211 l
787.019597 509.235635 l
787.854693 509.268842 l
788.404098 509.149638 l
788.953504 509.224566 l
789.217218 509.119837 l
789.502909 509.219458 l
789.502909 509.219458 l
stroke
grestore
0.800 setlinewidth
0 setlinejoin
[] 0 setdash
0.000 setgray
gsave
114.12 493.0272 m
114.12 818.6112 l
stroke
grestore
gsave
821.664 493.0272 m
821.664 818.6112 l
stroke
grestore
gsave
114.12 493.0272 m
821.664 493.0272 l
stroke
grestore
gsave
114.12 818.6112 m
821.664 818.6112 l
stroke
grestore
gsave
114.12 102.3264 m
821.664 102.3264 l
821.664 427.9104 l
114.12 427.9104 l
cl
1.000 setgray
fill
grestore
1 setlinejoin
0 setlinecap
[2.96 1.28] 0 setdash
0.690 setgray
gsave
707.5 325.6 114.1 102.3 clipbox
146.083305 102.3264 m
146.083305 427.9104 l
stroke
grestore
[] 0 setdash
0.000 setgray
gsave
/o {
gsave
newpath
translate
0.8 setlinewidth
1 setlinejoin
0 setlinecap
0 0 m
0 -3.5 l

gsave
0.000 setgray
fill
grestore
stroke
grestore
} bind def
146.083 102.326 o
grestore
gsave
127.005180 87.732650 translate
0.000000 rotate
0.000000 0.000000 m /five glyphshow
6.362305 0.000000 m /two glyphshow
12.724609 0.000000 m /five glyphshow
19.086914 0.000000 m /zero glyphshow
25.449219 0.000000 m /zero glyphshow
31.811523 0.000000 m /zero glyphshow
grestore
[2.96 1.28] 0 setdash
0.690 setgray
gsave
707.5 325.6 114.1 102.3 clipbox
255.964377 102.3264 m
255.964377 427.9104 l
stroke
grestore
[] 0 setdash
0.000 setgray
gsave
/o {
gsave
newpath
translate
0.8 setlinewidth
1 setlinejoin
0 setlinecap
0 0 m
0 -3.5 l

gsave
0.000 setgray
fill
grestore
stroke
grestore
} bind def
255.964 102.326 o
grestore
gsave
236.886252 87.732650 translate
0.000000 rotate
0.000000 0.000000 m /five glyphshow
6.362305 0.000000 m /three glyphshow
12.724609 0.000000 m /zero glyphshow
19.086914 0.000000 m /zero glyphshow
25.449219 0.000000 m /zero glyphshow
31.811523 0.000000 m /zero glyphshow
grestore
[2.96 1.28] 0 setdash
0.690 setgray
gsave
707.5 325.6 114.1 102.3 clipbox
365.845449 102.3264 m
365.845449 427.9104 l
stroke
grestore
[] 0 setdash
0.000 setgray
gsave
/o {
gsave
newpath
translate
0.8 setlinewidth
1 setlinejoin
0 setlinecap
0 0 m
0 -3.5 l

gsave
0.000 setgray
fill
grestore
stroke
grestore
} bind def
365.845 102.326 o
grestore
gsave
346.767324 87.732650 translate
0.000000 rotate
0.000000 0.000000 m /five glyphshow
6.362305 0.000000 m /three glyphshow
12.724609 0.000000 m /five glyphshow
19.086914 0.000000 m /zero glyphshow
25.449219 0.000000 m /zero glyphshow
31.811523 0.000000 m /zero glyphshow
grestore
[2.96 1.28] 0 setdash
0.690 setgray
gsave
707.5 325.6 114.1 102.3 clipbox
475.72652 102.3264 m
475.72652 427.9104 l
stroke
grestore
[] 0 setdash
0.000 setgray
gsave
/o {
gsave
newpath
translate
0.8 setlinewidth
1 setlinejoin
0 setlinecap
0 0 m
0 -3.5 l

gsave
0.000 setgray
fill
grestore
stroke
grestore
} bind def
475.727 102.326 o
grestore
gsave
456.648395 87.732650 translate
0.000000 rotate
0.000000 0.000000 m /five glyphshow
6.362305 0.000000 m /four glyphshow
12.724609 0.000000 m /zero glyphshow
19.086914 0.000000 m /zero glyphshow
25.449219 0.000000 m /zero glyphshow
31.811523 0.000000 m /zero glyphshow
grestore
[2.96 1.28] 0 setdash
0.690 setgray
gsave
707.5 325.6 114.1 102.3 clipbox
585.607592 102.3264 m
585.607592 427.9104 l
stroke
grestore
[] 0 setdash
0.000 setgray
gsave
/o {
gsave
newpath
translate
0.8 setlinewidth
1 setlinejoin
0 setlinecap
0 0 m
0 -3.5 l

gsave
0.000 setgray
fill
grestore
stroke
grestore
} bind def
585.608 102.326 o
grestore
gsave
566.529467 87.732650 translate
0.000000 rotate
0.000000 0.000000 m /five glyphshow
6.362305 0.000000 m /four glyphshow
12.724609 0.000000 m /five glyphshow
19.086914 0.000000 m /zero glyphshow
25.449219 0.000000 m /zero glyphshow
31.811523 0.000000 m /zero glyphshow
grestore
[2.96 1.28] 0 setdash
0.690 setgray
gsave
707.5 325.6 114.1 102.3 clipbox
695.488664 102.3264 m
695.488664 427.9104 l
stroke
grestore
[] 0 setdash
0.000 setgray
gsave
/o {
gsave
newpath
translate
0.8 setlinewidth
1 setlinejoin
0 setlinecap
0 0 m
0 -3.5 l

gsave
0.000 setgray
fill
grestore
stroke
grestore
} bind def
695.489 102.326 o
grestore
gsave
676.410539 87.732650 translate
0.000000 rotate
0.000000 0.000000 m /five glyphshow
6.362305 0.000000 m /five glyphshow
12.724609 0.000000 m /zero glyphshow
19.086914 0.000000 m /zero glyphshow
25.449219 0.000000 m /zero glyphshow
31.811523 0.000000 m /zero glyphshow
grestore
[2.96 1.28] 0 setdash
0.690 setgray
gsave
707.5 325.6 114.1 102.3 clipbox
805.369736 102.3264 m
805.369736 427.9104 l
stroke
grestore
[] 0 setdash
0.000 setgray
gsave
/o {
gsave
newpath
translate
0.8 setlinewidth
1 setlinejoin
0 setlinecap
0 0 m
0 -3.5 l

gsave
0.000 setgray
fill
grestore
stroke
grestore
} bind def
805.37 102.326 o
grestore
gsave
786.291611 87.732650 translate
0.000000 rotate
0.000000 0.000000 m /five glyphshow
6.362305 0.000000 m /five glyphshow
12.724609 0.000000 m /five glyphshow
19.086914 0.000000 m /zero glyphshow
25.449219 0.000000 m /zero glyphshow
31.811523 0.000000 m /zero glyphshow
grestore
gsave
452.946688 74.060775 translate
0.000000 rotate
0.000000 0.000000 m /t glyphshow
3.920898 0.000000 m /space glyphshow
7.099609 0.000000 m /bracketleft glyphshow
11.000977 0.000000 m /m glyphshow
20.742188 0.000000 m /s glyphshow
25.952148 0.000000 m /bracketright glyphshow
grestore
[2.96 1.28] 0 setdash
0.690 setgray
gsave
707.5 325.6 114.1 102.3 clipbox
114.12 117.125673 m
821.664 117.125673 l
stroke
grestore
[] 0 setdash
0.000 setgray
gsave
/o {
gsave
newpath
translate
0.8 setlinewidth
1 setlinejoin
0 setlinecap
0 0 m
-3.5 0 l

gsave
0.000 setgray
fill
grestore
stroke
grestore
} bind def
114.12 117.126 o
grestore
gsave
100.760625 113.328798 translate
0.000000 rotate
0.000000 0.000000 m /zero glyphshow
grestore
[2.96 1.28] 0 setdash
0.690 setgray
gsave
707.5 325.6 114.1 102.3 clipbox
114.12 176.322764 m
821.664 176.322764 l
stroke
grestore
[] 0 setdash
0.000 setgray
gsave
/o {
gsave
newpath
translate
0.8 setlinewidth
1 setlinejoin
0 setlinecap
0 0 m
-3.5 0 l

gsave
0.000 setgray
fill
grestore
stroke
grestore
} bind def
114.12 176.323 o
grestore
gsave
94.401250 172.525889 translate
0.000000 rotate
0.000000 0.000000 m /two glyphshow
6.362305 0.000000 m /zero glyphshow
grestore
[2.96 1.28] 0 setdash
0.690 setgray
gsave
707.5 325.6 114.1 102.3 clipbox
114.12 235.519855 m
821.664 235.519855 l
stroke
grestore
[] 0 setdash
0.000 setgray
gsave
/o {
gsave
newpath
translate
0.8 setlinewidth
1 setlinejoin
0 setlinecap
0 0 m
-3.5 0 l

gsave
0.000 setgray
fill
grestore
stroke
grestore
} bind def
114.12 235.52 o
grestore
gsave
94.401250 231.722980 translate
0.000000 rotate
0.000000 0.000000 m /four glyphshow
6.362305 0.000000 m /zero glyphshow
grestore
[2.96 1.28] 0 setdash
0.690 setgray
gsave
707.5 325.6 114.1 102.3 clipbox
114.12 294.716945 m
821.664 294.716945 l
stroke
grestore
[] 0 setdash
0.000 setgray
gsave
/o {
gsave
newpath
translate
0.8 setlinewidth
1 setlinejoin
0 setlinecap
0 0 m
-3.5 0 l

gsave
0.000 setgray
fill
grestore
stroke
grestore
} bind def
114.12 294.717 o
grestore
gsave
94.401250 290.920070 translate
0.000000 rotate
0.000000 0.000000 m /six glyphshow
6.362305 0.000000 m /zero glyphshow
grestore
[2.96 1.28] 0 setdash
0.690 setgray
gsave
707.5 325.6 114.1 102.3 clipbox
114.12 353.914036 m
821.664 353.914036 l
stroke
grestore
[] 0 setdash
0.000 setgray
gsave
/o {
gsave
newpath
translate
0.8 setlinewidth
1 setlinejoin
0 setlinecap
0 0 m
-3.5 0 l

gsave
0.000 setgray
fill
grestore
stroke
grestore
} bind def
114.12 353.914 o
grestore
gsave
94.401250 350.117161 translate
0.000000 rotate
0.000000 0.000000 m /eight glyphshow
6.362305 0.000000 m /zero glyphshow
grestore
[2.96 1.28] 0 setdash
0.690 setgray
gsave
707.5 325.6 114.1 102.3 clipbox
114.12 413.111127 m
821.664 413.111127 l
stroke
grestore
[] 0 setdash
0.000 setgray
gsave
/o {
gsave
newpath
translate
0.8 setlinewidth
1 setlinejoin
0 setlinecap
0 0 m
-3.5 0 l

gsave
0.000 setgray
fill
grestore
stroke
grestore
} bind def
114.12 413.111 o
grestore
gsave
88.041875 409.314252 translate
0.000000 rotate
0.000000 0.000000 m /one glyphshow
6.362305 0.000000 m /zero glyphshow
12.724609 0.000000 m /zero glyphshow
grestore
gsave
81.963750 213.790275 translate
90.000000 rotate
0.000000 0.000000 m /P glyphshow
6.030273 0.000000 m /W glyphshow
15.917969 0.000000 m /M glyphshow
24.545898 0.000000 m /space glyphshow
27.724609 0.000000 m /D glyphshow
35.424805 0.000000 m /u glyphshow
41.762695 0.000000 m /t glyphshow
45.683594 0.000000 m /y glyphshow
51.601562 0.000000 m /space glyphshow
54.780273 0.000000 m /C glyphshow
61.762695 0.000000 m /y glyphshow
67.680664 0.000000 m /c glyphshow
73.178711 0.000000 m /l glyphshow
75.957031 0.000000 m /e glyphshow
82.109375 0.000000 m /space glyphshow
85.288086 0.000000 m /bracketleft glyphshow
89.189453 0.000000 m /percent glyphshow
98.691406 0.000000 m /bracketright glyphshow
grestore
1.500 setlinewidth
2 setlinecap
0.102 setgray
gsave
707.5 325.6 114.1 102.3 clipbox
146.281091 117.125673 m
166.631065 117.125673 l
166.916756 309.516218 l
199.661316 309.516218 l
199.947006 117.125673 l
232.405875 117.125673 l
232.691566 324.315491 l
265.436125 324.315491 l
265.721816 117.125673 l
298.466375 117.125673 l
298.73009 339.114764 l
331.496626 339.114764 l
331.76034 117.125673 l
364.5049 117.125673 l
364.79059 353.914036 l
397.271435 353.914036 l
397.557126 117.125673 l
430.301685 117.125673 l
430.5654 368.713309 l
463.331936 368.713309 l
463.617626 117.125673 l
496.362186 117.125673 l
496.6259 383.512582 l
529.128721 383.512582 l
529.414412 117.125673 l
562.158972 117.125673 l
562.422686 398.311855 l
595.211198 398.311855 l
595.474912 117.125673 l
628.219472 117.125673 l
628.505163 413.111127 l
661.007984 413.111127 l
661.271698 117.125673 l
760.054782 117.125673 l
760.340473 131.924945 l
789.502909 131.924945 l
789.502909 131.924945 l
stroke
grestore
0.800 setlinewidth
0 setlinejoin
[] 0 setdash
0.000 setgray
gsave
114.12 102.3264 m
114.12 427.9104 l
stroke
grestore
gsave
821.664 102.3264 m
821.664 427.9104 l
stroke
grestore
gsave
114.12 102.3264 m
821.664 102.3264 l
stroke
grestore
gsave
114.12 427.9104 m
821.664 427.9104 l
stroke
grestore

end
showpage
